year	emission[K_tons]	emission_change[%]
2016	775752 				1.28
2015	765922 				0.06
2014	765489 				-5.04
2013	806144 				2.39
2012	787320 				1.00
2011	779506 				-2.49
2010	799376 				5.31
2009	759093 				-7.39
2008	819698 				1.30
2007	809186 				-3.24
2006	836310 				1.54
2005	823601 				-3.79
2004	856087 				0.76
2003	849643 				-1.02
2002	858391 				-1.67