-91.80 164.27
-111.12 118.92
-87.00 146.53
-125.18 103.91
-79.27 114.93
-105.59 36.87
-55.87 144.01
-59.99 -58.60
-91.33 8.09
-157.17 136.95
-133.88 146.28
-167.93 -164.46
-175.48 130.90
-148.12 153.11
-105.89 138.02
-125.24 152.60
-94.10 120.49
-139.06 146.64
-83.96 -22.24
-146.35 173.61
-71.93 -31.16
-62.07 -64.42
-55.88 -24.44
-70.63 -33.96
-63.90 -47.55
-76.16 -37.85
-54.26 -54.92
-64.63 -44.65
-52.18 -40.57
-58.83 -36.82
-69.80 -57.91
-47.66 -38.23
-56.57 -40.54
-66.75 4.51
-126.62 -28.58
98.59 36.44
-118.24 89.62
-133.86 126.59
-176.34 -97.42
-102.54 137.73
-122.09 136.00
-124.01 164.63
-137.02 128.24
-108.06 77.49
-66.77 1.17
-79.33 -33.54
-136.54 21.11
53.02 60.07
-137.70 114.83
-79.69 161.88
-159.25 136.32
-117.44 148.03
-120.14 134.77
-136.59 143.45
-106.42 110.07
-87.57 119.61
-123.78 125.79
-136.76 128.35
47.78 -111.59
-107.90 25.51
-117.85 126.75
-123.43 123.57
-101.18 114.96
-87.47 113.57
-143.99 171.81
-136.99 155.52
-150.45 -174.99
-101.32 153.65
-53.96 -31.03
-84.46 -5.06
-65.84 138.30
-77.54 157.58
-54.71 -35.77
-58.98 -43.14
-60.62 -36.90
-62.20 -41.07
-64.07 -30.28
-68.65 -45.43
-50.85 -49.27
-62.23 -40.98
-58.58 -40.10
-64.13 -32.11
-91.89 -49.21
-102.13 -1.95
60.97 37.09
-127.73 121.63
-66.03 162.95
-52.69 -37.82
-73.92 -6.77
-100.81 9.08
-124.74 143.91
-119.10 138.30
-113.08 141.15
-125.42 144.94
-127.00 131.37
50.81 45.44
61.91 19.63
-117.51 129.40
-67.62 136.09
-94.50 128.98
-73.08 126.96
-55.53 -35.72
-85.03 -5.66
-85.66 145.33
-68.64 158.13
-63.02 -36.37
-63.49 -42.10
-62.42 -28.15
-83.40 -3.24
100.55 5.64
-92.80 102.10
-121.05 172.29
-59.80 -29.76
-82.03 -19.37
-105.58 -27.90
-132.98 76.44
-100.09 155.30
-57.42 -40.84
-66.20 -25.63
-149.68 71.44
-71.13 161.53
-90.99 147.17
-85.74 138.62
-116.96 127.63
-83.95 143.87
-127.43 125.76
-121.66 134.29
-101.81 153.52
-77.07 124.32
-116.60 140.84
-75.93 131.30
-65.11 155.65
-70.13 154.93
-55.76 114.65
-112.42 110.38
-126.41 127.67
-90.62 135.75
-71.86 154.53
-65.58 163.15
-59.87 149.43
-78.07 123.06
-57.37 143.46
-65.67 172.34
-121.62 153.31
-109.62 118.64
-108.65 126.68
-112.13 128.01
-84.87 173.01
-68.34 -28.52
-93.61 13.10
83.68 21.05
-84.84 139.99
-107.03 129.80
-116.75 116.25
-99.21 110.10
-121.36 150.92
-62.06 133.65
-50.88 -53.29
-52.80 -36.95
-69.72 -45.94
-61.88 -21.46
-75.17 -2.78
-60.73 -35.71
-77.92 121.63
-67.48 -35.67
-62.47 -49.02
-63.19 -43.63
-58.72 -27.72
-76.15 -33.68
-60.74 -53.93
-105.44 15.40
-140.56 122.56
-125.89 128.68
-102.29 129.31
-116.72 103.51
-77.93 -11.69
-113.89 -9.52
-107.49 115.58
-78.49 159.63
-37.45 -55.55
-67.36 -17.84
-90.45 -49.57
-60.53 -39.02
-53.28 -50.27
-61.08 -41.50
-55.21 -48.80
-60.03 -42.92
-61.78 -34.67
-63.16 -45.05
-50.86 -52.74
-64.95 -44.14
-61.51 -42.39
-68.14 -47.27
-60.01 -37.68
-75.52 -45.59
-99.23 -4.01
-70.67 119.56
77.82 14.23
-88.79 124.85
-70.62 161.57
-67.64 147.19
-97.52 108.99
-72.57 126.27
-137.11 112.50
-58.62 131.84
-53.83 -26.68
-68.24 -24.40
-105.71 -6.00
-60.95 -44.68
-65.32 -46.11
-59.60 -39.27
-67.24 -41.43
-57.35 -52.84
-56.75 -49.55
-58.55 -51.56
-59.58 -40.49
-58.28 -53.97
-54.09 -41.67
-135.13 133.71
-119.12 131.48
-132.86 150.88
-115.59 110.72
-89.29 114.93
-122.00 133.42
-146.84 131.64
49.76 -117.07
-104.85 14.68
-106.77 126.20
-123.32 118.43
-97.96 114.96
-85.33 110.96
-140.85 174.87
-141.34 153.39
-151.29 -157.64
-122.35 161.88
-56.01 -33.64
-86.08 -4.79
-63.81 141.87
-81.49 163.17
-60.55 -38.07
-57.65 -35.73
-59.93 -43.30
-61.39 -34.14
-66.84 -34.94
-70.02 -34.02
-63.52 -47.54
-58.28 -43.59
-59.74 -38.55
-64.67 -27.66
-100.30 -45.41
-101.72 -7.60
64.03 27.89
-111.39 128.31
-68.33 153.55
-51.07 -32.78
-79.25 0.59
-110.55 17.94
-124.94 142.79
-122.11 123.99
-101.88 138.44
-128.72 143.18
-127.39 121.65
53.67 48.88
63.47 20.20
-120.05 134.09
-69.54 136.80
-99.14 129.05
-77.85 136.92
-61.04 -32.73
-79.74 -18.58
-73.44 150.36
-79.75 160.95
-64.72 -33.41
-59.74 -44.51
-63.79 -24.98
-89.93 -1.83
99.04 8.93
-96.80 94.17
-104.38 161.43
-65.07 -25.13
-80.97 -26.20
-85.56 -38.49
-114.48 82.30
-95.43 159.64
-60.35 -40.13
-78.76 -10.74
-161.40 73.96
-80.72 159.96
-88.30 139.63
-81.70 135.77
-113.95 131.52
-90.36 141.43
-121.91 128.91
-124.46 132.48
-96.49 156.43
-89.59 147.78
-121.55 99.52
-87.42 133.48
-69.20 157.28
-70.98 153.51
-64.48 118.70
-132.23 112.94
-125.37 119.27
-73.27 136.82
-68.36 151.55
-65.45 160.15
-52.58 153.18
-77.16 127.86
-126.42 150.53
-109.05 120.44
-108.97 133.98
-113.81 125.09
-76.47 170.07
-64.53 -28.75
-96.06 13.65
88.36 10.72
-76.58 134.81
-96.13 123.34
-113.81 115.63
-105.18 107.25
-120.16 151.95
-56.30 135.97
-52.68 -48.76
-57.09 -37.78
-70.40 -43.78
-61.06 -28.33
-63.15 -11.04
-56.49 -33.24
-82.95 125.31
-68.43 -35.74
-63.61 -52.91
-59.73 -42.94
-57.44 -37.23
-72.54 -39.50
-54.46 -49.08
-84.16 0.29
-101.34 146.20
-140.57 132.55
-110.99 123.36
-116.82 83.96
-59.84 -14.47
-96.77 -30.82
-103.16 117.62
-76.76 160.26
-41.45 -52.98
-67.52 -24.74
-85.16 -51.99
-59.27 -35.28
-60.62 -45.08
-61.77 -36.64
-60.35 -48.81
-61.46 -35.30
-66.07 -36.03
-60.66 -45.18
-50.51 -52.59
-66.10 -42.51
-59.06 -50.48
-60.10 -46.29
-64.49 -35.94
-66.30 -50.65
-102.15 1.18
-71.05 128.41
64.66 32.89
-76.68 146.65
-74.81 -48.57
-92.04 -174.02
-67.65 139.75
-84.66 136.92
-66.68 152.61
-62.57 141.53
-93.93 110.35
-75.43 128.79
-136.11 114.49
-62.10 125.63
-47.88 -31.88
-53.63 -38.61
-99.31 -6.76
-54.33 -47.95
-64.47 -45.43
-59.35 -42.40
-61.09 -44.86
-53.41 -53.12
-62.36 -41.44
-64.99 -43.98
-64.04 -41.00
-59.66 -53.22
-58.37 -37.60
-89.79 121.34
-60.10 151.31
-63.36 149.49
-58.63 -33.10
-62.18 -49.14
-55.34 -47.44
-63.03 -45.92
-59.02 -43.85
-67.43 -39.24
-57.61 -39.32
-66.41 -30.13
-76.43 -23.93
-75.44 129.57
-65.67 148.75
-61.85 147.54
-61.09 -29.12
-65.00 -45.02
-62.34 -47.82
-60.92 -41.86
-64.92 -39.13
-67.81 -42.65
-58.96 -34.32
-70.58 -24.08
-106.27 132.74
-112.46 125.84
-120.03 118.30
-102.73 132.75
-136.49 112.17
-70.39 145.32
-94.13 124.83
47.79 46.77
-60.99 -45.42
-60.84 -42.77
-69.26 -37.87
-69.02 -33.68
-64.86 -46.28
-59.65 -34.46
-65.16 -36.56
-70.84 -43.60
-70.24 -19.08
-144.65 83.06
-68.06 -16.09
-57.49 -26.81
-59.51 -16.99
-64.20 139.45
87.86 -23.52
-92.31 150.16
-68.60 121.80
-112.76 129.42
-124.48 119.48
-99.10 118.28
-113.43 151.98
-111.02 100.93
-75.28 144.20
-108.10 -18.19
82.05 6.28
-64.71 -47.32
-145.55 -170.54
-70.38 134.87
59.89 16.96
-70.48 133.27
140.75 -168.53
-129.86 177.37
-100.25 122.09
-72.79 -50.65
-164.40 161.33
-132.94 157.02
-76.98 178.81
-69.51 -30.00
-59.87 -40.35
-79.52 -31.87
-67.66 -28.82
-53.79 -38.80
-96.54 10.66
97.05 13.00
-96.03 99.03
-135.09 -179.73
-64.87 138.43
106.44 -33.10
-72.84 153.01
-63.96 156.71
-65.13 -46.39
-60.66 -32.26
-66.67 -41.74
-64.53 -38.52
-70.05 -23.38
-69.21 -31.80
-84.48 -49.18
-127.83 82.32
-68.72 -18.93
-108.44 18.04
-75.31 165.94
-88.04 114.89
-107.04 106.46
-108.39 145.67
-76.38 150.89
-69.95 136.09
-129.17 77.57
-71.31 -34.72
-73.94 -26.49
-56.60 -50.95
-63.32 -28.61
-72.71 -44.90
-64.36 -39.91
-61.57 -45.52
-60.66 -40.74
-62.70 -39.55
-67.14 -39.73
-67.73 -39.46
-59.44 -40.80
-62.51 -30.24
-65.42 -43.28
-62.81 -28.66
-65.92 -13.62
-75.91 -23.75
-93.28 -8.74
-171.76 132.67
-71.27 -32.37
-77.33 107.19
-146.59 143.80
-127.46 112.31
-88.32 107.49
-86.17 -32.80
-160.20 -164.84
-65.94 -15.70
-141.44 24.18
-141.68 132.92
-136.29 136.79
-101.09 128.99
-115.45 126.79
-88.19 104.89
-103.11 23.04
-60.17 -37.45
-89.83 10.04
-125.54 -18.81
-137.84 162.36
-109.23 -29.94
-135.11 -179.51
-67.39 -31.22
-58.45 -45.57
-69.28 -44.44
-57.23 -33.52
-66.87 -42.10
-64.37 -46.29
-64.55 -26.81
-59.19 -40.65
-70.97 -36.41
-60.21 -36.29
-74.31 -40.98
-59.98 -41.14
-67.85 -47.58
-61.95 -36.07
-67.44 -47.87
-73.17 -26.35
-62.08 -59.32
-80.25 -31.90
-125.70 -2.66
50.16 56.17
-129.15 122.94
-78.92 142.64
-132.37 -178.04
-129.84 133.74
-108.54 131.66
-122.65 127.77
-126.39 129.98
-161.98 -156.16
-98.58 -16.58
-144.17 171.57
-60.89 -38.63
-67.81 -45.76
-78.32 -27.36
-61.87 -36.00
-75.38 -39.81
-58.88 -41.87
-57.54 -44.40
-68.72 -35.03
-58.51 -35.10
-77.22 -41.57
-92.89 17.43
-50.26 -60.09
-63.20 95.95
57.35 56.09
-126.30 179.89
-158.78 135.09
-159.05 141.55
-114.58 126.44
-102.68 104.14
-83.28 176.25
-53.52 -36.27
-76.90 -30.77
-77.80 -27.04
-58.91 -40.79
-68.08 -43.67
-67.02 -31.85
-70.78 -37.70
-55.40 -38.86
-82.91 -33.05
-115.45 -22.88
-69.64 133.04
-62.47 128.60
-67.33 -22.20
-68.08 -22.21
-84.33 11.16
-90.24 133.25
-57.30 133.67
97.84 -6.12
-108.70 95.48
-81.18 -171.04
-74.60 -33.54
-65.05 -40.58
-74.34 -39.98
-60.33 -44.95
-62.93 -37.57
-63.75 -36.80
-68.95 -43.09
-63.77 -43.03
-62.29 -17.11
-91.82 -2.65
96.09 -13.54
-78.41 119.31
-124.40 -9.83
-132.60 158.26
-64.16 -35.61
-63.07 -27.37
-62.48 -22.14
-69.31 -24.14
-75.74 -28.68
-80.35 -23.17
-91.71 148.27
-60.01 136.00
-65.01 -41.52
-65.61 -31.80
-83.13 -28.14
-66.72 -44.28
-62.19 -40.85
-62.57 -22.18
-111.16 -27.67
-114.36 -6.14
97.95 158.17
-64.29 -41.59
-69.07 -50.54
-60.81 -32.89
-67.38 -53.98
-60.24 -34.76
-61.74 -49.40
-71.46 -41.01
-59.51 -42.87
-59.19 -44.04
-63.41 -43.91
-65.92 -33.38
-77.17 -1.83
58.99 38.23
-125.04 16.33
-80.77 140.06
-166.22 50.43
-62.91 128.48
-72.20 159.45
-73.44 122.24
-126.30 148.35
-69.48 117.82
-84.14 129.72
-105.07 126.40
-66.07 122.63
-102.28 -14.14
-146.56 154.34
-136.75 132.05
-159.66 174.73
-158.72 136.19
-138.16 125.13
-111.56 151.25
-85.07 130.06
-77.42 147.34
-59.51 -26.29
-147.52 154.60
-64.16 154.58
-163.49 159.35
-125.03 9.05
-86.21 118.89
-54.67 -42.34
-72.07 -25.84
-76.36 -36.95
-76.39 -32.70
-51.34 -43.31
-59.51 -42.30
-63.75 -42.75
-60.03 -38.56
-72.77 -34.99
-69.82 -35.06
-60.75 -39.20
-68.00 -44.09
-57.50 -52.05
-66.50 -34.47
-67.32 -45.45
-65.65 -32.15
-62.05 -45.11
-69.41 -21.95
-62.22 -41.88
53.27 51.60
88.13 162.34
93.66 115.00
-111.30 127.11
-92.76 153.15
-112.06 -0.93
-130.38 140.02
-131.51 139.09
-129.17 126.78
-90.03 127.00
-121.02 119.36
-112.28 127.77
-95.53 116.77
-74.20 -171.61
-48.56 -52.48
-106.29 38.79
66.80 18.76
-92.24 128.09
-95.88 116.74
-104.74 155.16
-157.17 126.51
-120.27 136.47
-141.95 -166.63
-177.50 153.51
-122.10 162.34
-123.00 151.06
-70.41 3.57
-145.33 172.74
-68.03 158.85
-105.77 122.25
-78.60 162.17
-58.44 -37.56
-66.44 -41.98
-64.64 -38.82
-57.77 -37.43
-65.79 -55.15
-60.85 -43.93
-74.50 -33.16
-62.63 -32.95
-67.92 -45.18
-62.07 -42.75
-68.80 -34.11
-68.41 -43.91
-53.33 -42.34
-63.16 -32.18
-67.79 -41.99
-74.07 -31.44
-59.49 -36.70
-111.08 6.75
-144.78 144.59
-101.16 -13.72
-66.19 145.56
-62.14 145.60
-92.25 141.69
-110.96 -40.99
-127.14 140.16
-122.71 142.37
-155.86 -170.00
-157.20 144.25
-138.87 131.77
-108.93 144.14
-154.74 -178.29
