[
  [
    -110.0,
    120.0,
    10
  ],
  [
    -160.0,
    160.0,
    14
  ],
  [
    -140.0,
    150.0,
    29
  ],
  [
    -80.0,
    140.0,
    55
  ],
  [
    -60.0,
    140.0,
    50
  ],
  [
    -150.0,
    150.0,
    33
  ],
  [
    -70.0,
    130.0,
    121
  ],
  [
    -140.0,
    70.0,
    86
  ],
  [
    -70.0,
    120.0,
    44
  ],
  [
    -70.0,
    150.0,
    24
  ],
  [
    -60.0,
    130.0,
    83
  ],
  [
    -80.0,
    130.0,
    82
  ],
  [
    -70.0,
    140.0,
    114
  ],
  [
    -140.0,
    140.0,
    27
  ],
  [
    -170.0,
    160.0,
    14
  ],
  [
    -60.0,
    -50.0,
    12
  ],
  [
    -130.0,
    70.0,
    45
  ],
  [
    -140.0,
    50.0,
    33
  ],
  [
    -160.0,
    140.0,
    27
  ],
  [
    40.0,
    50.0,
    5
  ],
  [
    40.0,
    60.0,
    6
  ],
  [
    -60.0,
    150.0,
    8
  ],
  [
    -130.0,
    60.0,
    42
  ],
  [
    -140.0,
    40.0,
    2
  ],
  [
    -60.0,
    120.0,
    21
  ],
  [
    -120.0,
    90.0,
    26
  ],
  [
    -120.0,
    100.0,
    20
  ],
  [
    -110.0,
    100.0,
    13
  ],
  [
    -160.0,
    130.0,
    19
  ],
  [
    -150.0,
    70.0,
    17
  ],
  [
    -130.0,
    110.0,
    5
  ],
  [
    -80.0,
    -40.0,
    2
  ],
  [
    -130.0,
    140.0,
    21
  ],
  [
    -80.0,
    120.0,
    38
  ],
  [
    -100.0,
    150.0,
    7
  ],
  [
    -130.0,
    130.0,
    16
  ],
  [
    -130.0,
    160.0,
    7
  ],
  [
    -140.0,
    60.0,
    88
  ],
  [
    -80.0,
    150.0,
    29
  ],
  [
    -150.0,
    130.0,
    20
  ],
  [
    -140.0,
    80.0,
    34
  ],
  [
    -100.0,
    120.0,
    12
  ],
  [
    -130.0,
    90.0,
    19
  ],
  [
    -90.0,
    140.0,
    24
  ],
  [
    -80.0,
    110.0,
    10
  ],
  [
    -130.0,
    80.0,
    32
  ],
  [
    -120.0,
    140.0,
    16
  ],
  [
    -60.0,
    -30.0,
    1
  ],
  [
    -150.0,
    60.0,
    33
  ],
  [
    40.0,
    40.0,
    1
  ],
  [
    -140.0,
    100.0,
    10
  ],
  [
    -80.0,
    160.0,
    10
  ],
  [
    -50.0,
    140.0,
    2
  ],
  [
    -170.0,
    140.0,
    10
  ],
  [
    60.0,
    170.0,
    1
  ],
  [
    -120.0,
    50.0,
    2
  ],
  [
    -130.0,
    150.0,
    20
  ],
  [
    -120.0,
    150.0,
    20
  ],
  [
    -50.0,
    120.0,
    2
  ],
  [
    -90.0,
    130.0,
    27
  ],
  [
    -110.0,
    110.0,
    16
  ],
  [
    -130.0,
    100.0,
    10
  ],
  [
    -90.0,
    160.0,
    7
  ],
  [
    -80.0,
    -50.0,
    3
  ],
  [
    -140.0,
    130.0,
    20
  ],
  [
    -120.0,
    160.0,
    9
  ],
  [
    -120.0,
    120.0,
    12
  ],
  [
    -110.0,
    130.0,
    12
  ],
  [
    -160.0,
    120.0,
    8
  ],
  [
    -150.0,
    140.0,
    31
  ],
  [
    -90.0,
    120.0,
    24
  ],
  [
    -120.0,
    0.0,
    1
  ],
  [
    -160.0,
    150.0,
    20
  ],
  [
    -100.0,
    130.0,
    21
  ],
  [
    -120.0,
    80.0,
    6
  ],
  [
    -130.0,
    120.0,
    10
  ],
  [
    -110.0,
    150.0,
    12
  ],
  [
    -60.0,
    -40.0,
    9
  ],
  [
    -120.0,
    110.0,
    5
  ],
  [
    -180.0,
    150.0,
    3
  ],
  [
    -140.0,
    120.0,
    9
  ],
  [
    -70.0,
    -60.0,
    7
  ],
  [
    30.0,
    50.0,
    3
  ],
  [
    -110.0,
    90.0,
    10
  ],
  [
    -100.0,
    20.0,
    1
  ],
  [
    -50.0,
    130.0,
    14
  ],
  [
    -90.0,
    110.0,
    12
  ],
  [
    -70.0,
    110.0,
    5
  ],
  [
    -150.0,
    80.0,
    14
  ],
  [
    -90.0,
    100.0,
    2
  ],
  [
    -180.0,
    160.0,
    7
  ],
  [
    -110.0,
    140.0,
    8
  ],
  [
    -70.0,
    160.0,
    8
  ],
  [
    -100.0,
    110.0,
    18
  ],
  [
    -150.0,
    160.0,
    11
  ],
  [
    -170.0,
    150.0,
    10
  ],
  [
    -100.0,
    140.0,
    13
  ],
  [
    -180.0,
    170.0,
    1
  ],
  [
    -170.0,
    70.0,
    2
  ],
  [
    -140.0,
    90.0,
    8
  ],
  [
    -150.0,
    90.0,
    1
  ],
  [
    -170.0,
    130.0,
    8
  ],
  [
    -120.0,
    170.0,
    3
  ],
  [
    -150.0,
    50.0,
    4
  ],
  [
    -170.0,
    90.0,
    1
  ],
  [
    20.0,
    70.0,
    1
  ],
  [
    -40.0,
    130.0,
    2
  ],
  [
    -170.0,
    80.0,
    1
  ],
  [
    -140.0,
    110.0,
    8
  ],
  [
    60.0,
    50.0,
    3
  ],
  [
    -50.0,
    -60.0,
    3
  ],
  [
    -170.0,
    120.0,
    4
  ],
  [
    -110.0,
    170.0,
    2
  ],
  [
    -70.0,
    -50.0,
    7
  ],
  [
    -120.0,
    130.0,
    10
  ],
  [
    -100.0,
    160.0,
    7
  ],
  [
    -180.0,
    130.0,
    1
  ],
  [
    -60.0,
    -60.0,
    8
  ],
  [
    -160.0,
    60.0,
    4
  ],
  [
    -60.0,
    160.0,
    1
  ],
  [
    -50.0,
    -50.0,
    4
  ],
  [
    -80.0,
    -60.0,
    4
  ],
  [
    -50.0,
    150.0,
    1
  ],
  [
    -150.0,
    120.0,
    7
  ],
  [
    -160.0,
    100.0,
    4
  ],
  [
    -160.0,
    90.0,
    1
  ],
  [
    -130.0,
    40.0,
    3
  ],
  [
    50.0,
    50.0,
    4
  ],
  [
    60.0,
    40.0,
    2
  ],
  [
    -140.0,
    170.0,
    1
  ],
  [
    170.0,
    90.0,
    1
  ],
  [
    -120.0,
    70.0,
    3
  ],
  [
    70.0,
    120.0,
    1
  ],
  [
    -130.0,
    170.0,
    1
  ],
  [
    50.0,
    40.0,
    1
  ],
  [
    -130.0,
    50.0,
    11
  ],
  [
    -100.0,
    100.0,
    4
  ],
  [
    70.0,
    70.0,
    2
  ],
  [
    60.0,
    60.0,
    4
  ],
  [
    -110.0,
    0.0,
    1
  ],
  [
    -150.0,
    110.0,
    4
  ],
  [
    -170.0,
    60.0,
    1
  ],
  [
    -160.0,
    70.0,
    7
  ],
  [
    50.0,
    60.0,
    2
  ],
  [
    -90.0,
    -30.0,
    1
  ],
  [
    60.0,
    70.0,
    2
  ],
  [
    30.0,
    60.0,
    1
  ],
  [
    -130.0,
    0.0,
    1
  ],
  [
    -140.0,
    160.0,
    8
  ],
  [
    170.0,
    150.0,
    1
  ],
  [
    10.0,
    70.0,
    2
  ],
  [
    0.0,
    60.0,
    1
  ],
  [
    90.0,
    100.0,
    1
  ],
  [
    -90.0,
    150.0,
    6
  ],
  [
    -150.0,
    10.0,
    1
  ],
  [
    -160.0,
    170.0,
    2
  ],
  [
    -30.0,
    -50.0,
    1
  ],
  [
    -150.0,
    0.0,
    1
  ],
  [
    -170.0,
    170.0,
    3
  ],
  [
    -150.0,
    40.0,
    1
  ],
  [
    -60.0,
    110.0,
    2
  ],
  [
    170.0,
    160.0,
    1
  ],
  [
    -70.0,
    -40.0,
    4
  ],
  [
    -180.0,
    140.0,
    2
  ],
  [
    -110.0,
    70.0,
    1
  ],
  [
    -80.0,
    170.0,
    1
  ],
  [
    -160.0,
    -180.0,
    1
  ],
  [
    50.0,
    120.0,
    1
  ],
  [
    -90.0,
    170.0,
    1
  ],
  [
    -120.0,
    60.0,
    2
  ],
  [
    20.0,
    50.0,
    1
  ],
  [
    100.0,
    70.0,
    1
  ],
  [
    -70.0,
    -30.0,
    1
  ],
  [
    -180.0,
    120.0,
    1
  ],
  [
    70.0,
    30.0,
    1
  ]
]