[
  [
    -90.0,
    170.0,
    3
  ],
  [
    -120.0,
    130.0,
    31
  ],
  [
    -90.0,
    110.0,
    30
  ],
  [
    -140.0,
    80.0,
    41
  ],
  [
    -90.0,
    150.0,
    70
  ],
  [
    -80.0,
    120.0,
    71
  ],
  [
    -130.0,
    70.0,
    36
  ],
  [
    40.0,
    50.0,
    37
  ],
  [
    -80.0,
    160.0,
    37
  ],
  [
    -110.0,
    110.0,
    21
  ],
  [
    -120.0,
    90.0,
    28
  ],
  [
    -120.0,
    80.0,
    16
  ],
  [
    -130.0,
    60.0,
    30
  ],
  [
    -70.0,
    140.0,
    113
  ],
  [
    -160.0,
    70.0,
    7
  ],
  [
    -90.0,
    160.0,
    30
  ],
  [
    -90.0,
    130.0,
    47
  ],
  [
    -140.0,
    110.0,
    11
  ],
  [
    -140.0,
    150.0,
    89
  ],
  [
    -140.0,
    70.0,
    57
  ],
  [
    -80.0,
    150.0,
    109
  ],
  [
    -60.0,
    -50.0,
    105
  ],
  [
    -130.0,
    140.0,
    59
  ],
  [
    -150.0,
    50.0,
    2
  ],
  [
    -120.0,
    140.0,
    52
  ],
  [
    -80.0,
    130.0,
    61
  ],
  [
    -80.0,
    140.0,
    91
  ],
  [
    -140.0,
    60.0,
    34
  ],
  [
    -170.0,
    140.0,
    6
  ],
  [
    -60.0,
    -40.0,
    24
  ],
  [
    -70.0,
    130.0,
    104
  ],
  [
    -90.0,
    120.0,
    55
  ],
  [
    -70.0,
    150.0,
    83
  ],
  [
    -70.0,
    -50.0,
    43
  ],
  [
    40.0,
    60.0,
    13
  ],
  [
    50.0,
    80.0,
    1
  ],
  [
    -100.0,
    120.0,
    42
  ],
  [
    -80.0,
    -50.0,
    7
  ],
  [
    -120.0,
    160.0,
    18
  ],
  [
    -70.0,
    120.0,
    72
  ],
  [
    -120.0,
    150.0,
    46
  ],
  [
    -50.0,
    -50.0,
    38
  ],
  [
    -50.0,
    130.0,
    7
  ],
  [
    50.0,
    50.0,
    33
  ],
  [
    80.0,
    140.0,
    1
  ],
  [
    -170.0,
    160.0,
    25
  ],
  [
    -150.0,
    160.0,
    26
  ],
  [
    -120.0,
    120.0,
    29
  ],
  [
    -130.0,
    150.0,
    87
  ],
  [
    -130.0,
    50.0,
    11
  ],
  [
    -110.0,
    120.0,
    24
  ],
  [
    -60.0,
    140.0,
    51
  ],
  [
    70.0,
    -170.0,
    1
  ],
  [
    -140.0,
    140.0,
    67
  ],
  [
    -110.0,
    150.0,
    55
  ],
  [
    -150.0,
    90.0,
    5
  ],
  [
    -60.0,
    -60.0,
    36
  ],
  [
    -100.0,
    150.0,
    57
  ],
  [
    -150.0,
    130.0,
    12
  ],
  [
    -150.0,
    110.0,
    10
  ],
  [
    -60.0,
    120.0,
    50
  ],
  [
    -130.0,
    120.0,
    18
  ],
  [
    -120.0,
    110.0,
    21
  ],
  [
    -60.0,
    110.0,
    2
  ],
  [
    160.0,
    130.0,
    1
  ],
  [
    -110.0,
    100.0,
    20
  ],
  [
    -110.0,
    160.0,
    14
  ],
  [
    -90.0,
    140.0,
    65
  ],
  [
    -140.0,
    100.0,
    9
  ],
  [
    -160.0,
    160.0,
    28
  ],
  [
    -100.0,
    100.0,
    14
  ],
  [
    -150.0,
    140.0,
    38
  ],
  [
    -130.0,
    160.0,
    27
  ],
  [
    -100.0,
    110.0,
    18
  ],
  [
    -100.0,
    140.0,
    40
  ],
  [
    -140.0,
    120.0,
    15
  ],
  [
    -110.0,
    90.0,
    9
  ],
  [
    -100.0,
    130.0,
    28
  ],
  [
    -150.0,
    150.0,
    55
  ],
  [
    -80.0,
    110.0,
    19
  ],
  [
    -140.0,
    130.0,
    20
  ],
  [
    -80.0,
    170.0,
    3
  ],
  [
    -170.0,
    110.0,
    1
  ],
  [
    -140.0,
    170.0,
    3
  ],
  [
    -100.0,
    170.0,
    7
  ],
  [
    -110.0,
    140.0,
    37
  ],
  [
    -130.0,
    80.0,
    39
  ],
  [
    -130.0,
    90.0,
    24
  ],
  [
    -60.0,
    130.0,
    47
  ],
  [
    -130.0,
    110.0,
    14
  ],
  [
    -120.0,
    70.0,
    7
  ],
  [
    -100.0,
    160.0,
    19
  ],
  [
    -150.0,
    70.0,
    10
  ],
  [
    -70.0,
    160.0,
    20
  ],
  [
    -150.0,
    80.0,
    7
  ],
  [
    -170.0,
    130.0,
    5
  ],
  [
    -160.0,
    80.0,
    3
  ],
  [
    -130.0,
    130.0,
    32
  ],
  [
    -110.0,
    130.0,
    27
  ],
  [
    -90.0,
    0.0,
    1
  ],
  [
    -170.0,
    150.0,
    12
  ],
  [
    -140.0,
    160.0,
    34
  ],
  [
    -140.0,
    90.0,
    7
  ],
  [
    -90.0,
    -50.0,
    1
  ],
  [
    -160.0,
    130.0,
    12
  ],
  [
    -70.0,
    -60.0,
    22
  ],
  [
    -150.0,
    100.0,
    6
  ],
  [
    -180.0,
    160.0,
    11
  ],
  [
    -160.0,
    120.0,
    5
  ],
  [
    -160.0,
    50.0,
    1
  ],
  [
    -130.0,
    100.0,
    11
  ],
  [
    -10.0,
    160.0,
    1
  ],
  [
    -80.0,
    100.0,
    1
  ],
  [
    30.0,
    50.0,
    1
  ],
  [
    -120.0,
    -50.0,
    1
  ],
  [
    -150.0,
    60.0,
    13
  ],
  [
    -160.0,
    140.0,
    9
  ],
  [
    -160.0,
    150.0,
    28
  ],
  [
    -60.0,
    150.0,
    8
  ],
  [
    50.0,
    60.0,
    10
  ],
  [
    -50.0,
    140.0,
    2
  ],
  [
    -160.0,
    110.0,
    1
  ],
  [
    -80.0,
    -60.0,
    2
  ],
  [
    -70.0,
    -40.0,
    15
  ],
  [
    40.0,
    40.0,
    3
  ],
  [
    -70.0,
    -30.0,
    2
  ],
  [
    -110.0,
    -60.0,
    1
  ],
  [
    60.0,
    50.0,
    1
  ],
  [
    -50.0,
    -60.0,
    15
  ],
  [
    -120.0,
    100.0,
    16
  ],
  [
    -40.0,
    120.0,
    3
  ],
  [
    -180.0,
    150.0,
    3
  ],
  [
    -90.0,
    90.0,
    1
  ],
  [
    -50.0,
    120.0,
    5
  ],
  [
    -80.0,
    90.0,
    1
  ],
  [
    -160.0,
    100.0,
    3
  ],
  [
    -140.0,
    50.0,
    11
  ],
  [
    -90.0,
    -180.0,
    1
  ],
  [
    -140.0,
    40.0,
    3
  ],
  [
    -70.0,
    110.0,
    10
  ],
  [
    -60.0,
    -70.0,
    1
  ],
  [
    -70.0,
    170.0,
    3
  ],
  [
    40.0,
    70.0,
    1
  ],
  [
    -140.0,
    30.0,
    1
  ],
  [
    -150.0,
    120.0,
    6
  ],
  [
    -100.0,
    -10.0,
    1
  ],
  [
    -120.0,
    -90.0,
    1
  ],
  [
    -160.0,
    170.0,
    3
  ],
  [
    -130.0,
    -160.0,
    1
  ],
  [
    -130.0,
    40.0,
    1
  ],
  [
    -100.0,
    -20.0,
    1
  ],
  [
    -80.0,
    -40.0,
    2
  ],
  [
    -10.0,
    150.0,
    1
  ],
  [
    -80.0,
    20.0,
    1
  ],
  [
    60.0,
    80.0,
    1
  ],
  [
    -170.0,
    170.0,
    2
  ],
  [
    -80.0,
    -30.0,
    1
  ],
  [
    -110.0,
    170.0,
    1
  ],
  [
    -20.0,
    110.0,
    1
  ],
  [
    -110.0,
    -180.0,
    1
  ],
  [
    -60.0,
    160.0,
    1
  ],
  [
    -40.0,
    -50.0,
    1
  ],
  [
    -90.0,
    -60.0,
    1
  ],
  [
    60.0,
    60.0,
    2
  ],
  [
    -60.0,
    -30.0,
    1
  ],
  [
    0.0,
    0.0,
    2
  ],
  [
    -100.0,
    90.0,
    2
  ],
  [
    -10.0,
    110.0,
    1
  ],
  [
    70.0,
    160.0,
    1
  ],
  [
    -40.0,
    -60.0,
    1
  ],
  [
    10.0,
    -100.0,
    1
  ],
  [
    -150.0,
    170.0,
    1
  ],
  [
    -110.0,
    80.0,
    2
  ],
  [
    -130.0,
    170.0,
    2
  ],
  [
    -180.0,
    80.0,
    1
  ],
  [
    -80.0,
    80.0,
    1
  ],
  [
    -60.0,
    -80.0,
    1
  ],
  [
    -120.0,
    60.0,
    2
  ],
  [
    160.0,
    -40.0,
    1
  ],
  [
    30.0,
    60.0,
    1
  ],
  [
    -160.0,
    60.0,
    1
  ],
  [
    50.0,
    40.0,
    1
  ],
  [
    -90.0,
    100.0,
    1
  ],
  [
    50.0,
    70.0,
    1
  ],
  [
    -120.0,
    10.0,
    1
  ],
  [
    -110.0,
    0.0,
    1
  ],
  [
    -50.0,
    110.0,
    1
  ],
  [
    -100.0,
    -50.0,
    1
  ],
  [
    -40.0,
    140.0,
    1
  ],
  [
    -120.0,
    170.0,
    1
  ]
]