[
  [
    -60.0,
    -30.0,
    2
  ],
  [
    -80.0,
    120.0,
    31
  ],
  [
    -100.0,
    120.0,
    16
  ],
  [
    -70.0,
    140.0,
    46
  ],
  [
    -70.0,
    130.0,
    37
  ],
  [
    -80.0,
    130.0,
    21
  ],
  [
    -110.0,
    120.0,
    10
  ],
  [
    -110.0,
    110.0,
    11
  ],
  [
    -100.0,
    160.0,
    5
  ],
  [
    -140.0,
    50.0,
    11
  ],
  [
    -90.0,
    0.0,
    2
  ],
  [
    -120.0,
    80.0,
    11
  ],
  [
    -110.0,
    160.0,
    12
  ],
  [
    -70.0,
    150.0,
    28
  ],
  [
    -160.0,
    150.0,
    14
  ],
  [
    -100.0,
    150.0,
    19
  ],
  [
    -70.0,
    110.0,
    4
  ],
  [
    -130.0,
    150.0,
    28
  ],
  [
    -120.0,
    130.0,
    5
  ],
  [
    -100.0,
    110.0,
    13
  ],
  [
    -90.0,
    160.0,
    16
  ],
  [
    -60.0,
    120.0,
    18
  ],
  [
    -70.0,
    120.0,
    31
  ],
  [
    0.0,
    130.0,
    1
  ],
  [
    -80.0,
    -60.0,
    2
  ],
  [
    -140.0,
    100.0,
    5
  ],
  [
    -60.0,
    130.0,
    24
  ],
  [
    -60.0,
    110.0,
    4
  ],
  [
    -130.0,
    60.0,
    13
  ],
  [
    -70.0,
    -50.0,
    32
  ],
  [
    -120.0,
    110.0,
    13
  ],
  [
    -110.0,
    140.0,
    19
  ],
  [
    -60.0,
    -60.0,
    11
  ],
  [
    -100.0,
    100.0,
    7
  ],
  [
    -130.0,
    140.0,
    14
  ],
  [
    -70.0,
    160.0,
    7
  ],
  [
    -140.0,
    90.0,
    5
  ],
  [
    -140.0,
    140.0,
    22
  ],
  [
    -90.0,
    150.0,
    25
  ],
  [
    -110.0,
    90.0,
    4
  ],
  [
    -100.0,
    140.0,
    13
  ],
  [
    -50.0,
    -50.0,
    9
  ],
  [
    -70.0,
    -60.0,
    11
  ],
  [
    -130.0,
    130.0,
    5
  ],
  [
    -180.0,
    160.0,
    1
  ],
  [
    -60.0,
    140.0,
    14
  ],
  [
    -120.0,
    140.0,
    11
  ],
  [
    -160.0,
    70.0,
    1
  ],
  [
    -70.0,
    -40.0,
    17
  ],
  [
    -110.0,
    150.0,
    16
  ],
  [
    -150.0,
    60.0,
    8
  ],
  [
    -130.0,
    110.0,
    8
  ],
  [
    -90.0,
    130.0,
    19
  ],
  [
    -110.0,
    130.0,
    9
  ],
  [
    -130.0,
    70.0,
    11
  ],
  [
    -130.0,
    80.0,
    16
  ],
  [
    40.0,
    50.0,
    5
  ],
  [
    -160.0,
    80.0,
    5
  ],
  [
    -150.0,
    160.0,
    8
  ],
  [
    -130.0,
    50.0,
    6
  ],
  [
    -170.0,
    160.0,
    11
  ],
  [
    -50.0,
    150.0,
    1
  ],
  [
    -80.0,
    160.0,
    12
  ],
  [
    -140.0,
    80.0,
    8
  ],
  [
    -140.0,
    130.0,
    11
  ],
  [
    -130.0,
    90.0,
    9
  ],
  [
    -90.0,
    -100.0,
    1
  ],
  [
    -90.0,
    140.0,
    22
  ],
  [
    -80.0,
    110.0,
    9
  ],
  [
    -160.0,
    140.0,
    4
  ],
  [
    -60.0,
    150.0,
    3
  ],
  [
    -130.0,
    100.0,
    6
  ],
  [
    -80.0,
    140.0,
    41
  ],
  [
    -120.0,
    150.0,
    14
  ],
  [
    -120.0,
    120.0,
    11
  ],
  [
    -150.0,
    170.0,
    3
  ],
  [
    -60.0,
    -50.0,
    31
  ],
  [
    -150.0,
    140.0,
    8
  ],
  [
    -80.0,
    -50.0,
    10
  ],
  [
    -140.0,
    150.0,
    20
  ],
  [
    -90.0,
    110.0,
    12
  ],
  [
    -60.0,
    -40.0,
    20
  ],
  [
    -120.0,
    160.0,
    4
  ],
  [
    -120.0,
    90.0,
    7
  ],
  [
    -80.0,
    150.0,
    28
  ],
  [
    -90.0,
    120.0,
    12
  ],
  [
    -70.0,
    0.0,
    1
  ],
  [
    -160.0,
    130.0,
    4
  ],
  [
    -140.0,
    60.0,
    14
  ],
  [
    -170.0,
    150.0,
    7
  ],
  [
    -110.0,
    170.0,
    2
  ],
  [
    -90.0,
    -40.0,
    3
  ],
  [
    -160.0,
    170.0,
    2
  ],
  [
    -120.0,
    100.0,
    10
  ],
  [
    -160.0,
    160.0,
    15
  ],
  [
    -140.0,
    170.0,
    1
  ],
  [
    -150.0,
    150.0,
    14
  ],
  [
    20.0,
    60.0,
    1
  ],
  [
    -140.0,
    160.0,
    6
  ],
  [
    -80.0,
    -40.0,
    5
  ],
  [
    -100.0,
    130.0,
    14
  ],
  [
    30.0,
    50.0,
    1
  ],
  [
    -170.0,
    140.0,
    1
  ],
  [
    -150.0,
    80.0,
    3
  ],
  [
    -130.0,
    170.0,
    3
  ],
  [
    -50.0,
    -60.0,
    4
  ],
  [
    -130.0,
    120.0,
    5
  ],
  [
    40.0,
    60.0,
    1
  ],
  [
    -130.0,
    160.0,
    6
  ],
  [
    -140.0,
    120.0,
    3
  ],
  [
    -140.0,
    70.0,
    15
  ],
  [
    -50.0,
    130.0,
    1
  ],
  [
    -120.0,
    70.0,
    3
  ],
  [
    -70.0,
    -30.0,
    3
  ],
  [
    -140.0,
    110.0,
    4
  ],
  [
    -90.0,
    -50.0,
    2
  ],
  [
    -90.0,
    90.0,
    1
  ],
  [
    -40.0,
    110.0,
    1
  ],
  [
    -80.0,
    -20.0,
    1
  ],
  [
    -90.0,
    -20.0,
    1
  ],
  [
    -160.0,
    110.0,
    2
  ],
  [
    -150.0,
    70.0,
    6
  ],
  [
    -150.0,
    130.0,
    5
  ],
  [
    50.0,
    50.0,
    3
  ],
  [
    -80.0,
    170.0,
    1
  ],
  [
    -180.0,
    170.0,
    1
  ],
  [
    -150.0,
    120.0,
    2
  ],
  [
    -90.0,
    170.0,
    1
  ],
  [
    -170.0,
    170.0,
    2
  ],
  [
    -50.0,
    110.0,
    1
  ],
  [
    -80.0,
    -140.0,
    1
  ],
  [
    110.0,
    130.0,
    1
  ],
  [
    -40.0,
    -100.0,
    1
  ],
  [
    70.0,
    90.0,
    1
  ],
  [
    -160.0,
    100.0,
    4
  ],
  [
    -110.0,
    80.0,
    1
  ],
  [
    -50.0,
    -70.0,
    1
  ],
  [
    -100.0,
    90.0,
    1
  ],
  [
    -160.0,
    50.0,
    1
  ],
  [
    -170.0,
    120.0,
    1
  ],
  [
    -150.0,
    50.0,
    1
  ],
  [
    -110.0,
    100.0,
    4
  ],
  [
    -100.0,
    -20.0,
    1
  ],
  [
    50.0,
    60.0,
    1
  ],
  [
    -120.0,
    60.0,
    1
  ],
  [
    -150.0,
    90.0,
    2
  ],
  [
    0.0,
    140.0,
    1
  ],
  [
    -150.0,
    110.0,
    1
  ],
  [
    60.0,
    60.0,
    1
  ],
  [
    30.0,
    60.0,
    2
  ],
  [
    -90.0,
    100.0,
    1
  ],
  [
    -30.0,
    130.0,
    1
  ],
  [
    -160.0,
    120.0,
    2
  ],
  [
    -50.0,
    120.0,
    1
  ],
  [
    -160.0,
    90.0,
    1
  ],
  [
    -150.0,
    100.0,
    1
  ]
]