[
  [
    -60.0,
    -50.0,
    1698
  ],
  [
    -160.0,
    150.0,
    147
  ],
  [
    -150.0,
    150.0,
    200
  ],
  [
    -70.0,
    -50.0,
    3532
  ],
  [
    -70.0,
    -40.0,
    2789
  ],
  [
    -120.0,
    140.0,
    201
  ],
  [
    -80.0,
    130.0,
    199
  ],
  [
    -120.0,
    0.0,
    55
  ],
  [
    -160.0,
    140.0,
    125
  ],
  [
    -120.0,
    10.0,
    57
  ],
  [
    -120.0,
    150.0,
    123
  ],
  [
    -140.0,
    140.0,
    293
  ],
  [
    -100.0,
    130.0,
    208
  ],
  [
    -60.0,
    130.0,
    174
  ],
  [
    -110.0,
    140.0,
    181
  ],
  [
    -60.0,
    -30.0,
    150
  ],
  [
    -160.0,
    130.0,
    75
  ],
  [
    -100.0,
    150.0,
    82
  ],
  [
    -90.0,
    140.0,
    180
  ],
  [
    -90.0,
    -20.0,
    178
  ],
  [
    -100.0,
    70.0,
    24
  ],
  [
    -80.0,
    -40.0,
    672
  ],
  [
    -140.0,
    150.0,
    258
  ],
  [
    -120.0,
    120.0,
    233
  ],
  [
    -70.0,
    140.0,
    257
  ],
  [
    -140.0,
    110.0,
    58
  ],
  [
    -150.0,
    130.0,
    182
  ],
  [
    -60.0,
    -60.0,
    186
  ],
  [
    -170.0,
    140.0,
    36
  ],
  [
    -130.0,
    150.0,
    182
  ],
  [
    -90.0,
    -10.0,
    286
  ],
  [
    -100.0,
    0.0,
    194
  ],
  [
    -150.0,
    140.0,
    216
  ],
  [
    -70.0,
    -20.0,
    280
  ],
  [
    -110.0,
    -10.0,
    70
  ],
  [
    -70.0,
    -30.0,
    773
  ],
  [
    -90.0,
    0.0,
    125
  ],
  [
    -140.0,
    120.0,
    141
  ],
  [
    -120.0,
    130.0,
    283
  ],
  [
    -80.0,
    120.0,
    118
  ],
  [
    -140.0,
    170.0,
    36
  ],
  [
    -70.0,
    -10.0,
    32
  ],
  [
    -90.0,
    100.0,
    54
  ],
  [
    -160.0,
    160.0,
    112
  ],
  [
    -140.0,
    130.0,
    244
  ],
  [
    -100.0,
    -50.0,
    36
  ],
  [
    -110.0,
    130.0,
    255
  ],
  [
    -150.0,
    160.0,
    126
  ],
  [
    -130.0,
    130.0,
    269
  ],
  [
    -130.0,
    20.0,
    23
  ],
  [
    -70.0,
    -60.0,
    163
  ],
  [
    -120.0,
    20.0,
    35
  ],
  [
    -110.0,
    120.0,
    216
  ],
  [
    -60.0,
    120.0,
    53
  ],
  [
    -140.0,
    10.0,
    12
  ],
  [
    70.0,
    -20.0,
    1
  ],
  [
    -90.0,
    10.0,
    24
  ],
  [
    -80.0,
    -20.0,
    354
  ],
  [
    -70.0,
    130.0,
    238
  ],
  [
    -140.0,
    160.0,
    110
  ],
  [
    -70.0,
    160.0,
    31
  ],
  [
    -110.0,
    150.0,
    105
  ],
  [
    -80.0,
    140.0,
    217
  ],
  [
    -90.0,
    130.0,
    179
  ],
  [
    -110.0,
    0.0,
    125
  ],
  [
    -60.0,
    -40.0,
    587
  ],
  [
    -80.0,
    -50.0,
    301
  ],
  [
    -100.0,
    -30.0,
    57
  ],
  [
    -80.0,
    -30.0,
    419
  ],
  [
    -70.0,
    150.0,
    136
  ],
  [
    -130.0,
    40.0,
    9
  ],
  [
    40.0,
    -130.0,
    4
  ],
  [
    -90.0,
    90.0,
    35
  ],
  [
    -140.0,
    70.0,
    5
  ],
  [
    -90.0,
    120.0,
    146
  ],
  [
    -100.0,
    90.0,
    31
  ],
  [
    50.0,
    30.0,
    48
  ],
  [
    -150.0,
    120.0,
    67
  ],
  [
    -110.0,
    110.0,
    121
  ],
  [
    70.0,
    -70.0,
    1
  ],
  [
    -110.0,
    170.0,
    16
  ],
  [
    -130.0,
    -170.0,
    2
  ],
  [
    -140.0,
    100.0,
    25
  ],
  [
    -90.0,
    150.0,
    94
  ],
  [
    -60.0,
    140.0,
    97
  ],
  [
    -120.0,
    110.0,
    126
  ],
  [
    60.0,
    30.0,
    17
  ],
  [
    -130.0,
    140.0,
    238
  ],
  [
    -110.0,
    -180.0,
    8
  ],
  [
    -130.0,
    160.0,
    89
  ],
  [
    -170.0,
    110.0,
    1
  ],
  [
    -130.0,
    0.0,
    31
  ],
  [
    -170.0,
    170.0,
    30
  ],
  [
    -80.0,
    -160.0,
    2
  ],
  [
    -80.0,
    150.0,
    159
  ],
  [
    -90.0,
    80.0,
    30
  ],
  [
    -100.0,
    120.0,
    170
  ],
  [
    -80.0,
    -10.0,
    177
  ],
  [
    -100.0,
    -10.0,
    186
  ],
  [
    -170.0,
    160.0,
    74
  ],
  [
    -160.0,
    70.0,
    3
  ],
  [
    -100.0,
    -20.0,
    98
  ],
  [
    -80.0,
    110.0,
    58
  ],
  [
    -60.0,
    -20.0,
    14
  ],
  [
    -120.0,
    -10.0,
    30
  ],
  [
    -80.0,
    160.0,
    65
  ],
  [
    -110.0,
    -60.0,
    6
  ],
  [
    -100.0,
    110.0,
    116
  ],
  [
    -100.0,
    60.0,
    15
  ],
  [
    -100.0,
    10.0,
    90
  ],
  [
    -110.0,
    -20.0,
    48
  ],
  [
    -70.0,
    120.0,
    103
  ],
  [
    -100.0,
    -80.0,
    3
  ],
  [
    50.0,
    40.0,
    49
  ],
  [
    -100.0,
    100.0,
    62
  ],
  [
    -160.0,
    -30.0,
    2
  ],
  [
    -80.0,
    170.0,
    16
  ],
  [
    -130.0,
    120.0,
    183
  ],
  [
    -90.0,
    160.0,
    64
  ],
  [
    -180.0,
    150.0,
    11
  ],
  [
    -160.0,
    110.0,
    11
  ],
  [
    -90.0,
    70.0,
    52
  ],
  [
    -140.0,
    0.0,
    8
  ],
  [
    60.0,
    20.0,
    38
  ],
  [
    -100.0,
    140.0,
    133
  ],
  [
    -90.0,
    -40.0,
    114
  ],
  [
    -120.0,
    30.0,
    17
  ],
  [
    -110.0,
    10.0,
    89
  ],
  [
    -110.0,
    160.0,
    45
  ],
  [
    60.0,
    0.0,
    11
  ],
  [
    -90.0,
    -150.0,
    1
  ],
  [
    40.0,
    40.0,
    18
  ],
  [
    -80.0,
    0.0,
    18
  ],
  [
    -130.0,
    100.0,
    37
  ],
  [
    -100.0,
    -100.0,
    1
  ],
  [
    -50.0,
    -50.0,
    36
  ],
  [
    -90.0,
    50.0,
    20
  ],
  [
    -110.0,
    -100.0,
    1
  ],
  [
    -170.0,
    150.0,
    53
  ],
  [
    -120.0,
    160.0,
    54
  ],
  [
    -100.0,
    -40.0,
    40
  ],
  [
    60.0,
    40.0,
    9
  ],
  [
    -150.0,
    50.0,
    3
  ],
  [
    -150.0,
    100.0,
    17
  ],
  [
    30.0,
    50.0,
    2
  ],
  [
    -90.0,
    -50.0,
    50
  ],
  [
    -110.0,
    -50.0,
    18
  ],
  [
    -90.0,
    -30.0,
    117
  ],
  [
    -150.0,
    -180.0,
    11
  ],
  [
    -90.0,
    110.0,
    101
  ],
  [
    -160.0,
    170.0,
    35
  ],
  [
    60.0,
    -20.0,
    1
  ],
  [
    -90.0,
    170.0,
    27
  ],
  [
    -170.0,
    -20.0,
    2
  ],
  [
    -100.0,
    -60.0,
    13
  ],
  [
    -120.0,
    100.0,
    61
  ],
  [
    -90.0,
    -60.0,
    10
  ],
  [
    -120.0,
    -60.0,
    8
  ],
  [
    -120.0,
    170.0,
    15
  ],
  [
    -100.0,
    -180.0,
    8
  ],
  [
    -110.0,
    -120.0,
    2
  ],
  [
    -130.0,
    70.0,
    4
  ],
  [
    -150.0,
    110.0,
    21
  ],
  [
    -130.0,
    60.0,
    8
  ],
  [
    -160.0,
    120.0,
    28
  ],
  [
    50.0,
    50.0,
    32
  ],
  [
    -130.0,
    -40.0,
    9
  ],
  [
    -150.0,
    170.0,
    24
  ],
  [
    50.0,
    -130.0,
    6
  ],
  [
    -120.0,
    -90.0,
    1
  ],
  [
    -110.0,
    20.0,
    28
  ],
  [
    -100.0,
    30.0,
    5
  ],
  [
    -100.0,
    160.0,
    46
  ],
  [
    -110.0,
    70.0,
    4
  ],
  [
    -120.0,
    -180.0,
    5
  ],
  [
    -50.0,
    -60.0,
    13
  ],
  [
    -130.0,
    -30.0,
    11
  ],
  [
    -130.0,
    110.0,
    86
  ],
  [
    -110.0,
    100.0,
    61
  ],
  [
    -90.0,
    60.0,
    41
  ],
  [
    0.0,
    120.0,
    1
  ],
  [
    -130.0,
    90.0,
    16
  ],
  [
    -80.0,
    -60.0,
    37
  ],
  [
    -130.0,
    10.0,
    26
  ],
  [
    -60.0,
    150.0,
    23
  ],
  [
    -100.0,
    170.0,
    23
  ],
  [
    -120.0,
    -20.0,
    26
  ],
  [
    -100.0,
    20.0,
    14
  ],
  [
    -130.0,
    170.0,
    22
  ],
  [
    -170.0,
    130.0,
    25
  ],
  [
    80.0,
    -10.0,
    3
  ],
  [
    -80.0,
    80.0,
    5
  ],
  [
    -50.0,
    120.0,
    11
  ],
  [
    -130.0,
    -20.0,
    14
  ],
  [
    50.0,
    -150.0,
    6
  ],
  [
    -110.0,
    -80.0,
    3
  ],
  [
    -30.0,
    110.0,
    1
  ],
  [
    -110.0,
    -30.0,
    32
  ],
  [
    -160.0,
    -60.0,
    1
  ],
  [
    -100.0,
    -110.0,
    3
  ],
  [
    -110.0,
    -150.0,
    1
  ],
  [
    -130.0,
    30.0,
    18
  ],
  [
    -50.0,
    140.0,
    7
  ],
  [
    -140.0,
    60.0,
    4
  ],
  [
    -120.0,
    -30.0,
    19
  ],
  [
    -160.0,
    -80.0,
    1
  ],
  [
    -140.0,
    -20.0,
    5
  ],
  [
    -150.0,
    30.0,
    10
  ],
  [
    -130.0,
    -10.0,
    13
  ],
  [
    40.0,
    30.0,
    7
  ],
  [
    -110.0,
    -40.0,
    28
  ],
  [
    40.0,
    -110.0,
    1
  ],
  [
    60.0,
    10.0,
    31
  ],
  [
    -180.0,
    140.0,
    3
  ],
  [
    -170.0,
    80.0,
    1
  ],
  [
    -140.0,
    -180.0,
    7
  ],
  [
    -160.0,
    90.0,
    4
  ],
  [
    -120.0,
    -40.0,
    14
  ],
  [
    -130.0,
    -100.0,
    1
  ],
  [
    -180.0,
    170.0,
    4
  ],
  [
    -50.0,
    130.0,
    19
  ],
  [
    130.0,
    110.0,
    1
  ],
  [
    60.0,
    70.0,
    2
  ],
  [
    -140.0,
    90.0,
    13
  ],
  [
    -150.0,
    90.0,
    5
  ],
  [
    -100.0,
    80.0,
    23
  ],
  [
    -80.0,
    100.0,
    17
  ],
  [
    -100.0,
    -160.0,
    2
  ],
  [
    -100.0,
    50.0,
    10
  ],
  [
    -50.0,
    -90.0,
    1
  ],
  [
    -90.0,
    -70.0,
    3
  ],
  [
    70.0,
    150.0,
    1
  ],
  [
    -150.0,
    0.0,
    5
  ],
  [
    -110.0,
    -70.0,
    4
  ],
  [
    50.0,
    20.0,
    29
  ],
  [
    -80.0,
    90.0,
    11
  ],
  [
    -40.0,
    -50.0,
    3
  ],
  [
    -120.0,
    90.0,
    23
  ],
  [
    -140.0,
    -10.0,
    6
  ],
  [
    -60.0,
    110.0,
    5
  ],
  [
    50.0,
    80.0,
    3
  ],
  [
    -140.0,
    30.0,
    15
  ],
  [
    -110.0,
    90.0,
    15
  ],
  [
    -150.0,
    40.0,
    7
  ],
  [
    -140.0,
    -50.0,
    5
  ],
  [
    -60.0,
    -70.0,
    5
  ],
  [
    -50.0,
    -150.0,
    2
  ],
  [
    -160.0,
    -170.0,
    3
  ],
  [
    -170.0,
    120.0,
    5
  ],
  [
    -100.0,
    -170.0,
    1
  ],
  [
    70.0,
    -10.0,
    8
  ],
  [
    -150.0,
    60.0,
    4
  ],
  [
    -100.0,
    40.0,
    10
  ],
  [
    -110.0,
    80.0,
    8
  ],
  [
    -160.0,
    20.0,
    2
  ],
  [
    -90.0,
    -80.0,
    1
  ],
  [
    50.0,
    -140.0,
    1
  ],
  [
    -50.0,
    110.0,
    1
  ],
  [
    60.0,
    -10.0,
    2
  ],
  [
    60.0,
    50.0,
    5
  ],
  [
    -90.0,
    30.0,
    2
  ],
  [
    -140.0,
    80.0,
    5
  ],
  [
    -120.0,
    -140.0,
    2
  ],
  [
    40.0,
    20.0,
    3
  ],
  [
    -80.0,
    60.0,
    6
  ],
  [
    -180.0,
    160.0,
    3
  ],
  [
    -70.0,
    110.0,
    15
  ],
  [
    -40.0,
    -70.0,
    1
  ],
  [
    -120.0,
    -50.0,
    8
  ],
  [
    -70.0,
    90.0,
    1
  ],
  [
    -30.0,
    -70.0,
    1
  ],
  [
    40.0,
    50.0,
    8
  ],
  [
    -160.0,
    80.0,
    2
  ],
  [
    -160.0,
    100.0,
    10
  ],
  [
    -110.0,
    60.0,
    2
  ],
  [
    -60.0,
    100.0,
    1
  ],
  [
    70.0,
    10.0,
    10
  ],
  [
    -110.0,
    30.0,
    8
  ],
  [
    -140.0,
    50.0,
    5
  ],
  [
    -150.0,
    -50.0,
    2
  ],
  [
    -90.0,
    40.0,
    5
  ],
  [
    -130.0,
    50.0,
    4
  ],
  [
    -80.0,
    -70.0,
    5
  ],
  [
    -120.0,
    70.0,
    3
  ],
  [
    -60.0,
    160.0,
    5
  ],
  [
    -170.0,
    -180.0,
    3
  ],
  [
    -130.0,
    -80.0,
    1
  ],
  [
    -40.0,
    -80.0,
    1
  ],
  [
    -50.0,
    -40.0,
    13
  ],
  [
    70.0,
    -80.0,
    2
  ],
  [
    -170.0,
    90.0,
    1
  ],
  [
    -150.0,
    80.0,
    4
  ],
  [
    70.0,
    0.0,
    8
  ],
  [
    -140.0,
    40.0,
    11
  ],
  [
    -60.0,
    0.0,
    1
  ],
  [
    -140.0,
    -30.0,
    2
  ],
  [
    -70.0,
    -70.0,
    2
  ],
  [
    -170.0,
    100.0,
    3
  ],
  [
    -110.0,
    -160.0,
    1
  ],
  [
    50.0,
    140.0,
    1
  ],
  [
    -120.0,
    80.0,
    9
  ],
  [
    70.0,
    140.0,
    1
  ],
  [
    -140.0,
    -170.0,
    2
  ],
  [
    150.0,
    140.0,
    1
  ],
  [
    100.0,
    -20.0,
    1
  ],
  [
    -120.0,
    -110.0,
    1
  ],
  [
    -80.0,
    70.0,
    7
  ],
  [
    -120.0,
    40.0,
    5
  ],
  [
    80.0,
    0.0,
    4
  ],
  [
    -140.0,
    -60.0,
    3
  ],
  [
    -110.0,
    40.0,
    4
  ],
  [
    -110.0,
    50.0,
    2
  ],
  [
    -140.0,
    -70.0,
    5
  ],
  [
    -130.0,
    -180.0,
    5
  ],
  [
    60.0,
    140.0,
    1
  ],
  [
    20.0,
    -30.0,
    1
  ],
  [
    -90.0,
    -170.0,
    4
  ],
  [
    160.0,
    -70.0,
    1
  ],
  [
    -140.0,
    -40.0,
    1
  ],
  [
    -70.0,
    170.0,
    5
  ],
  [
    60.0,
    60.0,
    2
  ],
  [
    -160.0,
    -180.0,
    4
  ],
  [
    -70.0,
    -80.0,
    2
  ],
  [
    -110.0,
    -90.0,
    1
  ],
  [
    -140.0,
    20.0,
    10
  ],
  [
    -110.0,
    -110.0,
    1
  ],
  [
    40.0,
    -140.0,
    1
  ],
  [
    -40.0,
    120.0,
    1
  ],
  [
    -70.0,
    0.0,
    3
  ],
  [
    50.0,
    10.0,
    3
  ],
  [
    -100.0,
    -70.0,
    3
  ],
  [
    -170.0,
    -170.0,
    2
  ],
  [
    -90.0,
    -180.0,
    7
  ],
  [
    -80.0,
    -180.0,
    2
  ],
  [
    -70.0,
    -180.0,
    1
  ],
  [
    50.0,
    -90.0,
    1
  ],
  [
    -130.0,
    -130.0,
    1
  ],
  [
    60.0,
    -60.0,
    1
  ],
  [
    -110.0,
    -170.0,
    4
  ],
  [
    -90.0,
    -90.0,
    1
  ],
  [
    70.0,
    170.0,
    1
  ],
  [
    -60.0,
    -110.0,
    1
  ],
  [
    -120.0,
    -160.0,
    1
  ],
  [
    -120.0,
    -120.0,
    2
  ],
  [
    60.0,
    -40.0,
    1
  ],
  [
    -90.0,
    20.0,
    3
  ],
  [
    -70.0,
    -160.0,
    1
  ],
  [
    -160.0,
    10.0,
    2
  ],
  [
    -40.0,
    130.0,
    1
  ],
  [
    -50.0,
    -30.0,
    4
  ],
  [
    70.0,
    -50.0,
    2
  ],
  [
    -90.0,
    -130.0,
    2
  ],
  [
    -180.0,
    -170.0,
    1
  ],
  [
    -180.0,
    -180.0,
    1
  ],
  [
    70.0,
    20.0,
    1
  ],
  [
    40.0,
    60.0,
    4
  ],
  [
    160.0,
    100.0,
    1
  ],
  [
    -130.0,
    -150.0,
    1
  ],
  [
    -120.0,
    -70.0,
    1
  ],
  [
    -100.0,
    -130.0,
    1
  ],
  [
    -130.0,
    -50.0,
    2
  ],
  [
    -150.0,
    10.0,
    2
  ],
  [
    -150.0,
    20.0,
    4
  ],
  [
    0.0,
    130.0,
    1
  ],
  [
    70.0,
    160.0,
    1
  ],
  [
    -100.0,
    -150.0,
    1
  ],
  [
    -30.0,
    170.0,
    1
  ],
  [
    70.0,
    90.0,
    1
  ],
  [
    -160.0,
    -20.0,
    1
  ],
  [
    -120.0,
    -130.0,
    1
  ],
  [
    -180.0,
    -20.0,
    1
  ],
  [
    -180.0,
    110.0,
    2
  ],
  [
    60.0,
    160.0,
    2
  ],
  [
    -180.0,
    120.0,
    1
  ],
  [
    110.0,
    -70.0,
    1
  ],
  [
    -50.0,
    -70.0,
    2
  ],
  [
    70.0,
    120.0,
    1
  ],
  [
    -50.0,
    70.0,
    1
  ],
  [
    0.0,
    140.0,
    1
  ],
  [
    70.0,
    -60.0,
    1
  ],
  [
    60.0,
    -130.0,
    2
  ],
  [
    -120.0,
    60.0,
    2
  ],
  [
    -80.0,
    -170.0,
    1
  ],
  [
    20.0,
    120.0,
    1
  ],
  [
    10.0,
    120.0,
    1
  ],
  [
    -150.0,
    -140.0,
    1
  ],
  [
    -160.0,
    50.0,
    2
  ],
  [
    150.0,
    50.0,
    1
  ],
  [
    -50.0,
    100.0,
    1
  ],
  [
    170.0,
    150.0,
    1
  ],
  [
    -120.0,
    50.0,
    3
  ],
  [
    -130.0,
    -60.0,
    4
  ],
  [
    -90.0,
    -110.0,
    2
  ],
  [
    0.0,
    0.0,
    1
  ],
  [
    -160.0,
    -50.0,
    1
  ],
  [
    -120.0,
    -170.0,
    1
  ],
  [
    170.0,
    170.0,
    1
  ],
  [
    -160.0,
    0.0,
    1
  ],
  [
    -150.0,
    70.0,
    2
  ],
  [
    40.0,
    90.0,
    1
  ],
  [
    -170.0,
    0.0,
    1
  ],
  [
    60.0,
    110.0,
    1
  ],
  [
    40.0,
    -120.0,
    2
  ],
  [
    170.0,
    -180.0,
    1
  ],
  [
    -170.0,
    70.0,
    1
  ],
  [
    -150.0,
    -170.0,
    1
  ],
  [
    -70.0,
    50.0,
    1
  ],
  [
    60.0,
    -120.0,
    1
  ],
  [
    -150.0,
    -110.0,
    1
  ],
  [
    80.0,
    100.0,
    1
  ],
  [
    -70.0,
    100.0,
    1
  ],
  [
    -110.0,
    -140.0,
    1
  ],
  [
    -80.0,
    50.0,
    1
  ],
  [
    80.0,
    10.0,
    1
  ],
  [
    -130.0,
    80.0,
    1
  ],
  [
    80.0,
    -40.0,
    1
  ],
  [
    120.0,
    130.0,
    1
  ],
  [
    -70.0,
    -130.0,
    1
  ],
  [
    140.0,
    50.0,
    1
  ],
  [
    -10.0,
    -40.0,
    1
  ],
  [
    -30.0,
    120.0,
    1
  ],
  [
    -160.0,
    30.0,
    1
  ],
  [
    -130.0,
    -110.0,
    1
  ],
  [
    -80.0,
    30.0,
    1
  ],
  [
    -160.0,
    40.0,
    1
  ],
  [
    70.0,
    -40.0,
    1
  ],
  [
    -60.0,
    -150.0,
    1
  ],
  [
    50.0,
    90.0,
    1
  ],
  [
    -20.0,
    70.0,
    1
  ]
]