[
  [
    -130.0,
    70.0,
    128
  ],
  [
    -130.0,
    140.0,
    34
  ],
  [
    -110.0,
    160.0,
    14
  ],
  [
    -70.0,
    120.0,
    38
  ],
  [
    -70.0,
    140.0,
    69
  ],
  [
    -140.0,
    140.0,
    53
  ],
  [
    -140.0,
    60.0,
    81
  ],
  [
    -140.0,
    160.0,
    13
  ],
  [
    -50.0,
    130.0,
    17
  ],
  [
    -50.0,
    -40.0,
    1
  ],
  [
    -150.0,
    150.0,
    38
  ],
  [
    -70.0,
    -50.0,
    61
  ],
  [
    -70.0,
    150.0,
    27
  ],
  [
    -90.0,
    150.0,
    36
  ],
  [
    -110.0,
    110.0,
    25
  ],
  [
    -130.0,
    130.0,
    36
  ],
  [
    -100.0,
    110.0,
    30
  ],
  [
    -140.0,
    50.0,
    25
  ],
  [
    -60.0,
    -60.0,
    20
  ],
  [
    -140.0,
    70.0,
    74
  ],
  [
    -130.0,
    80.0,
    86
  ],
  [
    -90.0,
    110.0,
    18
  ],
  [
    -100.0,
    130.0,
    13
  ],
  [
    -130.0,
    90.0,
    24
  ],
  [
    -50.0,
    -60.0,
    7
  ],
  [
    -160.0,
    80.0,
    5
  ],
  [
    -70.0,
    -60.0,
    20
  ],
  [
    -120.0,
    140.0,
    37
  ],
  [
    -130.0,
    50.0,
    25
  ],
  [
    -130.0,
    150.0,
    53
  ],
  [
    -100.0,
    170.0,
    3
  ],
  [
    -120.0,
    90.0,
    47
  ],
  [
    -80.0,
    130.0,
    43
  ],
  [
    -120.0,
    -20.0,
    1
  ],
  [
    -110.0,
    90.0,
    10
  ],
  [
    -100.0,
    100.0,
    5
  ],
  [
    -120.0,
    110.0,
    23
  ],
  [
    -50.0,
    -50.0,
    19
  ],
  [
    -170.0,
    150.0,
    25
  ],
  [
    -100.0,
    140.0,
    28
  ],
  [
    -60.0,
    -50.0,
    64
  ],
  [
    -110.0,
    100.0,
    28
  ],
  [
    -90.0,
    140.0,
    34
  ],
  [
    -120.0,
    100.0,
    26
  ],
  [
    -100.0,
    -30.0,
    1
  ],
  [
    -170.0,
    130.0,
    7
  ],
  [
    -100.0,
    150.0,
    33
  ],
  [
    -90.0,
    120.0,
    19
  ],
  [
    -170.0,
    140.0,
    8
  ],
  [
    -90.0,
    160.0,
    24
  ],
  [
    -160.0,
    170.0,
    2
  ],
  [
    -60.0,
    140.0,
    28
  ],
  [
    -120.0,
    80.0,
    20
  ],
  [
    -80.0,
    140.0,
    48
  ],
  [
    -60.0,
    110.0,
    4
  ],
  [
    -100.0,
    90.0,
    1
  ],
  [
    -130.0,
    60.0,
    103
  ],
  [
    -120.0,
    160.0,
    12
  ],
  [
    -70.0,
    160.0,
    11
  ],
  [
    -160.0,
    150.0,
    31
  ],
  [
    -110.0,
    80.0,
    1
  ],
  [
    -130.0,
    100.0,
    23
  ],
  [
    -140.0,
    100.0,
    9
  ],
  [
    -100.0,
    80.0,
    1
  ],
  [
    -80.0,
    150.0,
    30
  ],
  [
    -160.0,
    120.0,
    3
  ],
  [
    -120.0,
    70.0,
    6
  ],
  [
    -70.0,
    -40.0,
    17
  ],
  [
    -140.0,
    130.0,
    35
  ],
  [
    -60.0,
    -40.0,
    21
  ],
  [
    -110.0,
    130.0,
    17
  ],
  [
    -170.0,
    120.0,
    3
  ],
  [
    -140.0,
    150.0,
    49
  ],
  [
    -90.0,
    -50.0,
    3
  ],
  [
    -110.0,
    120.0,
    18
  ],
  [
    -120.0,
    150.0,
    28
  ],
  [
    -60.0,
    130.0,
    40
  ],
  [
    -80.0,
    -20.0,
    1
  ],
  [
    -150.0,
    160.0,
    14
  ],
  [
    -150.0,
    70.0,
    19
  ],
  [
    -70.0,
    -70.0,
    4
  ],
  [
    -160.0,
    60.0,
    3
  ],
  [
    -140.0,
    80.0,
    30
  ],
  [
    -70.0,
    130.0,
    65
  ],
  [
    -170.0,
    160.0,
    14
  ],
  [
    -90.0,
    -60.0,
    1
  ],
  [
    -160.0,
    140.0,
    18
  ],
  [
    -150.0,
    130.0,
    17
  ],
  [
    -150.0,
    140.0,
    23
  ],
  [
    -160.0,
    160.0,
    27
  ],
  [
    -180.0,
    60.0,
    1
  ],
  [
    -120.0,
    130.0,
    22
  ],
  [
    -80.0,
    -40.0,
    3
  ],
  [
    -90.0,
    130.0,
    25
  ],
  [
    -140.0,
    110.0,
    9
  ],
  [
    -80.0,
    120.0,
    35
  ],
  [
    -110.0,
    150.0,
    32
  ],
  [
    -80.0,
    160.0,
    19
  ],
  [
    -70.0,
    110.0,
    4
  ],
  [
    40.0,
    50.0,
    5
  ],
  [
    -80.0,
    -50.0,
    8
  ],
  [
    -150.0,
    80.0,
    6
  ],
  [
    -150.0,
    90.0,
    3
  ],
  [
    -150.0,
    120.0,
    12
  ],
  [
    50.0,
    70.0,
    3
  ],
  [
    -120.0,
    120.0,
    13
  ],
  [
    -150.0,
    60.0,
    4
  ],
  [
    -130.0,
    160.0,
    9
  ],
  [
    60.0,
    70.0,
    1
  ],
  [
    -180.0,
    140.0,
    2
  ],
  [
    -120.0,
    30.0,
    1
  ],
  [
    -100.0,
    -40.0,
    1
  ],
  [
    -170.0,
    80.0,
    3
  ],
  [
    -100.0,
    -10.0,
    1
  ],
  [
    110.0,
    20.0,
    1
  ],
  [
    -170.0,
    60.0,
    3
  ],
  [
    -100.0,
    -70.0,
    1
  ],
  [
    -110.0,
    140.0,
    29
  ],
  [
    -90.0,
    170.0,
    3
  ],
  [
    -80.0,
    110.0,
    11
  ],
  [
    -150.0,
    50.0,
    5
  ],
  [
    50.0,
    40.0,
    3
  ],
  [
    -80.0,
    -60.0,
    2
  ],
  [
    -180.0,
    120.0,
    1
  ],
  [
    -50.0,
    110.0,
    2
  ],
  [
    -140.0,
    120.0,
    11
  ],
  [
    -180.0,
    160.0,
    3
  ],
  [
    -140.0,
    90.0,
    12
  ],
  [
    -130.0,
    110.0,
    11
  ],
  [
    -160.0,
    130.0,
    9
  ],
  [
    50.0,
    60.0,
    1
  ],
  [
    -100.0,
    160.0,
    10
  ],
  [
    -60.0,
    120.0,
    21
  ],
  [
    -160.0,
    -60.0,
    1
  ],
  [
    -160.0,
    70.0,
    3
  ],
  [
    -60.0,
    -30.0,
    1
  ],
  [
    40.0,
    60.0,
    5
  ],
  [
    -130.0,
    120.0,
    13
  ],
  [
    -140.0,
    40.0,
    4
  ],
  [
    -80.0,
    0.0,
    1
  ],
  [
    60.0,
    60.0,
    2
  ],
  [
    -100.0,
    120.0,
    15
  ],
  [
    -120.0,
    170.0,
    1
  ],
  [
    -120.0,
    -10.0,
    1
  ],
  [
    -50.0,
    120.0,
    3
  ],
  [
    -160.0,
    90.0,
    1
  ],
  [
    70.0,
    60.0,
    1
  ],
  [
    60.0,
    50.0,
    1
  ],
  [
    -80.0,
    100.0,
    1
  ],
  [
    -180.0,
    150.0,
    1
  ],
  [
    90.0,
    150.0,
    1
  ],
  [
    -170.0,
    170.0,
    2
  ],
  [
    -150.0,
    110.0,
    2
  ],
  [
    -60.0,
    150.0,
    5
  ],
  [
    50.0,
    50.0,
    10
  ],
  [
    -130.0,
    40.0,
    3
  ],
  [
    70.0,
    70.0,
    1
  ],
  [
    -130.0,
    -30.0,
    1
  ],
  [
    60.0,
    160.0,
    1
  ],
  [
    -170.0,
    110.0,
    1
  ],
  [
    -110.0,
    170.0,
    2
  ],
  [
    -120.0,
    -110.0,
    1
  ],
  [
    -130.0,
    170.0,
    2
  ],
  [
    40.0,
    100.0,
    1
  ],
  [
    -160.0,
    50.0,
    1
  ],
  [
    -50.0,
    140.0,
    1
  ],
  [
    -150.0,
    170.0,
    2
  ],
  [
    30.0,
    50.0,
    1
  ],
  [
    -60.0,
    -70.0,
    1
  ],
  [
    -130.0,
    -180.0,
    1
  ],
  [
    -160.0,
    100.0,
    1
  ],
  [
    -110.0,
    -50.0,
    1
  ],
  [
    -70.0,
    -30.0,
    2
  ],
  [
    -150.0,
    100.0,
    2
  ],
  [
    -60.0,
    160.0,
    1
  ],
  [
    -120.0,
    50.0,
    1
  ],
  [
    -90.0,
    -30.0,
    1
  ],
  [
    -80.0,
    170.0,
    1
  ],
  [
    -100.0,
    0.0,
    2
  ],
  [
    -120.0,
    60.0,
    3
  ],
  [
    -80.0,
    -30.0,
    2
  ],
  [
    -70.0,
    170.0,
    1
  ],
  [
    -90.0,
    100.0,
    1
  ],
  [
    -90.0,
    -40.0,
    1
  ],
  [
    -170.0,
    100.0,
    1
  ],
  [
    40.0,
    40.0,
    1
  ],
  [
    70.0,
    170.0,
    1
  ],
  [
    30.0,
    60.0,
    1
  ],
  [
    -100.0,
    -50.0,
    1
  ],
  [
    140.0,
    150.0,
    1
  ],
  [
    -60.0,
    -20.0,
    1
  ],
  [
    40.0,
    70.0,
    1
  ]
]