[
  [
    -70.0,
    140.0,
    5362
  ],
  [
    -60.0,
    -50.0,
    2291
  ],
  [
    -70.0,
    -20.0,
    3215
  ],
  [
    -80.0,
    160.0,
    1771
  ],
  [
    -70.0,
    -30.0,
    4147
  ],
  [
    -80.0,
    100.0,
    89
  ],
  [
    -80.0,
    -30.0,
    785
  ],
  [
    -70.0,
    150.0,
    4307
  ],
  [
    -70.0,
    -40.0,
    3182
  ],
  [
    -60.0,
    -30.0,
    2454
  ],
  [
    -60.0,
    -40.0,
    4911
  ],
  [
    -60.0,
    130.0,
    3744
  ],
  [
    -60.0,
    -60.0,
    89
  ],
  [
    -100.0,
    -10.0,
    182
  ],
  [
    -70.0,
    130.0,
    2471
  ],
  [
    -80.0,
    -20.0,
    1390
  ],
  [
    -60.0,
    120.0,
    754
  ],
  [
    -80.0,
    140.0,
    1922
  ],
  [
    -60.0,
    140.0,
    3956
  ],
  [
    -80.0,
    150.0,
    2680
  ],
  [
    -70.0,
    160.0,
    1395
  ],
  [
    -90.0,
    160.0,
    554
  ],
  [
    -50.0,
    -50.0,
    448
  ],
  [
    -70.0,
    -50.0,
    514
  ],
  [
    -90.0,
    0.0,
    442
  ],
  [
    -80.0,
    -10.0,
    914
  ],
  [
    -90.0,
    170.0,
    290
  ],
  [
    -70.0,
    170.0,
    196
  ],
  [
    -100.0,
    10.0,
    203
  ],
  [
    -90.0,
    130.0,
    250
  ],
  [
    -80.0,
    130.0,
    990
  ],
  [
    -50.0,
    -60.0,
    47
  ],
  [
    -60.0,
    -20.0,
    358
  ],
  [
    -90.0,
    60.0,
    339
  ],
  [
    -70.0,
    -10.0,
    431
  ],
  [
    -80.0,
    -40.0,
    179
  ],
  [
    -90.0,
    150.0,
    608
  ],
  [
    -100.0,
    150.0,
    108
  ],
  [
    -80.0,
    170.0,
    579
  ],
  [
    -60.0,
    150.0,
    1271
  ],
  [
    -110.0,
    0.0,
    47
  ],
  [
    -80.0,
    50.0,
    81
  ],
  [
    -100.0,
    130.0,
    44
  ],
  [
    -80.0,
    -180.0,
    144
  ],
  [
    -100.0,
    20.0,
    106
  ],
  [
    -110.0,
    150.0,
    10
  ],
  [
    -50.0,
    120.0,
    180
  ],
  [
    -100.0,
    160.0,
    102
  ],
  [
    -80.0,
    120.0,
    351
  ],
  [
    -40.0,
    -50.0,
    11
  ],
  [
    -80.0,
    110.0,
    145
  ],
  [
    -90.0,
    140.0,
    486
  ],
  [
    -50.0,
    140.0,
    133
  ],
  [
    -60.0,
    -180.0,
    1
  ],
  [
    -110.0,
    -10.0,
    20
  ],
  [
    -70.0,
    120.0,
    600
  ],
  [
    -90.0,
    -10.0,
    618
  ],
  [
    -110.0,
    40.0,
    12
  ],
  [
    -80.0,
    70.0,
    119
  ],
  [
    -60.0,
    110.0,
    65
  ],
  [
    -50.0,
    -30.0,
    38
  ],
  [
    -90.0,
    -180.0,
    97
  ],
  [
    -90.0,
    70.0,
    188
  ],
  [
    -90.0,
    -20.0,
    364
  ],
  [
    -90.0,
    80.0,
    74
  ],
  [
    -90.0,
    110.0,
    75
  ],
  [
    -50.0,
    150.0,
    23
  ],
  [
    -40.0,
    150.0,
    2
  ],
  [
    -80.0,
    90.0,
    60
  ],
  [
    -80.0,
    0.0,
    171
  ],
  [
    -90.0,
    120.0,
    134
  ],
  [
    -90.0,
    -30.0,
    95
  ],
  [
    -80.0,
    -150.0,
    3
  ],
  [
    -90.0,
    90.0,
    36
  ],
  [
    -50.0,
    130.0,
    403
  ],
  [
    -60.0,
    160.0,
    150
  ],
  [
    -60.0,
    50.0,
    2
  ],
  [
    -50.0,
    -40.0,
    311
  ],
  [
    -100.0,
    170.0,
    66
  ],
  [
    -90.0,
    10.0,
    162
  ],
  [
    -90.0,
    -170.0,
    16
  ],
  [
    -90.0,
    50.0,
    209
  ],
  [
    -70.0,
    110.0,
    113
  ],
  [
    -110.0,
    20.0,
    33
  ],
  [
    -100.0,
    30.0,
    32
  ],
  [
    -100.0,
    0.0,
    245
  ],
  [
    -90.0,
    30.0,
    49
  ],
  [
    0.0,
    140.0,
    2
  ],
  [
    -100.0,
    40.0,
    12
  ],
  [
    -120.0,
    -10.0,
    7
  ],
  [
    -90.0,
    20.0,
    56
  ],
  [
    -80.0,
    -80.0,
    2
  ],
  [
    -60.0,
    -10.0,
    12
  ],
  [
    -130.0,
    -120.0,
    1
  ],
  [
    -80.0,
    60.0,
    145
  ],
  [
    -110.0,
    10.0,
    29
  ],
  [
    -80.0,
    30.0,
    13
  ],
  [
    -80.0,
    80.0,
    66
  ],
  [
    -60.0,
    100.0,
    9
  ],
  [
    -100.0,
    -20.0,
    58
  ],
  [
    -70.0,
    -140.0,
    3
  ],
  [
    -90.0,
    -140.0,
    2
  ],
  [
    -90.0,
    -160.0,
    7
  ],
  [
    -100.0,
    140.0,
    78
  ],
  [
    -60.0,
    0.0,
    5
  ],
  [
    -60.0,
    -80.0,
    4
  ],
  [
    -80.0,
    10.0,
    19
  ],
  [
    0.0,
    -30.0,
    1
  ],
  [
    -80.0,
    40.0,
    29
  ],
  [
    -80.0,
    -170.0,
    26
  ],
  [
    -80.0,
    -50.0,
    23
  ],
  [
    -100.0,
    -80.0,
    1
  ],
  [
    -70.0,
    0.0,
    15
  ],
  [
    -90.0,
    100.0,
    53
  ],
  [
    -120.0,
    0.0,
    8
  ],
  [
    -90.0,
    40.0,
    93
  ],
  [
    -100.0,
    50.0,
    9
  ],
  [
    -70.0,
    -60.0,
    24
  ],
  [
    -130.0,
    160.0,
    2
  ],
  [
    -70.0,
    100.0,
    31
  ],
  [
    -90.0,
    -40.0,
    18
  ],
  [
    -70.0,
    20.0,
    3
  ],
  [
    -40.0,
    110.0,
    7
  ],
  [
    -100.0,
    -180.0,
    17
  ],
  [
    -80.0,
    20.0,
    14
  ],
  [
    -70.0,
    -100.0,
    2
  ],
  [
    -110.0,
    170.0,
    7
  ],
  [
    0.0,
    0.0,
    3
  ],
  [
    -90.0,
    -110.0,
    1
  ],
  [
    -40.0,
    140.0,
    4
  ],
  [
    -110.0,
    30.0,
    16
  ],
  [
    -120.0,
    130.0,
    1
  ],
  [
    -100.0,
    120.0,
    19
  ],
  [
    -70.0,
    -180.0,
    28
  ],
  [
    -70.0,
    -110.0,
    3
  ],
  [
    -40.0,
    100.0,
    2
  ],
  [
    -60.0,
    10.0,
    4
  ],
  [
    -40.0,
    -60.0,
    13
  ],
  [
    0.0,
    -180.0,
    2
  ],
  [
    -60.0,
    30.0,
    1
  ],
  [
    -110.0,
    130.0,
    8
  ],
  [
    -70.0,
    -170.0,
    6
  ],
  [
    -40.0,
    130.0,
    6
  ],
  [
    -60.0,
    -70.0,
    5
  ],
  [
    -70.0,
    90.0,
    5
  ],
  [
    -70.0,
    -90.0,
    2
  ],
  [
    -150.0,
    -40.0,
    1
  ],
  [
    -120.0,
    150.0,
    5
  ],
  [
    -50.0,
    110.0,
    23
  ],
  [
    -110.0,
    50.0,
    7
  ],
  [
    -70.0,
    80.0,
    5
  ],
  [
    -70.0,
    -80.0,
    5
  ],
  [
    -40.0,
    120.0,
    6
  ],
  [
    -110.0,
    160.0,
    11
  ],
  [
    0.0,
    120.0,
    2
  ],
  [
    -100.0,
    100.0,
    12
  ],
  [
    -60.0,
    -90.0,
    3
  ],
  [
    150.0,
    70.0,
    1
  ],
  [
    -100.0,
    -30.0,
    9
  ],
  [
    50.0,
    -180.0,
    1
  ],
  [
    -100.0,
    110.0,
    11
  ],
  [
    -70.0,
    50.0,
    4
  ],
  [
    -130.0,
    90.0,
    1
  ],
  [
    -160.0,
    -130.0,
    1
  ],
  [
    -140.0,
    60.0,
    1
  ],
  [
    -60.0,
    170.0,
    12
  ],
  [
    -100.0,
    80.0,
    4
  ],
  [
    -70.0,
    40.0,
    5
  ],
  [
    -80.0,
    -60.0,
    4
  ],
  [
    -100.0,
    -150.0,
    3
  ],
  [
    -110.0,
    120.0,
    5
  ],
  [
    -20.0,
    -20.0,
    1
  ],
  [
    -60.0,
    70.0,
    1
  ],
  [
    -80.0,
    -70.0,
    4
  ],
  [
    -110.0,
    80.0,
    4
  ],
  [
    50.0,
    150.0,
    1
  ],
  [
    -80.0,
    -110.0,
    2
  ],
  [
    -90.0,
    -130.0,
    2
  ],
  [
    -110.0,
    -20.0,
    3
  ],
  [
    -40.0,
    30.0,
    1
  ],
  [
    -70.0,
    10.0,
    3
  ],
  [
    -180.0,
    140.0,
    1
  ],
  [
    70.0,
    140.0,
    1
  ],
  [
    -120.0,
    -20.0,
    1
  ],
  [
    -50.0,
    90.0,
    3
  ],
  [
    -60.0,
    -120.0,
    1
  ],
  [
    -120.0,
    40.0,
    1
  ],
  [
    -80.0,
    -160.0,
    3
  ],
  [
    -90.0,
    -70.0,
    3
  ],
  [
    -90.0,
    -150.0,
    4
  ],
  [
    -80.0,
    -90.0,
    4
  ],
  [
    -70.0,
    60.0,
    6
  ],
  [
    -110.0,
    140.0,
    7
  ],
  [
    90.0,
    110.0,
    1
  ],
  [
    -50.0,
    100.0,
    6
  ],
  [
    160.0,
    -180.0,
    1
  ],
  [
    50.0,
    90.0,
    1
  ],
  [
    -100.0,
    60.0,
    13
  ],
  [
    -50.0,
    -70.0,
    5
  ],
  [
    -110.0,
    -180.0,
    5
  ],
  [
    -40.0,
    -40.0,
    4
  ],
  [
    -40.0,
    -70.0,
    5
  ],
  [
    -50.0,
    -20.0,
    5
  ],
  [
    -60.0,
    -140.0,
    1
  ],
  [
    -30.0,
    110.0,
    1
  ],
  [
    130.0,
    60.0,
    1
  ],
  [
    -140.0,
    -30.0,
    1
  ],
  [
    -70.0,
    -70.0,
    5
  ],
  [
    -150.0,
    150.0,
    1
  ],
  [
    -140.0,
    140.0,
    2
  ],
  [
    -70.0,
    70.0,
    2
  ],
  [
    -60.0,
    80.0,
    2
  ],
  [
    0.0,
    -10.0,
    1
  ],
  [
    -60.0,
    40.0,
    5
  ],
  [
    -90.0,
    -90.0,
    2
  ],
  [
    -100.0,
    -40.0,
    1
  ],
  [
    0.0,
    160.0,
    2
  ],
  [
    -60.0,
    90.0,
    1
  ],
  [
    -130.0,
    -30.0,
    1
  ],
  [
    -120.0,
    50.0,
    3
  ],
  [
    -80.0,
    -120.0,
    3
  ],
  [
    -110.0,
    90.0,
    2
  ],
  [
    30.0,
    -120.0,
    1
  ],
  [
    -100.0,
    70.0,
    6
  ],
  [
    -100.0,
    -60.0,
    1
  ],
  [
    -130.0,
    140.0,
    1
  ],
  [
    -140.0,
    80.0,
    2
  ],
  [
    -20.0,
    120.0,
    2
  ],
  [
    -40.0,
    -90.0,
    1
  ],
  [
    -60.0,
    -130.0,
    2
  ],
  [
    -70.0,
    30.0,
    1
  ],
  [
    -70.0,
    -150.0,
    2
  ],
  [
    -110.0,
    110.0,
    2
  ],
  [
    90.0,
    130.0,
    1
  ],
  [
    -50.0,
    -170.0,
    1
  ],
  [
    -60.0,
    20.0,
    1
  ],
  [
    -30.0,
    120.0,
    1
  ],
  [
    -80.0,
    -140.0,
    1
  ],
  [
    90.0,
    -80.0,
    1
  ],
  [
    -50.0,
    160.0,
    1
  ],
  [
    -100.0,
    -90.0,
    1
  ],
  [
    -70.0,
    -160.0,
    3
  ],
  [
    20.0,
    90.0,
    1
  ],
  [
    -100.0,
    -170.0,
    4
  ],
  [
    -80.0,
    -130.0,
    2
  ],
  [
    -90.0,
    -50.0,
    7
  ],
  [
    -60.0,
    -110.0,
    1
  ],
  [
    110.0,
    130.0,
    3
  ],
  [
    -120.0,
    30.0,
    1
  ],
  [
    -20.0,
    10.0,
    1
  ],
  [
    -120.0,
    140.0,
    2
  ],
  [
    130.0,
    110.0,
    1
  ],
  [
    -80.0,
    -100.0,
    1
  ],
  [
    -120.0,
    120.0,
    1
  ],
  [
    -30.0,
    100.0,
    1
  ],
  [
    -150.0,
    110.0,
    1
  ],
  [
    0.0,
    130.0,
    1
  ],
  [
    70.0,
    130.0,
    1
  ],
  [
    0.0,
    170.0,
    3
  ],
  [
    -130.0,
    130.0,
    1
  ],
  [
    -180.0,
    -30.0,
    1
  ],
  [
    -140.0,
    -20.0,
    1
  ],
  [
    -140.0,
    -50.0,
    1
  ],
  [
    -160.0,
    0.0,
    1
  ],
  [
    -20.0,
    160.0,
    1
  ],
  [
    -60.0,
    60.0,
    4
  ],
  [
    -130.0,
    -140.0,
    1
  ],
  [
    -100.0,
    90.0,
    1
  ],
  [
    -20.0,
    -90.0,
    1
  ],
  [
    -150.0,
    60.0,
    1
  ],
  [
    -90.0,
    -120.0,
    1
  ],
  [
    10.0,
    130.0,
    1
  ],
  [
    -130.0,
    -100.0,
    1
  ],
  [
    -150.0,
    120.0,
    1
  ],
  [
    -170.0,
    150.0,
    2
  ],
  [
    100.0,
    150.0,
    1
  ],
  [
    -40.0,
    -80.0,
    2
  ],
  [
    -90.0,
    -100.0,
    1
  ],
  [
    -40.0,
    -30.0,
    1
  ],
  [
    -150.0,
    140.0,
    1
  ],
  [
    -170.0,
    140.0,
    1
  ],
  [
    -130.0,
    10.0,
    2
  ],
  [
    10.0,
    110.0,
    1
  ],
  [
    -110.0,
    70.0,
    2
  ],
  [
    -110.0,
    60.0,
    3
  ],
  [
    40.0,
    60.0,
    1
  ],
  [
    -160.0,
    130.0,
    1
  ],
  [
    10.0,
    120.0,
    1
  ],
  [
    0.0,
    150.0,
    1
  ],
  [
    -170.0,
    -10.0,
    1
  ],
  [
    0.0,
    -70.0,
    1
  ],
  [
    10.0,
    -20.0,
    1
  ],
  [
    -130.0,
    -20.0,
    1
  ],
  [
    -30.0,
    -50.0,
    1
  ],
  [
    -70.0,
    -120.0,
    1
  ],
  [
    -20.0,
    60.0,
    1
  ],
  [
    -110.0,
    -40.0,
    1
  ],
  [
    -120.0,
    10.0,
    1
  ],
  [
    -50.0,
    0.0,
    2
  ],
  [
    -120.0,
    110.0,
    1
  ],
  [
    -30.0,
    140.0,
    1
  ],
  [
    -20.0,
    -50.0,
    1
  ],
  [
    170.0,
    150.0,
    1
  ],
  [
    -160.0,
    140.0,
    1
  ],
  [
    70.0,
    150.0,
    1
  ],
  [
    -130.0,
    -60.0,
    1
  ],
  [
    0.0,
    -40.0,
    2
  ],
  [
    130.0,
    -90.0,
    1
  ],
  [
    -70.0,
    -130.0,
    1
  ],
  [
    -170.0,
    120.0,
    1
  ],
  [
    -40.0,
    -100.0,
    1
  ],
  [
    -140.0,
    -180.0,
    1
  ],
  [
    -50.0,
    170.0,
    1
  ],
  [
    -120.0,
    170.0,
    2
  ],
  [
    -120.0,
    20.0,
    2
  ],
  [
    -40.0,
    80.0,
    1
  ],
  [
    -170.0,
    90.0,
    1
  ],
  [
    -50.0,
    60.0,
    1
  ],
  [
    -130.0,
    150.0,
    1
  ],
  [
    30.0,
    -70.0,
    1
  ],
  [
    -160.0,
    90.0,
    1
  ],
  [
    -30.0,
    -70.0,
    1
  ]
]