[
  [
    -90.0,
    -10.0,
    218
  ],
  [
    -150.0,
    110.0,
    42
  ],
  [
    -160.0,
    150.0,
    183
  ],
  [
    -60.0,
    -30.0,
    195
  ],
  [
    -120.0,
    160.0,
    45
  ],
  [
    -130.0,
    120.0,
    165
  ],
  [
    -70.0,
    -50.0,
    2405
  ],
  [
    -90.0,
    60.0,
    23
  ],
  [
    -80.0,
    -20.0,
    250
  ],
  [
    -60.0,
    -50.0,
    1493
  ],
  [
    -70.0,
    150.0,
    86
  ],
  [
    -100.0,
    -30.0,
    51
  ],
  [
    -80.0,
    150.0,
    109
  ],
  [
    -70.0,
    -30.0,
    562
  ],
  [
    -140.0,
    120.0,
    113
  ],
  [
    -140.0,
    -20.0,
    17
  ],
  [
    -110.0,
    120.0,
    175
  ],
  [
    -100.0,
    0.0,
    164
  ],
  [
    -80.0,
    -30.0,
    282
  ],
  [
    -70.0,
    -20.0,
    259
  ],
  [
    -70.0,
    -40.0,
    1308
  ],
  [
    -130.0,
    140.0,
    298
  ],
  [
    -160.0,
    130.0,
    54
  ],
  [
    -120.0,
    150.0,
    143
  ],
  [
    -70.0,
    130.0,
    277
  ],
  [
    -100.0,
    140.0,
    176
  ],
  [
    -70.0,
    -60.0,
    247
  ],
  [
    -60.0,
    -40.0,
    525
  ],
  [
    -110.0,
    110.0,
    147
  ],
  [
    -120.0,
    10.0,
    51
  ],
  [
    -100.0,
    110.0,
    107
  ],
  [
    -140.0,
    130.0,
    167
  ],
  [
    -150.0,
    160.0,
    160
  ],
  [
    -110.0,
    -20.0,
    67
  ],
  [
    -110.0,
    10.0,
    103
  ],
  [
    -140.0,
    110.0,
    64
  ],
  [
    60.0,
    0.0,
    14
  ],
  [
    60.0,
    20.0,
    46
  ],
  [
    -70.0,
    140.0,
    225
  ],
  [
    -120.0,
    120.0,
    183
  ],
  [
    -120.0,
    140.0,
    277
  ],
  [
    -80.0,
    110.0,
    64
  ],
  [
    -90.0,
    -20.0,
    139
  ],
  [
    -80.0,
    -40.0,
    381
  ],
  [
    -120.0,
    90.0,
    19
  ],
  [
    -120.0,
    110.0,
    133
  ],
  [
    -80.0,
    -10.0,
    143
  ],
  [
    -150.0,
    140.0,
    120
  ],
  [
    -170.0,
    170.0,
    49
  ],
  [
    -160.0,
    160.0,
    260
  ],
  [
    -170.0,
    160.0,
    136
  ],
  [
    -140.0,
    140.0,
    230
  ],
  [
    -90.0,
    130.0,
    236
  ],
  [
    60.0,
    -140.0,
    2
  ],
  [
    -140.0,
    -10.0,
    8
  ],
  [
    -80.0,
    130.0,
    274
  ],
  [
    -160.0,
    140.0,
    69
  ],
  [
    -150.0,
    150.0,
    209
  ],
  [
    -100.0,
    20.0,
    12
  ],
  [
    -130.0,
    -10.0,
    27
  ],
  [
    -140.0,
    100.0,
    32
  ],
  [
    -90.0,
    0.0,
    77
  ],
  [
    70.0,
    0.0,
    13
  ],
  [
    -90.0,
    80.0,
    22
  ],
  [
    -130.0,
    160.0,
    49
  ],
  [
    -60.0,
    -60.0,
    341
  ],
  [
    -100.0,
    150.0,
    81
  ],
  [
    -100.0,
    160.0,
    36
  ],
  [
    -40.0,
    -50.0,
    4
  ],
  [
    -90.0,
    150.0,
    92
  ],
  [
    -80.0,
    -50.0,
    225
  ],
  [
    -100.0,
    170.0,
    10
  ],
  [
    -70.0,
    120.0,
    111
  ],
  [
    -80.0,
    120.0,
    134
  ],
  [
    -110.0,
    130.0,
    236
  ],
  [
    -70.0,
    90.0,
    1
  ],
  [
    -120.0,
    20.0,
    39
  ],
  [
    -60.0,
    160.0,
    5
  ],
  [
    -140.0,
    160.0,
    90
  ],
  [
    -110.0,
    -40.0,
    21
  ],
  [
    -110.0,
    140.0,
    222
  ],
  [
    -60.0,
    130.0,
    150
  ],
  [
    -160.0,
    -50.0,
    1
  ],
  [
    -180.0,
    160.0,
    15
  ],
  [
    -80.0,
    160.0,
    50
  ],
  [
    -100.0,
    80.0,
    17
  ],
  [
    -140.0,
    150.0,
    246
  ],
  [
    -130.0,
    100.0,
    25
  ],
  [
    -130.0,
    20.0,
    15
  ],
  [
    -100.0,
    120.0,
    182
  ],
  [
    -50.0,
    -50.0,
    77
  ],
  [
    -90.0,
    -30.0,
    103
  ],
  [
    -110.0,
    0.0,
    126
  ],
  [
    -100.0,
    130.0,
    181
  ],
  [
    -70.0,
    170.0,
    5
  ],
  [
    -60.0,
    140.0,
    118
  ],
  [
    -100.0,
    10.0,
    53
  ],
  [
    -150.0,
    100.0,
    14
  ],
  [
    -100.0,
    -10.0,
    151
  ],
  [
    -150.0,
    130.0,
    80
  ],
  [
    -110.0,
    20.0,
    49
  ],
  [
    -130.0,
    150.0,
    219
  ],
  [
    -120.0,
    30.0,
    15
  ],
  [
    -160.0,
    100.0,
    11
  ],
  [
    -90.0,
    120.0,
    188
  ],
  [
    -150.0,
    120.0,
    46
  ],
  [
    -140.0,
    170.0,
    18
  ],
  [
    -100.0,
    100.0,
    60
  ],
  [
    -120.0,
    -10.0,
    63
  ],
  [
    -100.0,
    50.0,
    9
  ],
  [
    -70.0,
    110.0,
    22
  ],
  [
    -130.0,
    -140.0,
    1
  ],
  [
    -110.0,
    150.0,
    95
  ],
  [
    -110.0,
    160.0,
    29
  ],
  [
    50.0,
    30.0,
    44
  ],
  [
    -110.0,
    -10.0,
    70
  ],
  [
    -130.0,
    10.0,
    14
  ],
  [
    -170.0,
    150.0,
    59
  ],
  [
    -100.0,
    -20.0,
    72
  ],
  [
    -130.0,
    0.0,
    35
  ],
  [
    -90.0,
    -180.0,
    8
  ],
  [
    -80.0,
    -60.0,
    34
  ],
  [
    -140.0,
    30.0,
    7
  ],
  [
    -130.0,
    130.0,
    235
  ],
  [
    -100.0,
    90.0,
    20
  ],
  [
    -160.0,
    -180.0,
    24
  ],
  [
    -110.0,
    -30.0,
    53
  ],
  [
    -150.0,
    -180.0,
    9
  ],
  [
    -120.0,
    -20.0,
    40
  ],
  [
    -120.0,
    130.0,
    280
  ],
  [
    -120.0,
    80.0,
    8
  ],
  [
    -50.0,
    130.0,
    23
  ],
  [
    -80.0,
    100.0,
    17
  ],
  [
    -70.0,
    160.0,
    14
  ],
  [
    -130.0,
    110.0,
    89
  ],
  [
    -160.0,
    110.0,
    20
  ],
  [
    60.0,
    30.0,
    16
  ],
  [
    -60.0,
    120.0,
    74
  ],
  [
    -150.0,
    170.0,
    30
  ],
  [
    -150.0,
    -10.0,
    4
  ],
  [
    -90.0,
    140.0,
    183
  ],
  [
    -60.0,
    150.0,
    16
  ],
  [
    60.0,
    -160.0,
    1
  ],
  [
    -80.0,
    -180.0,
    2
  ],
  [
    -90.0,
    -160.0,
    1
  ],
  [
    60.0,
    10.0,
    30
  ],
  [
    -160.0,
    170.0,
    77
  ],
  [
    -110.0,
    100.0,
    56
  ],
  [
    -90.0,
    70.0,
    42
  ],
  [
    -130.0,
    -20.0,
    18
  ],
  [
    -110.0,
    -50.0,
    17
  ],
  [
    70.0,
    20.0,
    10
  ],
  [
    -80.0,
    140.0,
    214
  ],
  [
    -90.0,
    90.0,
    37
  ],
  [
    60.0,
    50.0,
    5
  ],
  [
    -50.0,
    120.0,
    16
  ],
  [
    -90.0,
    -40.0,
    64
  ],
  [
    -80.0,
    170.0,
    16
  ],
  [
    -100.0,
    -40.0,
    34
  ],
  [
    -50.0,
    -40.0,
    20
  ],
  [
    50.0,
    20.0,
    23
  ],
  [
    40.0,
    40.0,
    8
  ],
  [
    -150.0,
    -20.0,
    2
  ],
  [
    -140.0,
    80.0,
    3
  ],
  [
    -50.0,
    -60.0,
    32
  ],
  [
    -120.0,
    100.0,
    64
  ],
  [
    -170.0,
    140.0,
    33
  ],
  [
    -110.0,
    -170.0,
    1
  ],
  [
    50.0,
    40.0,
    39
  ],
  [
    70.0,
    10.0,
    12
  ],
  [
    60.0,
    60.0,
    2
  ],
  [
    -140.0,
    50.0,
    4
  ],
  [
    -100.0,
    -50.0,
    23
  ],
  [
    -120.0,
    -130.0,
    3
  ],
  [
    -90.0,
    100.0,
    53
  ],
  [
    -110.0,
    -180.0,
    4
  ],
  [
    -80.0,
    90.0,
    9
  ],
  [
    -110.0,
    30.0,
    4
  ],
  [
    50.0,
    60.0,
    5
  ],
  [
    -130.0,
    -60.0,
    7
  ],
  [
    -80.0,
    0.0,
    26
  ],
  [
    -100.0,
    -60.0,
    17
  ],
  [
    50.0,
    50.0,
    13
  ],
  [
    -150.0,
    -30.0,
    6
  ],
  [
    70.0,
    160.0,
    2
  ],
  [
    -160.0,
    120.0,
    34
  ],
  [
    -110.0,
    40.0,
    4
  ],
  [
    -170.0,
    130.0,
    19
  ],
  [
    -140.0,
    0.0,
    10
  ],
  [
    -110.0,
    170.0,
    8
  ],
  [
    -110.0,
    -60.0,
    10
  ],
  [
    -120.0,
    0.0,
    44
  ],
  [
    -90.0,
    10.0,
    12
  ],
  [
    -120.0,
    -30.0,
    25
  ],
  [
    -160.0,
    20.0,
    1
  ],
  [
    -90.0,
    110.0,
    115
  ],
  [
    -70.0,
    -70.0,
    9
  ],
  [
    -70.0,
    -10.0,
    26
  ],
  [
    -140.0,
    -40.0,
    3
  ],
  [
    -160.0,
    -30.0,
    5
  ],
  [
    -90.0,
    160.0,
    44
  ],
  [
    -90.0,
    30.0,
    3
  ],
  [
    -150.0,
    -90.0,
    1
  ],
  [
    -170.0,
    110.0,
    8
  ],
  [
    -140.0,
    -50.0,
    7
  ],
  [
    -120.0,
    -60.0,
    9
  ],
  [
    -80.0,
    -70.0,
    5
  ],
  [
    -170.0,
    -180.0,
    11
  ],
  [
    -120.0,
    170.0,
    13
  ],
  [
    -90.0,
    -50.0,
    39
  ],
  [
    -120.0,
    -70.0,
    4
  ],
  [
    -150.0,
    80.0,
    4
  ],
  [
    -150.0,
    90.0,
    11
  ],
  [
    -150.0,
    0.0,
    6
  ],
  [
    -90.0,
    40.0,
    4
  ],
  [
    -60.0,
    -70.0,
    10
  ],
  [
    -120.0,
    -180.0,
    9
  ],
  [
    -100.0,
    -180.0,
    3
  ],
  [
    -90.0,
    170.0,
    18
  ],
  [
    40.0,
    50.0,
    12
  ],
  [
    -180.0,
    170.0,
    6
  ],
  [
    -130.0,
    -30.0,
    17
  ],
  [
    70.0,
    -80.0,
    1
  ],
  [
    -130.0,
    70.0,
    7
  ],
  [
    -110.0,
    90.0,
    31
  ],
  [
    -90.0,
    -60.0,
    26
  ],
  [
    -80.0,
    80.0,
    4
  ],
  [
    -110.0,
    50.0,
    6
  ],
  [
    -130.0,
    -170.0,
    1
  ],
  [
    -60.0,
    -20.0,
    8
  ],
  [
    -100.0,
    -80.0,
    1
  ],
  [
    -80.0,
    60.0,
    7
  ],
  [
    -130.0,
    -40.0,
    9
  ],
  [
    60.0,
    -100.0,
    1
  ],
  [
    -100.0,
    60.0,
    15
  ],
  [
    -150.0,
    -70.0,
    1
  ],
  [
    50.0,
    10.0,
    5
  ],
  [
    -110.0,
    80.0,
    7
  ],
  [
    -100.0,
    -170.0,
    4
  ],
  [
    -120.0,
    -50.0,
    6
  ],
  [
    -140.0,
    10.0,
    2
  ],
  [
    -120.0,
    40.0,
    7
  ],
  [
    -110.0,
    70.0,
    5
  ],
  [
    -170.0,
    80.0,
    3
  ],
  [
    -120.0,
    -40.0,
    21
  ],
  [
    -140.0,
    -80.0,
    1
  ],
  [
    -130.0,
    40.0,
    8
  ],
  [
    -100.0,
    70.0,
    11
  ],
  [
    -160.0,
    -10.0,
    2
  ],
  [
    -160.0,
    -160.0,
    2
  ],
  [
    -130.0,
    -50.0,
    5
  ],
  [
    -160.0,
    -60.0,
    4
  ],
  [
    -150.0,
    -120.0,
    1
  ],
  [
    -160.0,
    -80.0,
    1
  ],
  [
    -80.0,
    20.0,
    1
  ],
  [
    70.0,
    -170.0,
    1
  ],
  [
    -110.0,
    -70.0,
    9
  ],
  [
    30.0,
    -120.0,
    1
  ],
  [
    -40.0,
    120.0,
    2
  ],
  [
    -90.0,
    50.0,
    8
  ],
  [
    -160.0,
    -150.0,
    1
  ],
  [
    -70.0,
    -150.0,
    1
  ],
  [
    -130.0,
    90.0,
    9
  ],
  [
    -50.0,
    -70.0,
    1
  ],
  [
    -150.0,
    50.0,
    1
  ],
  [
    -160.0,
    70.0,
    5
  ],
  [
    50.0,
    80.0,
    1
  ],
  [
    60.0,
    40.0,
    8
  ],
  [
    -120.0,
    -170.0,
    1
  ],
  [
    50.0,
    -140.0,
    4
  ],
  [
    -170.0,
    100.0,
    3
  ],
  [
    -100.0,
    30.0,
    3
  ],
  [
    -130.0,
    170.0,
    15
  ],
  [
    -30.0,
    -60.0,
    1
  ],
  [
    -140.0,
    -30.0,
    7
  ],
  [
    60.0,
    -20.0,
    1
  ],
  [
    -140.0,
    20.0,
    8
  ],
  [
    70.0,
    -30.0,
    3
  ],
  [
    -150.0,
    -60.0,
    2
  ],
  [
    -140.0,
    -100.0,
    1
  ],
  [
    -140.0,
    40.0,
    4
  ],
  [
    70.0,
    40.0,
    1
  ],
  [
    -170.0,
    90.0,
    2
  ],
  [
    30.0,
    -140.0,
    1
  ],
  [
    70.0,
    -60.0,
    2
  ],
  [
    -130.0,
    -120.0,
    1
  ],
  [
    -50.0,
    140.0,
    5
  ],
  [
    -120.0,
    -90.0,
    3
  ],
  [
    170.0,
    -40.0,
    1
  ],
  [
    -140.0,
    90.0,
    8
  ],
  [
    -80.0,
    70.0,
    8
  ],
  [
    -90.0,
    -80.0,
    5
  ],
  [
    -140.0,
    70.0,
    2
  ],
  [
    -130.0,
    60.0,
    3
  ],
  [
    50.0,
    -150.0,
    3
  ],
  [
    -170.0,
    120.0,
    5
  ],
  [
    110.0,
    90.0,
    1
  ],
  [
    -90.0,
    -70.0,
    9
  ],
  [
    -130.0,
    -90.0,
    2
  ],
  [
    -130.0,
    50.0,
    3
  ],
  [
    -130.0,
    30.0,
    9
  ],
  [
    -150.0,
    70.0,
    1
  ],
  [
    -160.0,
    -40.0,
    4
  ],
  [
    -60.0,
    110.0,
    7
  ],
  [
    70.0,
    -10.0,
    5
  ],
  [
    -40.0,
    -90.0,
    1
  ],
  [
    -120.0,
    -100.0,
    5
  ],
  [
    -140.0,
    -170.0,
    5
  ],
  [
    -140.0,
    -90.0,
    1
  ],
  [
    170.0,
    150.0,
    1
  ],
  [
    -140.0,
    -120.0,
    1
  ],
  [
    -110.0,
    -160.0,
    1
  ],
  [
    -20.0,
    -60.0,
    1
  ],
  [
    -90.0,
    -170.0,
    2
  ],
  [
    -110.0,
    60.0,
    1
  ],
  [
    -180.0,
    140.0,
    3
  ],
  [
    -110.0,
    -110.0,
    2
  ],
  [
    -150.0,
    40.0,
    3
  ],
  [
    -130.0,
    -70.0,
    4
  ],
  [
    -130.0,
    80.0,
    6
  ],
  [
    -70.0,
    100.0,
    4
  ],
  [
    -30.0,
    -110.0,
    1
  ],
  [
    -140.0,
    -60.0,
    2
  ],
  [
    -60.0,
    0.0,
    1
  ],
  [
    60.0,
    -50.0,
    2
  ],
  [
    50.0,
    70.0,
    1
  ],
  [
    -130.0,
    -180.0,
    6
  ],
  [
    -40.0,
    -60.0,
    4
  ],
  [
    -160.0,
    90.0,
    5
  ],
  [
    -100.0,
    -70.0,
    4
  ],
  [
    -170.0,
    50.0,
    1
  ],
  [
    -120.0,
    -80.0,
    4
  ],
  [
    -180.0,
    150.0,
    7
  ],
  [
    -80.0,
    -150.0,
    1
  ],
  [
    -160.0,
    -170.0,
    4
  ],
  [
    -160.0,
    0.0,
    1
  ],
  [
    -150.0,
    20.0,
    2
  ],
  [
    160.0,
    -180.0,
    1
  ],
  [
    -50.0,
    110.0,
    2
  ],
  [
    -80.0,
    10.0,
    2
  ],
  [
    -70.0,
    -130.0,
    1
  ],
  [
    70.0,
    100.0,
    1
  ],
  [
    -150.0,
    10.0,
    4
  ],
  [
    -170.0,
    -170.0,
    1
  ],
  [
    30.0,
    50.0,
    1
  ],
  [
    -100.0,
    -160.0,
    2
  ],
  [
    -150.0,
    -170.0,
    2
  ],
  [
    50.0,
    -130.0,
    6
  ],
  [
    30.0,
    0.0,
    1
  ],
  [
    80.0,
    140.0,
    1
  ],
  [
    -90.0,
    20.0,
    3
  ],
  [
    -130.0,
    -110.0,
    2
  ],
  [
    40.0,
    60.0,
    3
  ],
  [
    70.0,
    170.0,
    1
  ],
  [
    80.0,
    0.0,
    1
  ],
  [
    -160.0,
    50.0,
    2
  ],
  [
    -160.0,
    80.0,
    6
  ],
  [
    -110.0,
    -100.0,
    2
  ],
  [
    40.0,
    -150.0,
    1
  ],
  [
    90.0,
    140.0,
    1
  ],
  [
    -40.0,
    -80.0,
    1
  ],
  [
    -110.0,
    -80.0,
    1
  ],
  [
    -50.0,
    -30.0,
    1
  ],
  [
    -170.0,
    70.0,
    1
  ],
  [
    90.0,
    -10.0,
    3
  ],
  [
    -160.0,
    -100.0,
    1
  ],
  [
    10.0,
    110.0,
    1
  ],
  [
    -120.0,
    70.0,
    1
  ],
  [
    -100.0,
    40.0,
    2
  ],
  [
    -90.0,
    -140.0,
    1
  ],
  [
    -120.0,
    50.0,
    2
  ],
  [
    60.0,
    70.0,
    1
  ],
  [
    70.0,
    130.0,
    1
  ],
  [
    70.0,
    -50.0,
    1
  ],
  [
    -140.0,
    -130.0,
    1
  ],
  [
    -100.0,
    -110.0,
    1
  ],
  [
    100.0,
    -10.0,
    1
  ],
  [
    -140.0,
    -180.0,
    1
  ],
  [
    40.0,
    70.0,
    1
  ],
  [
    -60.0,
    40.0,
    1
  ],
  [
    50.0,
    -120.0,
    1
  ],
  [
    70.0,
    -70.0,
    2
  ],
  [
    -130.0,
    -80.0,
    1
  ],
  [
    90.0,
    -20.0,
    1
  ],
  [
    -120.0,
    -140.0,
    1
  ],
  [
    -180.0,
    -90.0,
    1
  ],
  [
    60.0,
    -90.0,
    1
  ],
  [
    -80.0,
    50.0,
    1
  ],
  [
    40.0,
    -130.0,
    1
  ],
  [
    -40.0,
    130.0,
    1
  ],
  [
    80.0,
    -10.0,
    1
  ],
  [
    -170.0,
    -80.0,
    1
  ],
  [
    40.0,
    30.0,
    2
  ],
  [
    -170.0,
    60.0,
    1
  ],
  [
    -50.0,
    -90.0,
    1
  ],
  [
    -90.0,
    -150.0,
    1
  ],
  [
    -170.0,
    -20.0,
    1
  ],
  [
    80.0,
    -20.0,
    1
  ],
  [
    -150.0,
    -150.0,
    1
  ],
  [
    -60.0,
    100.0,
    1
  ],
  [
    -110.0,
    -130.0,
    1
  ],
  [
    -130.0,
    -100.0,
    1
  ],
  [
    60.0,
    -60.0,
    1
  ],
  [
    0.0,
    -40.0,
    2
  ],
  [
    70.0,
    -20.0,
    1
  ],
  [
    -110.0,
    -140.0,
    1
  ],
  [
    -80.0,
    -80.0,
    1
  ],
  [
    60.0,
    -40.0,
    1
  ],
  [
    -120.0,
    -110.0,
    1
  ],
  [
    -110.0,
    -150.0,
    2
  ],
  [
    0.0,
    150.0,
    1
  ],
  [
    -80.0,
    -170.0,
    1
  ],
  [
    -160.0,
    60.0,
    2
  ],
  [
    -180.0,
    -180.0,
    1
  ],
  [
    -70.0,
    0.0,
    1
  ],
  [
    -20.0,
    110.0,
    1
  ],
  [
    -140.0,
    60.0,
    1
  ],
  [
    70.0,
    -40.0,
    1
  ],
  [
    -140.0,
    -110.0,
    1
  ],
  [
    30.0,
    60.0,
    1
  ],
  [
    -140.0,
    -160.0,
    1
  ],
  [
    -120.0,
    -120.0,
    1
  ],
  [
    -110.0,
    -120.0,
    1
  ],
  [
    -120.0,
    60.0,
    1
  ],
  [
    60.0,
    -170.0,
    1
  ],
  [
    70.0,
    -150.0,
    1
  ],
  [
    -160.0,
    10.0,
    1
  ],
  [
    60.0,
    -150.0,
    1
  ],
  [
    -150.0,
    30.0,
    1
  ]
]