[
  [
    270.0,
    140.0,
    6
  ],
  [
    190.0,
    50.0,
    265
  ],
  [
    320.0,
    190.0,
    7
  ],
  [
    160.0,
    30.0,
    70
  ],
  [
    170.0,
    170.0,
    3318
  ],
  [
    180.0,
    280.0,
    1095
  ],
  [
    180.0,
    290.0,
    1919
  ],
  [
    170.0,
    30.0,
    85
  ],
  [
    170.0,
    200.0,
    229
  ],
  [
    190.0,
    180.0,
    1170
  ],
  [
    170.0,
    60.0,
    2025
  ],
  [
    190.0,
    60.0,
    852
  ],
  [
    170.0,
    290.0,
    1712
  ],
  [
    270.0,
    290.0,
    148
  ],
  [
    60.0,
    170.0,
    455
  ],
  [
    170.0,
    50.0,
    1097
  ],
  [
    180.0,
    140.0,
    58
  ],
  [
    190.0,
    290.0,
    1362
  ],
  [
    170.0,
    300.0,
    800
  ],
  [
    40.0,
    100.0,
    2
  ],
  [
    180.0,
    330.0,
    28
  ],
  [
    180.0,
    70.0,
    1042
  ],
  [
    160.0,
    160.0,
    601
  ],
  [
    320.0,
    300.0,
    11
  ],
  [
    150.0,
    180.0,
    251
  ],
  [
    50.0,
    70.0,
    30
  ],
  [
    290.0,
    280.0,
    130
  ],
  [
    290.0,
    170.0,
    413
  ],
  [
    190.0,
    160.0,
    297
  ],
  [
    150.0,
    70.0,
    145
  ],
  [
    160.0,
    60.0,
    1014
  ],
  [
    160.0,
    70.0,
    464
  ],
  [
    170.0,
    150.0,
    237
  ],
  [
    190.0,
    170.0,
    865
  ],
  [
    160.0,
    180.0,
    1147
  ],
  [
    160.0,
    50.0,
    788
  ],
  [
    180.0,
    170.0,
    2518
  ],
  [
    170.0,
    190.0,
    928
  ],
  [
    280.0,
    170.0,
    379
  ],
  [
    180.0,
    180.0,
    2879
  ],
  [
    180.0,
    200.0,
    263
  ],
  [
    290.0,
    310.0,
    67
  ],
  [
    300.0,
    190.0,
    173
  ],
  [
    190.0,
    300.0,
    976
  ],
  [
    190.0,
    320.0,
    84
  ],
  [
    80.0,
    180.0,
    78
  ],
  [
    70.0,
    180.0,
    186
  ],
  [
    150.0,
    170.0,
    306
  ],
  [
    180.0,
    160.0,
    791
  ],
  [
    130.0,
    170.0,
    23
  ],
  [
    160.0,
    190.0,
    355
  ],
  [
    120.0,
    290.0,
    6
  ],
  [
    170.0,
    180.0,
    2779
  ],
  [
    190.0,
    70.0,
    605
  ],
  [
    290.0,
    190.0,
    287
  ],
  [
    160.0,
    170.0,
    1554
  ],
  [
    50.0,
    50.0,
    138
  ],
  [
    160.0,
    290.0,
    863
  ],
  [
    180.0,
    50.0,
    649
  ],
  [
    200.0,
    200.0,
    56
  ],
  [
    160.0,
    300.0,
    314
  ],
  [
    140.0,
    190.0,
    31
  ],
  [
    40.0,
    170.0,
    15
  ],
  [
    180.0,
    300.0,
    979
  ],
  [
    160.0,
    280.0,
    568
  ],
  [
    160.0,
    270.0,
    106
  ],
  [
    290.0,
    180.0,
    906
  ],
  [
    80.0,
    160.0,
    59
  ],
  [
    180.0,
    80.0,
    252
  ],
  [
    60.0,
    180.0,
    448
  ],
  [
    180.0,
    60.0,
    1679
  ],
  [
    280.0,
    180.0,
    686
  ],
  [
    170.0,
    280.0,
    1012
  ],
  [
    190.0,
    280.0,
    593
  ],
  [
    170.0,
    70.0,
    1036
  ],
  [
    300.0,
    170.0,
    142
  ],
  [
    270.0,
    300.0,
    86
  ],
  [
    170.0,
    160.0,
    1092
  ],
  [
    190.0,
    200.0,
    154
  ],
  [
    190.0,
    140.0,
    38
  ],
  [
    230.0,
    150.0,
    14
  ],
  [
    60.0,
    70.0,
    73
  ],
  [
    150.0,
    290.0,
    195
  ],
  [
    200.0,
    300.0,
    213
  ],
  [
    170.0,
    130.0,
    34
  ],
  [
    150.0,
    220.0,
    5
  ],
  [
    20.0,
    110.0,
    1
  ],
  [
    280.0,
    300.0,
    210
  ],
  [
    190.0,
    90.0,
    49
  ],
  [
    280.0,
    290.0,
    324
  ],
  [
    180.0,
    190.0,
    1092
  ],
  [
    150.0,
    40.0,
    124
  ],
  [
    140.0,
    270.0,
    11
  ],
  [
    290.0,
    160.0,
    84
  ],
  [
    160.0,
    40.0,
    221
  ],
  [
    300.0,
    280.0,
    80
  ],
  [
    50.0,
    150.0,
    30
  ],
  [
    250.0,
    300.0,
    19
  ],
  [
    180.0,
    270.0,
    280
  ],
  [
    300.0,
    180.0,
    290
  ],
  [
    170.0,
    210.0,
    65
  ],
  [
    150.0,
    160.0,
    163
  ],
  [
    170.0,
    310.0,
    167
  ],
  [
    180.0,
    20.0,
    21
  ],
  [
    70.0,
    40.0,
    23
  ],
  [
    140.0,
    200.0,
    13
  ],
  [
    180.0,
    260.0,
    110
  ],
  [
    180.0,
    310.0,
    276
  ],
  [
    270.0,
    280.0,
    73
  ],
  [
    290.0,
    80.0,
    65
  ],
  [
    160.0,
    310.0,
    74
  ],
  [
    290.0,
    290.0,
    367
  ],
  [
    160.0,
    90.0,
    37
  ],
  [
    140.0,
    210.0,
    11
  ],
  [
    190.0,
    190.0,
    590
  ],
  [
    220.0,
    160.0,
    19
  ],
  [
    300.0,
    290.0,
    209
  ],
  [
    240.0,
    350.0,
    1
  ],
  [
    160.0,
    250.0,
    23
  ],
  [
    200.0,
    310.0,
    103
  ],
  [
    280.0,
    160.0,
    110
  ],
  [
    300.0,
    300.0,
    279
  ],
  [
    250.0,
    50.0,
    7
  ],
  [
    70.0,
    60.0,
    105
  ],
  [
    300.0,
    310.0,
    61
  ],
  [
    270.0,
    260.0,
    16
  ],
  [
    160.0,
    130.0,
    28
  ],
  [
    260.0,
    180.0,
    89
  ],
  [
    240.0,
    260.0,
    10
  ],
  [
    180.0,
    210.0,
    88
  ],
  [
    280.0,
    190.0,
    167
  ],
  [
    170.0,
    320.0,
    59
  ],
  [
    310.0,
    300.0,
    75
  ],
  [
    140.0,
    170.0,
    64
  ],
  [
    190.0,
    150.0,
    96
  ],
  [
    200.0,
    70.0,
    165
  ],
  [
    210.0,
    170.0,
    46
  ],
  [
    270.0,
    170.0,
    156
  ],
  [
    60.0,
    160.0,
    194
  ],
  [
    300.0,
    70.0,
    7
  ],
  [
    70.0,
    170.0,
    229
  ],
  [
    180.0,
    90.0,
    72
  ],
  [
    280.0,
    70.0,
    52
  ],
  [
    260.0,
    70.0,
    7
  ],
  [
    190.0,
    270.0,
    162
  ],
  [
    50.0,
    170.0,
    251
  ],
  [
    220.0,
    140.0,
    5
  ],
  [
    140.0,
    70.0,
    22
  ],
  [
    150.0,
    200.0,
    39
  ],
  [
    300.0,
    200.0,
    54
  ],
  [
    280.0,
    270.0,
    43
  ],
  [
    180.0,
    240.0,
    28
  ],
  [
    200.0,
    140.0,
    14
  ],
  [
    160.0,
    140.0,
    44
  ],
  [
    50.0,
    250.0,
    5
  ],
  [
    170.0,
    10.0,
    14
  ],
  [
    210.0,
    70.0,
    41
  ],
  [
    200.0,
    250.0,
    21
  ],
  [
    190.0,
    260.0,
    53
  ],
  [
    200.0,
    60.0,
    270
  ],
  [
    250.0,
    280.0,
    20
  ],
  [
    70.0,
    70.0,
    59
  ],
  [
    270.0,
    190.0,
    92
  ],
  [
    200.0,
    190.0,
    147
  ],
  [
    310.0,
    280.0,
    24
  ],
  [
    200.0,
    160.0,
    88
  ],
  [
    310.0,
    310.0,
    20
  ],
  [
    150.0,
    60.0,
    239
  ],
  [
    50.0,
    160.0,
    96
  ],
  [
    50.0,
    180.0,
    217
  ],
  [
    80.0,
    100.0,
    2
  ],
  [
    60.0,
    100.0,
    5
  ],
  [
    140.0,
    20.0,
    8
  ],
  [
    210.0,
    280.0,
    35
  ],
  [
    200.0,
    220.0,
    20
  ],
  [
    90.0,
    260.0,
    5
  ],
  [
    150.0,
    50.0,
    201
  ],
  [
    100.0,
    230.0,
    2
  ],
  [
    260.0,
    90.0,
    5
  ],
  [
    190.0,
    210.0,
    52
  ],
  [
    190.0,
    220.0,
    32
  ],
  [
    60.0,
    50.0,
    116
  ],
  [
    180.0,
    110.0,
    18
  ],
  [
    190.0,
    80.0,
    155
  ],
  [
    170.0,
    40.0,
    273
  ],
  [
    200.0,
    280.0,
    129
  ],
  [
    270.0,
    310.0,
    39
  ],
  [
    200.0,
    180.0,
    270
  ],
  [
    80.0,
    150.0,
    23
  ],
  [
    150.0,
    150.0,
    54
  ],
  [
    290.0,
    240.0,
    4
  ],
  [
    290.0,
    300.0,
    341
  ],
  [
    80.0,
    60.0,
    61
  ],
  [
    300.0,
    320.0,
    10
  ],
  [
    90.0,
    270.0,
    7
  ],
  [
    330.0,
    180.0,
    3
  ],
  [
    160.0,
    150.0,
    136
  ],
  [
    190.0,
    230.0,
    22
  ],
  [
    170.0,
    100.0,
    34
  ],
  [
    280.0,
    90.0,
    23
  ],
  [
    300.0,
    210.0,
    18
  ],
  [
    120.0,
    150.0,
    4
  ],
  [
    270.0,
    60.0,
    29
  ],
  [
    310.0,
    90.0,
    5
  ],
  [
    60.0,
    260.0,
    11
  ],
  [
    300.0,
    40.0,
    1
  ],
  [
    170.0,
    90.0,
    68
  ],
  [
    210.0,
    60.0,
    70
  ],
  [
    260.0,
    170.0,
    107
  ],
  [
    200.0,
    290.0,
    238
  ],
  [
    190.0,
    40.0,
    70
  ],
  [
    140.0,
    180.0,
    69
  ],
  [
    270.0,
    180.0,
    178
  ],
  [
    140.0,
    280.0,
    28
  ],
  [
    210.0,
    290.0,
    66
  ],
  [
    170.0,
    80.0,
    244
  ],
  [
    150.0,
    100.0,
    15
  ],
  [
    150.0,
    270.0,
    41
  ],
  [
    260.0,
    190.0,
    37
  ],
  [
    210.0,
    150.0,
    25
  ],
  [
    280.0,
    250.0,
    4
  ],
  [
    90.0,
    280.0,
    5
  ],
  [
    170.0,
    270.0,
    279
  ],
  [
    80.0,
    40.0,
    16
  ],
  [
    140.0,
    60.0,
    54
  ],
  [
    180.0,
    40.0,
    174
  ],
  [
    210.0,
    200.0,
    18
  ],
  [
    140.0,
    220.0,
    1
  ],
  [
    140.0,
    150.0,
    17
  ],
  [
    200.0,
    150.0,
    36
  ],
  [
    250.0,
    160.0,
    21
  ],
  [
    150.0,
    300.0,
    58
  ],
  [
    270.0,
    150.0,
    18
  ],
  [
    180.0,
    150.0,
    186
  ],
  [
    310.0,
    180.0,
    51
  ],
  [
    130.0,
    100.0,
    6
  ],
  [
    150.0,
    280.0,
    138
  ],
  [
    150.0,
    80.0,
    45
  ],
  [
    260.0,
    290.0,
    53
  ],
  [
    50.0,
    80.0,
    12
  ],
  [
    90.0,
    170.0,
    41
  ],
  [
    150.0,
    190.0,
    103
  ],
  [
    150.0,
    30.0,
    41
  ],
  [
    290.0,
    270.0,
    41
  ],
  [
    290.0,
    210.0,
    20
  ],
  [
    60.0,
    80.0,
    21
  ],
  [
    70.0,
    80.0,
    18
  ],
  [
    240.0,
    160.0,
    13
  ],
  [
    30.0,
    140.0,
    2
  ],
  [
    170.0,
    20.0,
    27
  ],
  [
    160.0,
    80.0,
    135
  ],
  [
    250.0,
    190.0,
    22
  ],
  [
    70.0,
    160.0,
    119
  ],
  [
    90.0,
    180.0,
    64
  ],
  [
    220.0,
    250.0,
    5
  ],
  [
    40.0,
    40.0,
    5
  ],
  [
    250.0,
    40.0,
    2
  ],
  [
    260.0,
    160.0,
    35
  ],
  [
    70.0,
    190.0,
    67
  ],
  [
    300.0,
    80.0,
    20
  ],
  [
    170.0,
    350.0,
    8
  ],
  [
    220.0,
    190.0,
    19
  ],
  [
    190.0,
    340.0,
    15
  ],
  [
    60.0,
    190.0,
    98
  ],
  [
    220.0,
    310.0,
    12
  ],
  [
    260.0,
    240.0,
    1
  ],
  [
    110.0,
    290.0,
    1
  ],
  [
    40.0,
    50.0,
    29
  ],
  [
    250.0,
    320.0,
    8
  ],
  [
    240.0,
    300.0,
    11
  ],
  [
    270.0,
    160.0,
    63
  ],
  [
    260.0,
    250.0,
    4
  ],
  [
    70.0,
    50.0,
    77
  ],
  [
    170.0,
    140.0,
    68
  ],
  [
    280.0,
    280.0,
    194
  ],
  [
    200.0,
    170.0,
    202
  ],
  [
    60.0,
    230.0,
    5
  ],
  [
    210.0,
    180.0,
    65
  ],
  [
    150.0,
    20.0,
    12
  ],
  [
    130.0,
    290.0,
    7
  ],
  [
    90.0,
    60.0,
    14
  ],
  [
    190.0,
    310.0,
    293
  ],
  [
    50.0,
    60.0,
    102
  ],
  [
    160.0,
    340.0,
    4
  ],
  [
    150.0,
    10.0,
    8
  ],
  [
    240.0,
    180.0,
    20
  ],
  [
    150.0,
    210.0,
    14
  ],
  [
    230.0,
    180.0,
    15
  ],
  [
    230.0,
    220.0,
    1
  ],
  [
    160.0,
    260.0,
    41
  ],
  [
    200.0,
    240.0,
    14
  ],
  [
    50.0,
    260.0,
    8
  ],
  [
    70.0,
    280.0,
    25
  ],
  [
    250.0,
    180.0,
    34
  ],
  [
    130.0,
    130.0,
    6
  ],
  [
    200.0,
    210.0,
    22
  ],
  [
    50.0,
    140.0,
    20
  ],
  [
    130.0,
    60.0,
    26
  ],
  [
    70.0,
    150.0,
    34
  ],
  [
    300.0,
    160.0,
    40
  ],
  [
    140.0,
    40.0,
    37
  ],
  [
    40.0,
    60.0,
    23
  ],
  [
    150.0,
    310.0,
    22
  ],
  [
    100.0,
    50.0,
    8
  ],
  [
    280.0,
    230.0,
    4
  ],
  [
    50.0,
    40.0,
    40
  ],
  [
    180.0,
    340.0,
    15
  ],
  [
    200.0,
    80.0,
    52
  ],
  [
    220.0,
    180.0,
    31
  ],
  [
    170.0,
    230.0,
    17
  ],
  [
    330.0,
    170.0,
    1
  ],
  [
    180.0,
    250.0,
    54
  ],
  [
    210.0,
    140.0,
    10
  ],
  [
    160.0,
    20.0,
    21
  ],
  [
    200.0,
    50.0,
    105
  ],
  [
    50.0,
    190.0,
    25
  ],
  [
    130.0,
    160.0,
    18
  ],
  [
    70.0,
    230.0,
    4
  ],
  [
    290.0,
    70.0,
    51
  ],
  [
    60.0,
    60.0,
    151
  ],
  [
    280.0,
    220.0,
    7
  ],
  [
    190.0,
    30.0,
    17
  ],
  [
    60.0,
    150.0,
    59
  ],
  [
    220.0,
    20.0,
    3
  ],
  [
    280.0,
    80.0,
    53
  ],
  [
    190.0,
    130.0,
    19
  ],
  [
    230.0,
    280.0,
    11
  ],
  [
    310.0,
    190.0,
    37
  ],
  [
    80.0,
    50.0,
    39
  ],
  [
    40.0,
    180.0,
    14
  ],
  [
    80.0,
    170.0,
    93
  ],
  [
    170.0,
    260.0,
    66
  ],
  [
    320.0,
    180.0,
    13
  ],
  [
    260.0,
    280.0,
    37
  ],
  [
    260.0,
    270.0,
    15
  ],
  [
    230.0,
    170.0,
    16
  ],
  [
    310.0,
    170.0,
    31
  ],
  [
    190.0,
    20.0,
    10
  ],
  [
    130.0,
    220.0,
    2
  ],
  [
    40.0,
    160.0,
    15
  ],
  [
    220.0,
    60.0,
    24
  ],
  [
    210.0,
    260.0,
    12
  ],
  [
    230.0,
    290.0,
    16
  ],
  [
    90.0,
    190.0,
    17
  ],
  [
    190.0,
    330.0,
    22
  ],
  [
    240.0,
    220.0,
    2
  ],
  [
    90.0,
    300.0,
    3
  ],
  [
    310.0,
    150.0,
    4
  ],
  [
    150.0,
    260.0,
    17
  ],
  [
    190.0,
    250.0,
    37
  ],
  [
    210.0,
    310.0,
    19
  ],
  [
    300.0,
    260.0,
    4
  ],
  [
    130.0,
    50.0,
    21
  ],
  [
    40.0,
    190.0,
    4
  ],
  [
    80.0,
    30.0,
    3
  ],
  [
    130.0,
    190.0,
    10
  ],
  [
    240.0,
    210.0,
    3
  ],
  [
    170.0,
    330.0,
    33
  ],
  [
    240.0,
    90.0,
    1
  ],
  [
    210.0,
    50.0,
    42
  ],
  [
    290.0,
    260.0,
    14
  ],
  [
    110.0,
    140.0,
    4
  ],
  [
    110.0,
    300.0,
    1
  ],
  [
    200.0,
    130.0,
    12
  ],
  [
    120.0,
    50.0,
    15
  ],
  [
    150.0,
    240.0,
    12
  ],
  [
    280.0,
    120.0,
    6
  ],
  [
    150.0,
    110.0,
    8
  ],
  [
    90.0,
    150.0,
    6
  ],
  [
    220.0,
    220.0,
    6
  ],
  [
    290.0,
    90.0,
    21
  ],
  [
    80.0,
    260.0,
    4
  ],
  [
    280.0,
    260.0,
    9
  ],
  [
    260.0,
    200.0,
    14
  ],
  [
    160.0,
    210.0,
    26
  ],
  [
    80.0,
    190.0,
    28
  ],
  [
    280.0,
    200.0,
    45
  ],
  [
    100.0,
    120.0,
    2
  ],
  [
    190.0,
    110.0,
    8
  ],
  [
    100.0,
    300.0,
    4
  ],
  [
    290.0,
    100.0,
    9
  ],
  [
    200.0,
    270.0,
    45
  ],
  [
    210.0,
    210.0,
    12
  ],
  [
    120.0,
    190.0,
    7
  ],
  [
    180.0,
    320.0,
    75
  ],
  [
    310.0,
    290.0,
    65
  ],
  [
    60.0,
    40.0,
    27
  ],
  [
    240.0,
    310.0,
    3
  ],
  [
    240.0,
    190.0,
    15
  ],
  [
    250.0,
    260.0,
    7
  ],
  [
    110.0,
    180.0,
    14
  ],
  [
    190.0,
    100.0,
    19
  ],
  [
    200.0,
    230.0,
    10
  ],
  [
    320.0,
    290.0,
    9
  ],
  [
    110.0,
    50.0,
    9
  ],
  [
    270.0,
    350.0,
    1
  ],
  [
    100.0,
    150.0,
    7
  ],
  [
    250.0,
    170.0,
    41
  ],
  [
    210.0,
    220.0,
    14
  ],
  [
    180.0,
    220.0,
    58
  ],
  [
    140.0,
    260.0,
    7
  ],
  [
    130.0,
    30.0,
    4
  ],
  [
    280.0,
    210.0,
    13
  ],
  [
    230.0,
    120.0,
    2
  ],
  [
    40.0,
    70.0,
    9
  ],
  [
    140.0,
    290.0,
    45
  ],
  [
    200.0,
    40.0,
    30
  ],
  [
    270.0,
    240.0,
    4
  ],
  [
    30.0,
    50.0,
    2
  ],
  [
    210.0,
    160.0,
    36
  ],
  [
    200.0,
    320.0,
    29
  ],
  [
    200.0,
    10.0,
    3
  ],
  [
    260.0,
    310.0,
    19
  ],
  [
    160.0,
    200.0,
    83
  ],
  [
    280.0,
    310.0,
    70
  ],
  [
    210.0,
    270.0,
    30
  ],
  [
    130.0,
    90.0,
    7
  ],
  [
    140.0,
    160.0,
    35
  ],
  [
    210.0,
    190.0,
    36
  ],
  [
    40.0,
    80.0,
    6
  ],
  [
    180.0,
    30.0,
    41
  ],
  [
    80.0,
    20.0,
    1
  ],
  [
    150.0,
    90.0,
    20
  ],
  [
    120.0,
    170.0,
    11
  ],
  [
    180.0,
    120.0,
    15
  ],
  [
    260.0,
    50.0,
    11
  ],
  [
    100.0,
    60.0,
    11
  ],
  [
    80.0,
    90.0,
    4
  ],
  [
    80.0,
    270.0,
    8
  ],
  [
    100.0,
    80.0,
    4
  ],
  [
    90.0,
    160.0,
    33
  ],
  [
    160.0,
    240.0,
    10
  ],
  [
    170.0,
    250.0,
    36
  ],
  [
    130.0,
    180.0,
    20
  ],
  [
    110.0,
    160.0,
    5
  ],
  [
    310.0,
    210.0,
    8
  ],
  [
    210.0,
    130.0,
    2
  ],
  [
    220.0,
    100.0,
    4
  ],
  [
    130.0,
    140.0,
    10
  ],
  [
    220.0,
    320.0,
    9
  ],
  [
    160.0,
    220.0,
    15
  ],
  [
    100.0,
    270.0,
    4
  ],
  [
    270.0,
    320.0,
    10
  ],
  [
    220.0,
    280.0,
    16
  ],
  [
    60.0,
    120.0,
    1
  ],
  [
    280.0,
    130.0,
    6
  ],
  [
    140.0,
    90.0,
    14
  ],
  [
    240.0,
    170.0,
    14
  ],
  [
    150.0,
    330.0,
    4
  ],
  [
    200.0,
    260.0,
    21
  ],
  [
    320.0,
    310.0,
    5
  ],
  [
    120.0,
    40.0,
    7
  ],
  [
    60.0,
    90.0,
    6
  ],
  [
    70.0,
    290.0,
    5
  ],
  [
    260.0,
    80.0,
    4
  ],
  [
    100.0,
    220.0,
    2
  ],
  [
    290.0,
    200.0,
    53
  ],
  [
    50.0,
    200.0,
    14
  ],
  [
    170.0,
    0.0,
    9
  ],
  [
    160.0,
    100.0,
    11
  ],
  [
    290.0,
    250.0,
    7
  ],
  [
    250.0,
    70.0,
    7
  ],
  [
    270.0,
    40.0,
    5
  ],
  [
    30.0,
    210.0,
    1
  ],
  [
    260.0,
    220.0,
    6
  ],
  [
    300.0,
    100.0,
    9
  ],
  [
    180.0,
    230.0,
    27
  ],
  [
    250.0,
    270.0,
    14
  ],
  [
    240.0,
    340.0,
    2
  ],
  [
    230.0,
    270.0,
    6
  ],
  [
    230.0,
    200.0,
    4
  ],
  [
    110.0,
    170.0,
    15
  ],
  [
    70.0,
    220.0,
    7
  ],
  [
    40.0,
    110.0,
    1
  ],
  [
    140.0,
    300.0,
    16
  ],
  [
    240.0,
    290.0,
    10
  ],
  [
    70.0,
    270.0,
    23
  ],
  [
    210.0,
    240.0,
    5
  ],
  [
    90.0,
    50.0,
    18
  ],
  [
    310.0,
    80.0,
    8
  ],
  [
    70.0,
    30.0,
    4
  ],
  [
    310.0,
    160.0,
    12
  ],
  [
    130.0,
    240.0,
    3
  ],
  [
    240.0,
    200.0,
    5
  ],
  [
    270.0,
    70.0,
    21
  ],
  [
    260.0,
    300.0,
    35
  ],
  [
    110.0,
    250.0,
    3
  ],
  [
    90.0,
    40.0,
    3
  ],
  [
    280.0,
    320.0,
    9
  ],
  [
    200.0,
    120.0,
    9
  ],
  [
    300.0,
    90.0,
    19
  ],
  [
    150.0,
    140.0,
    8
  ],
  [
    30.0,
    180.0,
    3
  ],
  [
    130.0,
    300.0,
    6
  ],
  [
    120.0,
    180.0,
    10
  ],
  [
    290.0,
    120.0,
    4
  ],
  [
    80.0,
    70.0,
    38
  ],
  [
    210.0,
    80.0,
    14
  ],
  [
    180.0,
    100.0,
    25
  ],
  [
    220.0,
    70.0,
    25
  ],
  [
    290.0,
    150.0,
    24
  ],
  [
    290.0,
    220.0,
    11
  ],
  [
    240.0,
    120.0,
    2
  ],
  [
    270.0,
    270.0,
    19
  ],
  [
    270.0,
    80.0,
    20
  ],
  [
    320.0,
    270.0,
    8
  ],
  [
    290.0,
    140.0,
    13
  ],
  [
    70.0,
    210.0,
    5
  ],
  [
    250.0,
    110.0,
    3
  ],
  [
    80.0,
    80.0,
    11
  ],
  [
    60.0,
    130.0,
    3
  ],
  [
    270.0,
    250.0,
    5
  ],
  [
    270.0,
    100.0,
    2
  ],
  [
    120.0,
    220.0,
    2
  ],
  [
    100.0,
    180.0,
    26
  ],
  [
    60.0,
    200.0,
    20
  ],
  [
    220.0,
    210.0,
    4
  ],
  [
    70.0,
    100.0,
    4
  ],
  [
    60.0,
    250.0,
    15
  ],
  [
    170.0,
    220.0,
    33
  ],
  [
    60.0,
    280.0,
    15
  ],
  [
    260.0,
    10.0,
    1
  ],
  [
    340.0,
    280.0,
    2
  ],
  [
    100.0,
    140.0,
    6
  ],
  [
    130.0,
    70.0,
    9
  ],
  [
    110.0,
    270.0,
    1
  ],
  [
    220.0,
    50.0,
    13
  ],
  [
    40.0,
    200.0,
    2
  ],
  [
    210.0,
    300.0,
    48
  ],
  [
    220.0,
    290.0,
    18
  ],
  [
    230.0,
    70.0,
    6
  ],
  [
    150.0,
    250.0,
    8
  ],
  [
    210.0,
    20.0,
    6
  ],
  [
    160.0,
    320.0,
    23
  ],
  [
    260.0,
    30.0,
    1
  ],
  [
    60.0,
    220.0,
    2
  ],
  [
    260.0,
    120.0,
    4
  ],
  [
    230.0,
    230.0,
    3
  ],
  [
    320.0,
    150.0,
    2
  ],
  [
    100.0,
    170.0,
    24
  ],
  [
    50.0,
    120.0,
    1
  ],
  [
    200.0,
    110.0,
    6
  ],
  [
    50.0,
    210.0,
    1
  ],
  [
    140.0,
    50.0,
    35
  ],
  [
    230.0,
    80.0,
    3
  ],
  [
    30.0,
    250.0,
    1
  ],
  [
    120.0,
    300.0,
    2
  ],
  [
    230.0,
    160.0,
    17
  ],
  [
    80.0,
    140.0,
    5
  ],
  [
    90.0,
    100.0,
    2
  ],
  [
    110.0,
    90.0,
    6
  ],
  [
    240.0,
    50.0,
    3
  ],
  [
    310.0,
    130.0,
    3
  ],
  [
    220.0,
    300.0,
    24
  ],
  [
    300.0,
    240.0,
    1
  ],
  [
    80.0,
    210.0,
    4
  ],
  [
    100.0,
    250.0,
    1
  ],
  [
    200.0,
    30.0,
    13
  ],
  [
    260.0,
    20.0,
    1
  ],
  [
    60.0,
    270.0,
    11
  ],
  [
    230.0,
    60.0,
    6
  ],
  [
    110.0,
    80.0,
    6
  ],
  [
    250.0,
    90.0,
    4
  ],
  [
    270.0,
    90.0,
    6
  ],
  [
    250.0,
    290.0,
    20
  ],
  [
    250.0,
    310.0,
    7
  ],
  [
    230.0,
    310.0,
    10
  ],
  [
    170.0,
    240.0,
    20
  ],
  [
    120.0,
    100.0,
    3
  ],
  [
    320.0,
    170.0,
    6
  ],
  [
    20.0,
    150.0,
    2
  ],
  [
    120.0,
    60.0,
    6
  ],
  [
    160.0,
    230.0,
    10
  ],
  [
    210.0,
    40.0,
    10
  ],
  [
    120.0,
    70.0,
    1
  ],
  [
    300.0,
    270.0,
    19
  ],
  [
    70.0,
    340.0,
    2
  ],
  [
    220.0,
    200.0,
    8
  ],
  [
    210.0,
    330.0,
    8
  ],
  [
    220.0,
    30.0,
    2
  ],
  [
    250.0,
    220.0,
    2
  ],
  [
    30.0,
    270.0,
    3
  ],
  [
    130.0,
    80.0,
    10
  ],
  [
    190.0,
    120.0,
    14
  ],
  [
    230.0,
    30.0,
    1
  ],
  [
    320.0,
    130.0,
    1
  ],
  [
    250.0,
    60.0,
    5
  ],
  [
    110.0,
    280.0,
    5
  ],
  [
    210.0,
    250.0,
    8
  ],
  [
    140.0,
    80.0,
    21
  ],
  [
    180.0,
    130.0,
    23
  ],
  [
    90.0,
    70.0,
    18
  ],
  [
    110.0,
    260.0,
    2
  ],
  [
    320.0,
    280.0,
    6
  ],
  [
    210.0,
    100.0,
    4
  ],
  [
    130.0,
    150.0,
    4
  ],
  [
    240.0,
    280.0,
    8
  ],
  [
    110.0,
    150.0,
    5
  ],
  [
    180.0,
    10.0,
    9
  ],
  [
    110.0,
    70.0,
    8
  ],
  [
    70.0,
    130.0,
    7
  ],
  [
    100.0,
    70.0,
    16
  ],
  [
    230.0,
    330.0,
    2
  ],
  [
    260.0,
    210.0,
    5
  ],
  [
    220.0,
    340.0,
    1
  ],
  [
    80.0,
    290.0,
    14
  ],
  [
    150.0,
    320.0,
    5
  ],
  [
    120.0,
    160.0,
    4
  ],
  [
    80.0,
    280.0,
    17
  ],
  [
    60.0,
    30.0,
    11
  ],
  [
    220.0,
    170.0,
    20
  ],
  [
    130.0,
    270.0,
    5
  ],
  [
    210.0,
    320.0,
    11
  ],
  [
    330.0,
    260.0,
    3
  ],
  [
    170.0,
    110.0,
    13
  ],
  [
    270.0,
    200.0,
    22
  ],
  [
    190.0,
    240.0,
    10
  ],
  [
    240.0,
    70.0,
    3
  ],
  [
    70.0,
    250.0,
    6
  ],
  [
    210.0,
    120.0,
    3
  ],
  [
    120.0,
    270.0,
    3
  ],
  [
    100.0,
    20.0,
    1
  ],
  [
    310.0,
    240.0,
    1
  ],
  [
    280.0,
    150.0,
    20
  ],
  [
    220.0,
    40.0,
    6
  ],
  [
    100.0,
    160.0,
    10
  ],
  [
    310.0,
    270.0,
    7
  ],
  [
    250.0,
    250.0,
    3
  ],
  [
    320.0,
    160.0,
    3
  ],
  [
    10.0,
    70.0,
    1
  ],
  [
    260.0,
    60.0,
    19
  ],
  [
    160.0,
    110.0,
    13
  ],
  [
    220.0,
    150.0,
    13
  ],
  [
    250.0,
    200.0,
    5
  ],
  [
    270.0,
    120.0,
    2
  ],
  [
    290.0,
    60.0,
    6
  ],
  [
    280.0,
    330.0,
    5
  ],
  [
    300.0,
    150.0,
    12
  ],
  [
    120.0,
    210.0,
    5
  ],
  [
    100.0,
    0.0,
    1
  ],
  [
    30.0,
    60.0,
    1
  ],
  [
    100.0,
    200.0,
    3
  ],
  [
    280.0,
    60.0,
    16
  ],
  [
    150.0,
    120.0,
    6
  ],
  [
    180.0,
    0.0,
    7
  ],
  [
    70.0,
    330.0,
    1
  ],
  [
    90.0,
    30.0,
    2
  ],
  [
    40.0,
    90.0,
    2
  ],
  [
    200.0,
    100.0,
    12
  ],
  [
    220.0,
    270.0,
    8
  ],
  [
    240.0,
    60.0,
    3
  ],
  [
    60.0,
    140.0,
    8
  ],
  [
    270.0,
    220.0,
    6
  ],
  [
    70.0,
    350.0,
    1
  ],
  [
    70.0,
    200.0,
    15
  ],
  [
    230.0,
    190.0,
    4
  ],
  [
    260.0,
    260.0,
    11
  ],
  [
    50.0,
    220.0,
    3
  ],
  [
    210.0,
    230.0,
    4
  ],
  [
    150.0,
    350.0,
    2
  ],
  [
    70.0,
    260.0,
    14
  ],
  [
    280.0,
    140.0,
    12
  ],
  [
    290.0,
    320.0,
    12
  ],
  [
    200.0,
    340.0,
    6
  ],
  [
    200.0,
    330.0,
    10
  ],
  [
    290.0,
    340.0,
    1
  ],
  [
    270.0,
    230.0,
    3
  ],
  [
    280.0,
    100.0,
    3
  ],
  [
    170.0,
    120.0,
    20
  ],
  [
    160.0,
    10.0,
    12
  ],
  [
    140.0,
    30.0,
    13
  ],
  [
    310.0,
    260.0,
    5
  ],
  [
    130.0,
    280.0,
    7
  ],
  [
    220.0,
    120.0,
    6
  ],
  [
    120.0,
    250.0,
    2
  ],
  [
    250.0,
    140.0,
    4
  ],
  [
    300.0,
    230.0,
    2
  ],
  [
    240.0,
    110.0,
    1
  ],
  [
    230.0,
    340.0,
    2
  ],
  [
    100.0,
    90.0,
    6
  ],
  [
    80.0,
    120.0,
    3
  ],
  [
    310.0,
    320.0,
    2
  ],
  [
    260.0,
    320.0,
    14
  ],
  [
    50.0,
    30.0,
    9
  ],
  [
    230.0,
    300.0,
    8
  ],
  [
    340.0,
    300.0,
    1
  ],
  [
    240.0,
    250.0,
    2
  ],
  [
    290.0,
    230.0,
    4
  ],
  [
    110.0,
    40.0,
    4
  ],
  [
    0.0,
    120.0,
    1
  ],
  [
    240.0,
    320.0,
    6
  ],
  [
    260.0,
    150.0,
    14
  ],
  [
    80.0,
    310.0,
    1
  ],
  [
    190.0,
    350.0,
    4
  ],
  [
    130.0,
    20.0,
    3
  ],
  [
    120.0,
    140.0,
    2
  ],
  [
    280.0,
    50.0,
    3
  ],
  [
    110.0,
    200.0,
    2
  ],
  [
    310.0,
    200.0,
    16
  ],
  [
    160.0,
    120.0,
    16
  ],
  [
    300.0,
    220.0,
    3
  ],
  [
    90.0,
    130.0,
    2
  ],
  [
    150.0,
    230.0,
    6
  ],
  [
    300.0,
    140.0,
    5
  ],
  [
    230.0,
    50.0,
    10
  ],
  [
    100.0,
    100.0,
    3
  ],
  [
    140.0,
    140.0,
    12
  ],
  [
    250.0,
    150.0,
    4
  ],
  [
    150.0,
    130.0,
    7
  ],
  [
    230.0,
    40.0,
    4
  ],
  [
    310.0,
    140.0,
    3
  ],
  [
    160.0,
    330.0,
    11
  ],
  [
    270.0,
    130.0,
    2
  ],
  [
    250.0,
    80.0,
    1
  ],
  [
    240.0,
    240.0,
    3
  ],
  [
    230.0,
    140.0,
    3
  ],
  [
    210.0,
    110.0,
    3
  ],
  [
    80.0,
    200.0,
    8
  ],
  [
    220.0,
    260.0,
    7
  ],
  [
    140.0,
    120.0,
    2
  ],
  [
    130.0,
    40.0,
    11
  ],
  [
    220.0,
    130.0,
    5
  ],
  [
    290.0,
    330.0,
    4
  ],
  [
    70.0,
    110.0,
    3
  ],
  [
    100.0,
    190.0,
    10
  ],
  [
    70.0,
    140.0,
    12
  ],
  [
    100.0,
    280.0,
    2
  ],
  [
    90.0,
    80.0,
    7
  ],
  [
    40.0,
    260.0,
    1
  ],
  [
    250.0,
    20.0,
    2
  ],
  [
    140.0,
    240.0,
    3
  ],
  [
    40.0,
    140.0,
    5
  ],
  [
    90.0,
    10.0,
    1
  ],
  [
    280.0,
    240.0,
    4
  ],
  [
    230.0,
    250.0,
    3
  ],
  [
    270.0,
    210.0,
    2
  ],
  [
    90.0,
    140.0,
    9
  ],
  [
    140.0,
    100.0,
    4
  ],
  [
    220.0,
    0.0,
    1
  ],
  [
    100.0,
    260.0,
    5
  ],
  [
    200.0,
    90.0,
    12
  ],
  [
    110.0,
    30.0,
    2
  ],
  [
    30.0,
    260.0,
    1
  ],
  [
    300.0,
    60.0,
    2
  ],
  [
    330.0,
    190.0,
    3
  ],
  [
    140.0,
    250.0,
    3
  ],
  [
    260.0,
    140.0,
    6
  ],
  [
    90.0,
    200.0,
    3
  ],
  [
    320.0,
    200.0,
    3
  ],
  [
    240.0,
    150.0,
    4
  ],
  [
    170.0,
    340.0,
    12
  ],
  [
    110.0,
    100.0,
    2
  ],
  [
    90.0,
    210.0,
    4
  ],
  [
    100.0,
    130.0,
    1
  ],
  [
    70.0,
    240.0,
    3
  ],
  [
    240.0,
    100.0,
    1
  ],
  [
    260.0,
    330.0,
    5
  ],
  [
    310.0,
    100.0,
    1
  ],
  [
    210.0,
    0.0,
    2
  ],
  [
    70.0,
    90.0,
    5
  ],
  [
    110.0,
    210.0,
    1
  ],
  [
    120.0,
    260.0,
    1
  ],
  [
    300.0,
    120.0,
    3
  ],
  [
    40.0,
    30.0,
    1
  ],
  [
    160.0,
    0.0,
    2
  ],
  [
    300.0,
    110.0,
    3
  ],
  [
    20.0,
    80.0,
    1
  ],
  [
    300.0,
    340.0,
    1
  ],
  [
    80.0,
    340.0,
    1
  ],
  [
    150.0,
    340.0,
    3
  ],
  [
    220.0,
    90.0,
    4
  ],
  [
    60.0,
    210.0,
    10
  ],
  [
    220.0,
    330.0,
    6
  ],
  [
    0.0,
    170.0,
    1
  ],
  [
    120.0,
    200.0,
    6
  ],
  [
    330.0,
    150.0,
    1
  ],
  [
    130.0,
    10.0,
    1
  ],
  [
    260.0,
    100.0,
    2
  ],
  [
    120.0,
    320.0,
    1
  ],
  [
    80.0,
    10.0,
    1
  ],
  [
    310.0,
    120.0,
    1
  ],
  [
    310.0,
    230.0,
    1
  ],
  [
    140.0,
    110.0,
    3
  ],
  [
    50.0,
    130.0,
    3
  ],
  [
    50.0,
    90.0,
    2
  ],
  [
    120.0,
    80.0,
    4
  ],
  [
    260.0,
    130.0,
    2
  ],
  [
    110.0,
    60.0,
    4
  ],
  [
    140.0,
    310.0,
    7
  ],
  [
    250.0,
    350.0,
    1
  ],
  [
    40.0,
    150.0,
    6
  ],
  [
    230.0,
    110.0,
    3
  ],
  [
    200.0,
    20.0,
    3
  ],
  [
    120.0,
    230.0,
    4
  ],
  [
    130.0,
    120.0,
    4
  ],
  [
    250.0,
    120.0,
    1
  ],
  [
    250.0,
    230.0,
    1
  ],
  [
    270.0,
    50.0,
    5
  ],
  [
    240.0,
    270.0,
    7
  ],
  [
    180.0,
    350.0,
    4
  ],
  [
    190.0,
    10.0,
    2
  ],
  [
    330.0,
    280.0,
    2
  ],
  [
    120.0,
    110.0,
    2
  ],
  [
    220.0,
    80.0,
    8
  ],
  [
    80.0,
    110.0,
    6
  ],
  [
    210.0,
    90.0,
    11
  ],
  [
    330.0,
    10.0,
    1
  ],
  [
    250.0,
    240.0,
    1
  ],
  [
    140.0,
    130.0,
    5
  ],
  [
    80.0,
    350.0,
    1
  ],
  [
    130.0,
    320.0,
    2
  ],
  [
    140.0,
    230.0,
    5
  ],
  [
    80.0,
    300.0,
    1
  ],
  [
    290.0,
    130.0,
    6
  ],
  [
    140.0,
    350.0,
    2
  ],
  [
    290.0,
    110.0,
    3
  ],
  [
    320.0,
    210.0,
    1
  ],
  [
    50.0,
    280.0,
    3
  ],
  [
    210.0,
    10.0,
    1
  ],
  [
    130.0,
    200.0,
    8
  ],
  [
    120.0,
    310.0,
    2
  ],
  [
    60.0,
    290.0,
    2
  ],
  [
    50.0,
    270.0,
    2
  ],
  [
    30.0,
    190.0,
    1
  ],
  [
    320.0,
    260.0,
    4
  ],
  [
    90.0,
    290.0,
    4
  ],
  [
    320.0,
    220.0,
    1
  ],
  [
    20.0,
    130.0,
    1
  ],
  [
    250.0,
    10.0,
    1
  ],
  [
    110.0,
    190.0,
    5
  ],
  [
    120.0,
    120.0,
    2
  ],
  [
    140.0,
    10.0,
    4
  ],
  [
    340.0,
    290.0,
    1
  ],
  [
    330.0,
    90.0,
    1
  ],
  [
    100.0,
    240.0,
    3
  ],
  [
    110.0,
    110.0,
    1
  ],
  [
    230.0,
    260.0,
    4
  ],
  [
    20.0,
    50.0,
    1
  ],
  [
    90.0,
    110.0,
    1
  ],
  [
    90.0,
    20.0,
    1
  ],
  [
    130.0,
    110.0,
    2
  ],
  [
    260.0,
    230.0,
    3
  ],
  [
    30.0,
    170.0,
    2
  ],
  [
    100.0,
    40.0,
    6
  ],
  [
    40.0,
    270.0,
    1
  ],
  [
    310.0,
    330.0,
    1
  ],
  [
    20.0,
    170.0,
    1
  ],
  [
    270.0,
    110.0,
    1
  ],
  [
    100.0,
    30.0,
    2
  ],
  [
    120.0,
    130.0,
    1
  ],
  [
    250.0,
    130.0,
    1
  ],
  [
    20.0,
    240.0,
    1
  ],
  [
    120.0,
    90.0,
    3
  ],
  [
    40.0,
    210.0,
    2
  ],
  [
    80.0,
    250.0,
    4
  ],
  [
    210.0,
    30.0,
    4
  ],
  [
    200.0,
    350.0,
    3
  ],
  [
    90.0,
    120.0,
    3
  ],
  [
    280.0,
    110.0,
    1
  ],
  [
    340.0,
    120.0,
    1
  ],
  [
    160.0,
    350.0,
    3
  ],
  [
    120.0,
    0.0,
    1
  ],
  [
    260.0,
    110.0,
    1
  ],
  [
    40.0,
    230.0,
    2
  ],
  [
    130.0,
    260.0,
    3
  ],
  [
    320.0,
    110.0,
    1
  ],
  [
    230.0,
    210.0,
    2
  ],
  [
    20.0,
    180.0,
    3
  ],
  [
    20.0,
    120.0,
    1
  ],
  [
    330.0,
    210.0,
    1
  ],
  [
    220.0,
    350.0,
    1
  ],
  [
    250.0,
    340.0,
    1
  ],
  [
    310.0,
    220.0,
    1
  ],
  [
    340.0,
    190.0,
    2
  ],
  [
    120.0,
    20.0,
    2
  ],
  [
    230.0,
    90.0,
    4
  ],
  [
    100.0,
    290.0,
    1
  ],
  [
    330.0,
    130.0,
    2
  ],
  [
    240.0,
    80.0,
    2
  ],
  [
    110.0,
    130.0,
    3
  ],
  [
    250.0,
    210.0,
    1
  ],
  [
    210.0,
    340.0,
    2
  ],
  [
    250.0,
    30.0,
    1
  ],
  [
    10.0,
    270.0,
    1
  ],
  [
    260.0,
    350.0,
    2
  ],
  [
    70.0,
    320.0,
    1
  ],
  [
    300.0,
    330.0,
    1
  ],
  [
    320.0,
    80.0,
    1
  ],
  [
    110.0,
    340.0,
    1
  ],
  [
    110.0,
    120.0,
    2
  ],
  [
    40.0,
    130.0,
    3
  ],
  [
    90.0,
    320.0,
    1
  ],
  [
    30.0,
    100.0,
    1
  ],
  [
    120.0,
    280.0,
    1
  ],
  [
    290.0,
    40.0,
    1
  ],
  [
    350.0,
    140.0,
    1
  ],
  [
    350.0,
    200.0,
    1
  ],
  [
    230.0,
    100.0,
    3
  ],
  [
    230.0,
    240.0,
    2
  ],
  [
    270.0,
    20.0,
    1
  ],
  [
    350.0,
    150.0,
    1
  ],
  [
    40.0,
    20.0,
    1
  ],
  [
    60.0,
    110.0,
    1
  ],
  [
    240.0,
    40.0,
    1
  ],
  [
    90.0,
    90.0,
    3
  ],
  [
    220.0,
    230.0,
    2
  ],
  [
    320.0,
    90.0,
    1
  ],
  [
    40.0,
    120.0,
    1
  ],
  [
    260.0,
    40.0,
    3
  ],
  [
    80.0,
    230.0,
    2
  ],
  [
    20.0,
    70.0,
    1
  ],
  [
    330.0,
    200.0,
    4
  ],
  [
    340.0,
    170.0,
    1
  ],
  [
    240.0,
    230.0,
    1
  ],
  [
    140.0,
    340.0,
    1
  ],
  [
    240.0,
    330.0,
    2
  ],
  [
    90.0,
    230.0,
    1
  ],
  [
    60.0,
    240.0,
    1
  ],
  [
    130.0,
    210.0,
    2
  ],
  [
    220.0,
    240.0,
    2
  ],
  [
    30.0,
    70.0,
    1
  ],
  [
    30.0,
    240.0,
    1
  ],
  [
    250.0,
    100.0,
    1
  ],
  [
    300.0,
    130.0,
    4
  ],
  [
    30.0,
    280.0,
    1
  ],
  [
    230.0,
    320.0,
    2
  ],
  [
    340.0,
    150.0,
    1
  ],
  [
    30.0,
    200.0,
    1
  ],
  [
    20.0,
    90.0,
    1
  ],
  [
    130.0,
    250.0,
    1
  ],
  [
    90.0,
    250.0,
    4
  ],
  [
    80.0,
    220.0,
    1
  ],
  [
    140.0,
    330.0,
    1
  ],
  [
    110.0,
    230.0,
    1
  ],
  [
    190.0,
    0.0,
    1
  ],
  [
    330.0,
    290.0,
    1
  ],
  [
    310.0,
    250.0,
    1
  ],
  [
    310.0,
    70.0,
    1
  ],
  [
    70.0,
    10.0,
    1
  ],
  [
    320.0,
    230.0,
    1
  ],
  [
    260.0,
    0.0,
    1
  ],
  [
    40.0,
    220.0,
    1
  ],
  [
    350.0,
    240.0,
    1
  ],
  [
    310.0,
    110.0,
    1
  ],
  [
    0.0,
    250.0,
    1
  ],
  [
    50.0,
    100.0,
    2
  ],
  [
    100.0,
    110.0,
    1
  ],
  [
    110.0,
    20.0,
    2
  ],
  [
    340.0,
    160.0,
    1
  ],
  [
    20.0,
    300.0,
    1
  ],
  [
    200.0,
    0.0,
    1
  ],
  [
    80.0,
    130.0,
    1
  ],
  [
    70.0,
    120.0,
    1
  ],
  [
    100.0,
    310.0,
    1
  ],
  [
    320.0,
    250.0,
    1
  ],
  [
    300.0,
    250.0,
    1
  ]
]