[
  [
    0,
    291
  ],
  [
    1,
    298
  ],
  [
    2,
    259
  ],
  [
    3,
    291
  ],
  [
    4,
    256
  ],
  [
    5,
    281
  ],
  [
    6,
    283
  ],
  [
    7,
    227
  ],
  [
    8,
    279
  ],
  [
    9,
    267
  ],
  [
    10,
    252
  ],
  [
    11,
    276
  ],
  [
    12,
    242
  ],
  [
    13,
    246
  ],
  [
    14,
    251
  ],
  [
    15,
    239
  ],
  [
    16,
    261
  ],
  [
    17,
    231
  ],
  [
    18,
    242
  ],
  [
    19,
    237
  ],
  [
    20,
    244
  ],
  [
    21,
    258
  ],
  [
    22,
    250
  ],
  [
    23,
    233
  ],
  [
    24,
    252
  ],
  [
    25,
    237
  ],
  [
    26,
    232
  ],
  [
    27,
    244
  ],
  [
    28,
    271
  ],
  [
    29,
    265
  ],
  [
    30,
    276
  ],
  [
    31,
    253
  ],
  [
    32,
    249
  ],
  [
    33,
    241
  ],
  [
    34,
    244
  ],
  [
    35,
    240
  ],
  [
    36,
    263
  ],
  [
    37,
    242
  ],
  [
    38,
    258
  ],
  [
    39,
    207
  ],
  [
    40,
    225
  ],
  [
    41,
    208
  ],
  [
    42,
    200
  ],
  [
    43,
    207
  ],
  [
    44,
    206
  ],
  [
    45,
    207
  ],
  [
    46,
    183
  ],
  [
    47,
    173
  ],
  [
    48,
    161
  ],
  [
    49,
    145
  ],
  [
    50,
    189
  ],
  [
    51,
    158
  ],
  [
    52,
    160
  ],
  [
    53,
    158
  ],
  [
    54,
    129
  ],
  [
    55,
    132
  ],
  [
    56,
    165
  ],
  [
    57,
    148
  ],
  [
    58,
    160
  ],
  [
    59,
    158
  ],
  [
    60,
    136
  ],
  [
    61,
    168
  ],
  [
    62,
    143
  ],
  [
    63,
    154
  ],
  [
    64,
    157
  ],
  [
    65,
    161
  ],
  [
    66,
    114
  ],
  [
    67,
    145
  ],
  [
    68,
    143
  ],
  [
    69,
    138
  ],
  [
    70,
    123
  ],
  [
    71,
    120
  ],
  [
    72,
    112
  ],
  [
    73,
    107
  ],
  [
    74,
    98
  ],
  [
    75,
    110
  ],
  [
    76,
    89
  ],
  [
    77,
    93
  ],
  [
    78,
    85
  ],
  [
    79,
    69
  ],
  [
    80,
    71
  ],
  [
    81,
    74
  ],
  [
    82,
    61
  ],
  [
    83,
    87
  ],
  [
    84,
    69
  ],
  [
    85,
    74
  ],
  [
    86,
    74
  ],
  [
    87,
    69
  ],
  [
    88,
    67
  ],
  [
    89,
    71
  ],
  [
    90,
    64
  ],
  [
    91,
    72
  ],
  [
    92,
    66
  ],
  [
    93,
    80
  ],
  [
    94,
    76
  ],
  [
    95,
    69
  ],
  [
    96,
    66
  ],
  [
    97,
    73
  ],
  [
    98,
    62
  ],
  [
    99,
    72
  ],
  [
    100,
    74
  ],
  [
    101,
    82
  ],
  [
    102,
    61
  ],
  [
    103,
    72
  ],
  [
    104,
    67
  ],
  [
    105,
    70
  ],
  [
    106,
    80
  ],
  [
    107,
    83
  ],
  [
    108,
    82
  ],
  [
    109,
    84
  ],
  [
    110,
    88
  ],
  [
    111,
    91
  ],
  [
    112,
    99
  ],
  [
    113,
    93
  ],
  [
    114,
    97
  ],
  [
    115,
    116
  ],
  [
    116,
    96
  ],
  [
    117,
    107
  ],
  [
    118,
    105
  ],
  [
    119,
    115
  ],
  [
    120,
    115
  ],
  [
    121,
    132
  ],
  [
    122,
    150
  ],
  [
    123,
    127
  ],
  [
    124,
    108
  ],
  [
    125,
    120
  ],
  [
    126,
    116
  ],
  [
    127,
    128
  ],
  [
    128,
    111
  ],
  [
    129,
    97
  ],
  [
    130,
    110
  ],
  [
    131,
    130
  ],
  [
    132,
    109
  ],
  [
    133,
    90
  ],
  [
    134,
    105
  ],
  [
    135,
    84
  ],
  [
    136,
    79
  ],
  [
    137,
    94
  ],
  [
    138,
    68
  ],
  [
    139,
    71
  ],
  [
    140,
    80
  ],
  [
    141,
    64
  ],
  [
    142,
    63
  ],
  [
    143,
    79
  ],
  [
    144,
    60
  ],
  [
    145,
    50
  ],
  [
    146,
    53
  ],
  [
    147,
    56
  ],
  [
    148,
    68
  ],
  [
    149,
    57
  ],
  [
    150,
    66
  ],
  [
    151,
    48
  ],
  [
    152,
    61
  ],
  [
    153,
    63
  ],
  [
    154,
    63
  ],
  [
    155,
    79
  ],
  [
    156,
    54
  ],
  [
    157,
    56
  ],
  [
    158,
    60
  ],
  [
    159,
    52
  ],
  [
    160,
    56
  ],
  [
    161,
    75
  ],
  [
    162,
    58
  ],
  [
    163,
    53
  ],
  [
    164,
    68
  ],
  [
    165,
    40
  ],
  [
    166,
    49
  ],
  [
    167,
    48
  ],
  [
    168,
    51
  ],
  [
    169,
    51
  ],
  [
    170,
    46
  ],
  [
    171,
    48
  ],
  [
    172,
    42
  ],
  [
    173,
    47
  ],
  [
    174,
    38
  ],
  [
    175,
    36
  ],
  [
    176,
    38
  ],
  [
    177,
    41
  ],
  [
    178,
    35
  ],
  [
    179,
    34
  ],
  [
    180,
    28
  ],
  [
    181,
    26
  ],
  [
    182,
    38
  ],
  [
    183,
    23
  ],
  [
    184,
    28
  ],
  [
    185,
    29
  ],
  [
    186,
    25
  ],
  [
    187,
    20
  ],
  [
    188,
    26
  ],
  [
    189,
    14
  ],
  [
    190,
    17
  ],
  [
    191,
    19
  ],
  [
    192,
    13
  ],
  [
    193,
    16
  ],
  [
    194,
    21
  ],
  [
    195,
    21
  ],
  [
    196,
    18
  ],
  [
    197,
    13
  ],
  [
    198,
    33
  ],
  [
    199,
    18
  ],
  [
    200,
    22
  ],
  [
    201,
    20
  ],
  [
    202,
    18
  ],
  [
    203,
    28
  ],
  [
    204,
    30
  ],
  [
    205,
    21
  ],
  [
    206,
    26
  ],
  [
    207,
    26
  ],
  [
    208,
    31
  ],
  [
    209,
    26
  ],
  [
    210,
    36
  ],
  [
    211,
    23
  ],
  [
    212,
    20
  ],
  [
    213,
    25
  ],
  [
    214,
    28
  ],
  [
    215,
    30
  ],
  [
    216,
    31
  ],
  [
    217,
    27
  ],
  [
    218,
    26
  ],
  [
    219,
    19
  ],
  [
    220,
    20
  ],
  [
    221,
    30
  ],
  [
    222,
    19
  ],
  [
    223,
    14
  ],
  [
    224,
    17
  ],
  [
    225,
    21
  ],
  [
    226,
    28
  ],
  [
    227,
    28
  ],
  [
    228,
    19
  ],
  [
    229,
    21
  ],
  [
    230,
    22
  ],
  [
    231,
    24
  ],
  [
    232,
    26
  ],
  [
    233,
    28
  ],
  [
    234,
    27
  ],
  [
    235,
    33
  ],
  [
    236,
    43
  ],
  [
    237,
    27
  ],
  [
    238,
    53
  ],
  [
    239,
    40
  ],
  [
    240,
    44
  ],
  [
    241,
    56
  ],
  [
    242,
    44
  ],
  [
    243,
    46
  ],
  [
    244,
    38
  ],
  [
    245,
    41
  ],
  [
    246,
    51
  ],
  [
    247,
    56
  ],
  [
    248,
    50
  ],
  [
    249,
    56
  ],
  [
    250,
    50
  ],
  [
    251,
    53
  ],
  [
    252,
    63
  ],
  [
    253,
    63
  ],
  [
    254,
    62
  ],
  [
    255,
    83
  ],
  [
    256,
    56
  ],
  [
    257,
    71
  ],
  [
    258,
    76
  ],
  [
    259,
    87
  ],
  [
    260,
    75
  ],
  [
    261,
    90
  ],
  [
    262,
    89
  ],
  [
    263,
    94
  ],
  [
    264,
    115
  ],
  [
    265,
    110
  ],
  [
    266,
    111
  ],
  [
    267,
    127
  ],
  [
    268,
    137
  ],
  [
    269,
    130
  ],
  [
    270,
    153
  ],
  [
    271,
    194
  ],
  [
    272,
    156
  ],
  [
    273,
    187
  ],
  [
    274,
    181
  ],
  [
    275,
    209
  ],
  [
    276,
    250
  ],
  [
    277,
    258
  ],
  [
    278,
    293
  ],
  [
    279,
    268
  ],
  [
    280,
    300
  ],
  [
    281,
    294
  ],
  [
    282,
    304
  ],
  [
    283,
    307
  ],
  [
    284,
    302
  ],
  [
    285,
    290
  ],
  [
    286,
    287
  ],
  [
    287,
    290
  ],
  [
    288,
    279
  ],
  [
    289,
    275
  ],
  [
    290,
    294
  ],
  [
    291,
    323
  ],
  [
    292,
    297
  ],
  [
    293,
    305
  ],
  [
    294,
    265
  ],
  [
    295,
    299
  ],
  [
    296,
    298
  ],
  [
    297,
    287
  ],
  [
    298,
    308
  ],
  [
    299,
    248
  ],
  [
    300,
    241
  ],
  [
    301,
    299
  ],
  [
    302,
    334
  ],
  [
    303,
    357
  ],
  [
    304,
    374
  ],
  [
    305,
    378
  ],
  [
    306,
    388
  ],
  [
    307,
    378
  ],
  [
    308,
    428
  ],
  [
    309,
    438
  ],
  [
    310,
    412
  ],
  [
    311,
    436
  ],
  [
    312,
    432
  ],
  [
    313,
    475
  ],
  [
    314,
    457
  ],
  [
    315,
    493
  ],
  [
    316,
    552
  ],
  [
    317,
    502
  ],
  [
    318,
    531
  ],
  [
    319,
    565
  ],
  [
    320,
    534
  ],
  [
    321,
    504
  ],
  [
    322,
    541
  ],
  [
    323,
    539
  ],
  [
    324,
    619
  ],
  [
    325,
    571
  ],
  [
    326,
    534
  ],
  [
    327,
    555
  ],
  [
    328,
    617
  ],
  [
    329,
    555
  ],
  [
    330,
    600
  ],
  [
    331,
    593
  ],
  [
    332,
    659
  ],
  [
    333,
    633
  ],
  [
    334,
    613
  ],
  [
    335,
    655
  ],
  [
    336,
    665
  ],
  [
    337,
    682
  ],
  [
    338,
    664
  ],
  [
    339,
    722
  ],
  [
    340,
    697
  ],
  [
    341,
    615
  ],
  [
    342,
    690
  ],
  [
    343,
    684
  ],
  [
    344,
    608
  ],
  [
    345,
    618
  ],
  [
    346,
    587
  ],
  [
    347,
    556
  ],
  [
    348,
    528
  ],
  [
    349,
    475
  ],
  [
    350,
    436
  ],
  [
    351,
    366
  ],
  [
    352,
    388
  ],
  [
    353,
    365
  ],
  [
    354,
    275
  ],
  [
    355,
    302
  ],
  [
    356,
    312
  ],
  [
    357,
    348
  ],
  [
    358,
    319
  ],
  [
    359,
    308
  ]
]