[
  [
    280.0,
    340.0,
    5851
  ],
  [
    190.0,
    10.0,
    640
  ],
  [
    270.0,
    330.0,
    327
  ],
  [
    170.0,
    0.0,
    733
  ],
  [
    200.0,
    100.0,
    10
  ],
  [
    170.0,
    30.0,
    202
  ],
  [
    240.0,
    340.0,
    6
  ],
  [
    170.0,
    350.0,
    708
  ],
  [
    290.0,
    300.0,
    1259
  ],
  [
    50.0,
    310.0,
    189
  ],
  [
    200.0,
    0.0,
    291
  ],
  [
    250.0,
    0.0,
    15
  ],
  [
    260.0,
    140.0,
    6
  ],
  [
    300.0,
    320.0,
    842
  ],
  [
    180.0,
    80.0,
    341
  ],
  [
    180.0,
    330.0,
    1110
  ],
  [
    290.0,
    320.0,
    2892
  ],
  [
    180.0,
    0.0,
    1059
  ],
  [
    290.0,
    330.0,
    3953
  ],
  [
    280.0,
    160.0,
    260
  ],
  [
    60.0,
    40.0,
    109
  ],
  [
    290.0,
    350.0,
    1617
  ],
  [
    190.0,
    0.0,
    501
  ],
  [
    170.0,
    340.0,
    488
  ],
  [
    300.0,
    300.0,
    855
  ],
  [
    190.0,
    310.0,
    234
  ],
  [
    180.0,
    230.0,
    43
  ],
  [
    180.0,
    340.0,
    1727
  ],
  [
    60.0,
    330.0,
    453
  ],
  [
    290.0,
    0.0,
    334
  ],
  [
    180.0,
    30.0,
    460
  ],
  [
    200.0,
    340.0,
    261
  ],
  [
    190.0,
    330.0,
    474
  ],
  [
    170.0,
    270.0,
    94
  ],
  [
    30.0,
    0.0,
    9
  ],
  [
    60.0,
    20.0,
    572
  ],
  [
    60.0,
    10.0,
    1046
  ],
  [
    60.0,
    0.0,
    1197
  ],
  [
    280.0,
    350.0,
    3735
  ],
  [
    180.0,
    350.0,
    1584
  ],
  [
    280.0,
    330.0,
    2691
  ],
  [
    50.0,
    350.0,
    521
  ],
  [
    50.0,
    320.0,
    242
  ],
  [
    50.0,
    340.0,
    410
  ],
  [
    290.0,
    340.0,
    4167
  ],
  [
    200.0,
    280.0,
    55
  ],
  [
    70.0,
    350.0,
    413
  ],
  [
    280.0,
    290.0,
    243
  ],
  [
    300.0,
    310.0,
    956
  ],
  [
    300.0,
    330.0,
    576
  ],
  [
    160.0,
    10.0,
    66
  ],
  [
    270.0,
    320.0,
    174
  ],
  [
    180.0,
    320.0,
    514
  ],
  [
    280.0,
    320.0,
    1084
  ],
  [
    180.0,
    60.0,
    650
  ],
  [
    300.0,
    290.0,
    565
  ],
  [
    190.0,
    150.0,
    33
  ],
  [
    280.0,
    0.0,
    1028
  ],
  [
    60.0,
    350.0,
    1118
  ],
  [
    60.0,
    340.0,
    755
  ],
  [
    270.0,
    340.0,
    596
  ],
  [
    70.0,
    0.0,
    475
  ],
  [
    60.0,
    270.0,
    84
  ],
  [
    60.0,
    300.0,
    184
  ],
  [
    50.0,
    10.0,
    436
  ],
  [
    280.0,
    300.0,
    351
  ],
  [
    50.0,
    20.0,
    321
  ],
  [
    60.0,
    310.0,
    225
  ],
  [
    60.0,
    280.0,
    123
  ],
  [
    190.0,
    30.0,
    484
  ],
  [
    190.0,
    340.0,
    539
  ],
  [
    300.0,
    270.0,
    123
  ],
  [
    160.0,
    80.0,
    45
  ],
  [
    60.0,
    30.0,
    199
  ],
  [
    290.0,
    310.0,
    1967
  ],
  [
    190.0,
    20.0,
    617
  ],
  [
    210.0,
    330.0,
    103
  ],
  [
    170.0,
    70.0,
    464
  ],
  [
    170.0,
    10.0,
    549
  ],
  [
    180.0,
    20.0,
    601
  ],
  [
    300.0,
    70.0,
    44
  ],
  [
    280.0,
    20.0,
    107
  ],
  [
    270.0,
    0.0,
    417
  ],
  [
    30.0,
    240.0,
    3
  ],
  [
    70.0,
    160.0,
    22
  ],
  [
    290.0,
    290.0,
    761
  ],
  [
    180.0,
    310.0,
    303
  ],
  [
    270.0,
    200.0,
    8
  ],
  [
    190.0,
    50.0,
    389
  ],
  [
    250.0,
    340.0,
    17
  ],
  [
    280.0,
    280.0,
    162
  ],
  [
    220.0,
    60.0,
    5
  ],
  [
    50.0,
    300.0,
    165
  ],
  [
    280.0,
    80.0,
    34
  ],
  [
    310.0,
    300.0,
    93
  ],
  [
    180.0,
    10.0,
    725
  ],
  [
    70.0,
    10.0,
    384
  ],
  [
    200.0,
    20.0,
    206
  ],
  [
    300.0,
    30.0,
    19
  ],
  [
    190.0,
    290.0,
    144
  ],
  [
    310.0,
    320.0,
    39
  ],
  [
    140.0,
    60.0,
    1
  ],
  [
    260.0,
    330.0,
    52
  ],
  [
    280.0,
    310.0,
    585
  ],
  [
    320.0,
    70.0,
    6
  ],
  [
    290.0,
    180.0,
    15
  ],
  [
    200.0,
    10.0,
    235
  ],
  [
    280.0,
    10.0,
    298
  ],
  [
    290.0,
    10.0,
    115
  ],
  [
    210.0,
    10.0,
    50
  ],
  [
    290.0,
    280.0,
    448
  ],
  [
    40.0,
    280.0,
    26
  ],
  [
    40.0,
    20.0,
    49
  ],
  [
    70.0,
    320.0,
    85
  ],
  [
    200.0,
    40.0,
    133
  ],
  [
    170.0,
    50.0,
    221
  ],
  [
    70.0,
    330.0,
    182
  ],
  [
    160.0,
    350.0,
    32
  ],
  [
    40.0,
    10.0,
    78
  ],
  [
    270.0,
    30.0,
    42
  ],
  [
    170.0,
    80.0,
    241
  ],
  [
    300.0,
    50.0,
    32
  ],
  [
    50.0,
    330.0,
    307
  ],
  [
    180.0,
    70.0,
    501
  ],
  [
    170.0,
    330.0,
    227
  ],
  [
    190.0,
    350.0,
    465
  ],
  [
    50.0,
    0.0,
    520
  ],
  [
    180.0,
    300.0,
    231
  ],
  [
    60.0,
    110.0,
    13
  ],
  [
    290.0,
    130.0,
    90
  ],
  [
    290.0,
    70.0,
    44
  ],
  [
    270.0,
    350.0,
    664
  ],
  [
    300.0,
    280.0,
    280
  ],
  [
    170.0,
    160.0,
    33
  ],
  [
    290.0,
    160.0,
    191
  ],
  [
    260.0,
    10.0,
    58
  ],
  [
    190.0,
    300.0,
    154
  ],
  [
    200.0,
    70.0,
    38
  ],
  [
    300.0,
    60.0,
    51
  ],
  [
    70.0,
    310.0,
    62
  ],
  [
    250.0,
    350.0,
    14
  ],
  [
    180.0,
    280.0,
    206
  ],
  [
    60.0,
    60.0,
    52
  ],
  [
    190.0,
    60.0,
    271
  ],
  [
    170.0,
    60.0,
    385
  ],
  [
    190.0,
    80.0,
    144
  ],
  [
    180.0,
    40.0,
    369
  ],
  [
    270.0,
    270.0,
    21
  ],
  [
    200.0,
    350.0,
    348
  ],
  [
    290.0,
    90.0,
    34
  ],
  [
    290.0,
    170.0,
    115
  ],
  [
    60.0,
    120.0,
    14
  ],
  [
    170.0,
    100.0,
    18
  ],
  [
    50.0,
    180.0,
    54
  ],
  [
    300.0,
    340.0,
    258
  ],
  [
    170.0,
    190.0,
    30
  ],
  [
    70.0,
    280.0,
    34
  ],
  [
    270.0,
    10.0,
    206
  ],
  [
    270.0,
    170.0,
    55
  ],
  [
    30.0,
    90.0,
    2
  ],
  [
    300.0,
    150.0,
    32
  ],
  [
    170.0,
    180.0,
    49
  ],
  [
    180.0,
    160.0,
    92
  ],
  [
    180.0,
    200.0,
    41
  ],
  [
    240.0,
    330.0,
    5
  ],
  [
    50.0,
    210.0,
    19
  ],
  [
    40.0,
    220.0,
    5
  ],
  [
    290.0,
    270.0,
    188
  ],
  [
    170.0,
    20.0,
    364
  ],
  [
    160.0,
    50.0,
    32
  ],
  [
    190.0,
    40.0,
    373
  ],
  [
    160.0,
    300.0,
    3
  ],
  [
    60.0,
    80.0,
    60
  ],
  [
    50.0,
    170.0,
    56
  ],
  [
    180.0,
    50.0,
    487
  ],
  [
    170.0,
    280.0,
    56
  ],
  [
    160.0,
    290.0,
    6
  ],
  [
    190.0,
    270.0,
    111
  ],
  [
    50.0,
    290.0,
    157
  ],
  [
    70.0,
    30.0,
    41
  ],
  [
    270.0,
    310.0,
    114
  ],
  [
    280.0,
    30.0,
    37
  ],
  [
    260.0,
    340.0,
    53
  ],
  [
    50.0,
    60.0,
    53
  ],
  [
    260.0,
    310.0,
    35
  ],
  [
    170.0,
    260.0,
    55
  ],
  [
    190.0,
    230.0,
    22
  ],
  [
    180.0,
    240.0,
    52
  ],
  [
    230.0,
    290.0,
    5
  ],
  [
    80.0,
    330.0,
    39
  ],
  [
    90.0,
    0.0,
    1
  ],
  [
    60.0,
    320.0,
    270
  ],
  [
    190.0,
    320.0,
    339
  ],
  [
    280.0,
    250.0,
    13
  ],
  [
    60.0,
    290.0,
    150
  ],
  [
    310.0,
    230.0,
    6
  ],
  [
    160.0,
    40.0,
    48
  ],
  [
    280.0,
    50.0,
    31
  ],
  [
    180.0,
    290.0,
    144
  ],
  [
    260.0,
    40.0,
    16
  ],
  [
    280.0,
    40.0,
    27
  ],
  [
    40.0,
    270.0,
    15
  ],
  [
    190.0,
    280.0,
    144
  ],
  [
    260.0,
    80.0,
    2
  ],
  [
    30.0,
    270.0,
    6
  ],
  [
    180.0,
    180.0,
    79
  ],
  [
    280.0,
    190.0,
    23
  ],
  [
    170.0,
    200.0,
    31
  ],
  [
    310.0,
    190.0,
    2
  ],
  [
    300.0,
    140.0,
    45
  ],
  [
    50.0,
    190.0,
    33
  ],
  [
    290.0,
    250.0,
    13
  ],
  [
    40.0,
    100.0,
    3
  ],
  [
    240.0,
    300.0,
    3
  ],
  [
    290.0,
    100.0,
    36
  ],
  [
    170.0,
    90.0,
    37
  ],
  [
    190.0,
    260.0,
    24
  ],
  [
    170.0,
    250.0,
    58
  ],
  [
    290.0,
    260.0,
    43
  ],
  [
    50.0,
    280.0,
    107
  ],
  [
    270.0,
    300.0,
    85
  ],
  [
    170.0,
    320.0,
    75
  ],
  [
    40.0,
    340.0,
    37
  ],
  [
    250.0,
    190.0,
    2
  ],
  [
    260.0,
    350.0,
    79
  ],
  [
    70.0,
    270.0,
    43
  ],
  [
    170.0,
    40.0,
    162
  ],
  [
    180.0,
    270.0,
    183
  ],
  [
    210.0,
    40.0,
    28
  ],
  [
    160.0,
    20.0,
    71
  ],
  [
    210.0,
    0.0,
    41
  ],
  [
    260.0,
    70.0,
    3
  ],
  [
    310.0,
    350.0,
    4
  ],
  [
    180.0,
    170.0,
    101
  ],
  [
    290.0,
    150.0,
    169
  ],
  [
    170.0,
    170.0,
    68
  ],
  [
    190.0,
    170.0,
    35
  ],
  [
    180.0,
    120.0,
    22
  ],
  [
    40.0,
    70.0,
    15
  ],
  [
    280.0,
    170.0,
    241
  ],
  [
    300.0,
    10.0,
    21
  ],
  [
    60.0,
    180.0,
    96
  ],
  [
    210.0,
    80.0,
    3
  ],
  [
    170.0,
    150.0,
    14
  ],
  [
    210.0,
    320.0,
    70
  ],
  [
    190.0,
    70.0,
    240
  ],
  [
    190.0,
    200.0,
    33
  ],
  [
    50.0,
    30.0,
    211
  ],
  [
    310.0,
    280.0,
    41
  ],
  [
    40.0,
    310.0,
    25
  ],
  [
    60.0,
    190.0,
    81
  ],
  [
    290.0,
    140.0,
    126
  ],
  [
    180.0,
    190.0,
    36
  ],
  [
    260.0,
    0.0,
    70
  ],
  [
    200.0,
    330.0,
    139
  ],
  [
    50.0,
    160.0,
    29
  ],
  [
    270.0,
    60.0,
    7
  ],
  [
    240.0,
    70.0,
    3
  ],
  [
    60.0,
    160.0,
    44
  ],
  [
    270.0,
    90.0,
    6
  ],
  [
    70.0,
    300.0,
    44
  ],
  [
    160.0,
    270.0,
    13
  ],
  [
    70.0,
    340.0,
    302
  ],
  [
    60.0,
    150.0,
    32
  ],
  [
    270.0,
    190.0,
    13
  ],
  [
    40.0,
    160.0,
    4
  ],
  [
    300.0,
    120.0,
    40
  ],
  [
    210.0,
    280.0,
    14
  ],
  [
    210.0,
    340.0,
    83
  ],
  [
    60.0,
    220.0,
    8
  ],
  [
    60.0,
    170.0,
    99
  ],
  [
    300.0,
    350.0,
    85
  ],
  [
    240.0,
    0.0,
    9
  ],
  [
    40.0,
    290.0,
    17
  ],
  [
    50.0,
    40.0,
    143
  ],
  [
    290.0,
    30.0,
    21
  ],
  [
    70.0,
    180.0,
    38
  ],
  [
    200.0,
    50.0,
    75
  ],
  [
    280.0,
    150.0,
    122
  ],
  [
    290.0,
    120.0,
    70
  ],
  [
    270.0,
    290.0,
    74
  ],
  [
    180.0,
    210.0,
    23
  ],
  [
    40.0,
    50.0,
    30
  ],
  [
    270.0,
    50.0,
    10
  ],
  [
    250.0,
    180.0,
    2
  ],
  [
    190.0,
    240.0,
    34
  ],
  [
    50.0,
    130.0,
    17
  ],
  [
    300.0,
    110.0,
    39
  ],
  [
    190.0,
    120.0,
    21
  ],
  [
    40.0,
    350.0,
    60
  ],
  [
    210.0,
    310.0,
    41
  ],
  [
    300.0,
    240.0,
    7
  ],
  [
    270.0,
    20.0,
    77
  ],
  [
    290.0,
    110.0,
    47
  ],
  [
    220.0,
    310.0,
    14
  ],
  [
    220.0,
    340.0,
    12
  ],
  [
    260.0,
    320.0,
    48
  ],
  [
    250.0,
    10.0,
    22
  ],
  [
    200.0,
    60.0,
    51
  ],
  [
    160.0,
    280.0,
    10
  ],
  [
    220.0,
    330.0,
    16
  ],
  [
    200.0,
    290.0,
    62
  ],
  [
    250.0,
    20.0,
    11
  ],
  [
    180.0,
    90.0,
    96
  ],
  [
    40.0,
    200.0,
    6
  ],
  [
    190.0,
    250.0,
    29
  ],
  [
    50.0,
    50.0,
    105
  ],
  [
    280.0,
    270.0,
    89
  ],
  [
    260.0,
    290.0,
    17
  ],
  [
    60.0,
    50.0,
    56
  ],
  [
    210.0,
    350.0,
    74
  ],
  [
    290.0,
    20.0,
    30
  ],
  [
    310.0,
    140.0,
    5
  ],
  [
    180.0,
    250.0,
    58
  ],
  [
    80.0,
    100.0,
    3
  ],
  [
    220.0,
    30.0,
    11
  ],
  [
    70.0,
    20.0,
    117
  ],
  [
    270.0,
    160.0,
    38
  ],
  [
    180.0,
    260.0,
    63
  ],
  [
    40.0,
    0.0,
    82
  ],
  [
    170.0,
    310.0,
    39
  ],
  [
    30.0,
    50.0,
    3
  ],
  [
    30.0,
    60.0,
    8
  ],
  [
    190.0,
    190.0,
    53
  ],
  [
    200.0,
    80.0,
    34
  ],
  [
    50.0,
    70.0,
    36
  ],
  [
    300.0,
    130.0,
    55
  ],
  [
    210.0,
    260.0,
    2
  ],
  [
    50.0,
    140.0,
    17
  ],
  [
    70.0,
    260.0,
    9
  ],
  [
    70.0,
    170.0,
    34
  ],
  [
    300.0,
    0.0,
    26
  ],
  [
    320.0,
    310.0,
    7
  ],
  [
    70.0,
    80.0,
    31
  ],
  [
    40.0,
    40.0,
    53
  ],
  [
    70.0,
    250.0,
    3
  ],
  [
    180.0,
    110.0,
    22
  ],
  [
    300.0,
    250.0,
    19
  ],
  [
    210.0,
    60.0,
    18
  ],
  [
    330.0,
    60.0,
    1
  ],
  [
    30.0,
    220.0,
    5
  ],
  [
    200.0,
    200.0,
    13
  ],
  [
    210.0,
    300.0,
    18
  ],
  [
    200.0,
    320.0,
    79
  ],
  [
    200.0,
    30.0,
    173
  ],
  [
    270.0,
    70.0,
    13
  ],
  [
    160.0,
    0.0,
    43
  ],
  [
    200.0,
    260.0,
    11
  ],
  [
    280.0,
    110.0,
    22
  ],
  [
    280.0,
    70.0,
    21
  ],
  [
    40.0,
    250.0,
    5
  ],
  [
    310.0,
    90.0,
    7
  ],
  [
    250.0,
    310.0,
    12
  ],
  [
    260.0,
    20.0,
    38
  ],
  [
    60.0,
    90.0,
    22
  ],
  [
    190.0,
    160.0,
    35
  ],
  [
    220.0,
    0.0,
    12
  ],
  [
    220.0,
    350.0,
    13
  ],
  [
    300.0,
    90.0,
    16
  ],
  [
    80.0,
    340.0,
    28
  ],
  [
    290.0,
    60.0,
    39
  ],
  [
    310.0,
    310.0,
    77
  ],
  [
    80.0,
    0.0,
    34
  ],
  [
    280.0,
    180.0,
    81
  ],
  [
    70.0,
    70.0,
    19
  ],
  [
    250.0,
    280.0,
    7
  ],
  [
    170.0,
    290.0,
    39
  ],
  [
    250.0,
    300.0,
    4
  ],
  [
    160.0,
    60.0,
    62
  ],
  [
    170.0,
    240.0,
    35
  ],
  [
    200.0,
    140.0,
    5
  ],
  [
    320.0,
    120.0,
    2
  ],
  [
    160.0,
    70.0,
    56
  ],
  [
    280.0,
    60.0,
    25
  ],
  [
    310.0,
    290.0,
    77
  ],
  [
    200.0,
    190.0,
    23
  ],
  [
    190.0,
    100.0,
    28
  ],
  [
    210.0,
    30.0,
    30
  ],
  [
    200.0,
    300.0,
    41
  ],
  [
    200.0,
    310.0,
    33
  ],
  [
    260.0,
    120.0,
    3
  ],
  [
    250.0,
    270.0,
    5
  ],
  [
    60.0,
    260.0,
    24
  ],
  [
    280.0,
    100.0,
    16
  ],
  [
    170.0,
    230.0,
    15
  ],
  [
    40.0,
    320.0,
    22
  ],
  [
    270.0,
    150.0,
    21
  ],
  [
    60.0,
    230.0,
    5
  ],
  [
    270.0,
    260.0,
    11
  ],
  [
    270.0,
    40.0,
    26
  ],
  [
    60.0,
    70.0,
    51
  ],
  [
    190.0,
    90.0,
    50
  ],
  [
    310.0,
    60.0,
    17
  ],
  [
    50.0,
    150.0,
    21
  ],
  [
    70.0,
    120.0,
    3
  ],
  [
    140.0,
    20.0,
    1
  ],
  [
    80.0,
    40.0,
    2
  ],
  [
    30.0,
    100.0,
    2
  ],
  [
    230.0,
    80.0,
    4
  ],
  [
    30.0,
    40.0,
    11
  ],
  [
    270.0,
    280.0,
    28
  ],
  [
    290.0,
    80.0,
    67
  ],
  [
    30.0,
    210.0,
    3
  ],
  [
    280.0,
    260.0,
    16
  ],
  [
    80.0,
    10.0,
    10
  ],
  [
    310.0,
    270.0,
    21
  ],
  [
    40.0,
    30.0,
    49
  ],
  [
    40.0,
    330.0,
    27
  ],
  [
    260.0,
    270.0,
    8
  ],
  [
    290.0,
    230.0,
    8
  ],
  [
    190.0,
    180.0,
    41
  ],
  [
    210.0,
    20.0,
    39
  ],
  [
    180.0,
    140.0,
    34
  ],
  [
    300.0,
    100.0,
    23
  ],
  [
    230.0,
    40.0,
    3
  ],
  [
    310.0,
    250.0,
    7
  ],
  [
    50.0,
    220.0,
    12
  ],
  [
    210.0,
    210.0,
    5
  ],
  [
    200.0,
    220.0,
    8
  ],
  [
    290.0,
    50.0,
    23
  ],
  [
    300.0,
    40.0,
    27
  ],
  [
    50.0,
    270.0,
    46
  ],
  [
    30.0,
    230.0,
    3
  ],
  [
    220.0,
    270.0,
    8
  ],
  [
    30.0,
    70.0,
    4
  ],
  [
    230.0,
    0.0,
    12
  ],
  [
    190.0,
    140.0,
    22
  ],
  [
    250.0,
    320.0,
    13
  ],
  [
    220.0,
    10.0,
    16
  ],
  [
    200.0,
    120.0,
    4
  ],
  [
    40.0,
    130.0,
    3
  ],
  [
    210.0,
    290.0,
    21
  ],
  [
    80.0,
    310.0,
    17
  ],
  [
    260.0,
    30.0,
    22
  ],
  [
    290.0,
    190.0,
    7
  ],
  [
    60.0,
    250.0,
    9
  ],
  [
    50.0,
    80.0,
    26
  ],
  [
    70.0,
    240.0,
    1
  ],
  [
    180.0,
    150.0,
    57
  ],
  [
    180.0,
    130.0,
    22
  ],
  [
    160.0,
    30.0,
    57
  ],
  [
    200.0,
    240.0,
    8
  ],
  [
    80.0,
    350.0,
    40
  ],
  [
    80.0,
    320.0,
    24
  ],
  [
    190.0,
    210.0,
    28
  ],
  [
    70.0,
    130.0,
    3
  ],
  [
    40.0,
    110.0,
    4
  ],
  [
    180.0,
    220.0,
    24
  ],
  [
    170.0,
    300.0,
    40
  ],
  [
    80.0,
    50.0,
    4
  ],
  [
    310.0,
    110.0,
    9
  ],
  [
    190.0,
    130.0,
    15
  ],
  [
    270.0,
    110.0,
    6
  ],
  [
    280.0,
    140.0,
    40
  ],
  [
    40.0,
    260.0,
    5
  ],
  [
    280.0,
    230.0,
    5
  ],
  [
    260.0,
    110.0,
    3
  ],
  [
    40.0,
    300.0,
    18
  ],
  [
    300.0,
    160.0,
    21
  ],
  [
    50.0,
    250.0,
    4
  ],
  [
    320.0,
    280.0,
    11
  ],
  [
    310.0,
    80.0,
    19
  ],
  [
    70.0,
    290.0,
    40
  ],
  [
    80.0,
    300.0,
    14
  ],
  [
    80.0,
    290.0,
    8
  ],
  [
    40.0,
    60.0,
    29
  ],
  [
    220.0,
    320.0,
    18
  ],
  [
    210.0,
    50.0,
    17
  ],
  [
    220.0,
    300.0,
    12
  ],
  [
    320.0,
    250.0,
    4
  ],
  [
    30.0,
    10.0,
    8
  ],
  [
    260.0,
    180.0,
    6
  ],
  [
    150.0,
    270.0,
    3
  ],
  [
    170.0,
    220.0,
    15
  ],
  [
    200.0,
    130.0,
    6
  ],
  [
    60.0,
    130.0,
    11
  ],
  [
    110.0,
    280.0,
    3
  ],
  [
    230.0,
    130.0,
    1
  ],
  [
    200.0,
    170.0,
    18
  ],
  [
    300.0,
    230.0,
    12
  ],
  [
    300.0,
    20.0,
    18
  ],
  [
    310.0,
    330.0,
    28
  ],
  [
    80.0,
    280.0,
    2
  ],
  [
    210.0,
    100.0,
    3
  ],
  [
    240.0,
    250.0,
    4
  ],
  [
    210.0,
    270.0,
    10
  ],
  [
    250.0,
    330.0,
    17
  ],
  [
    60.0,
    140.0,
    13
  ],
  [
    270.0,
    220.0,
    4
  ],
  [
    50.0,
    200.0,
    20
  ],
  [
    290.0,
    240.0,
    11
  ],
  [
    60.0,
    200.0,
    29
  ],
  [
    310.0,
    340.0,
    5
  ],
  [
    200.0,
    150.0,
    8
  ],
  [
    60.0,
    210.0,
    17
  ],
  [
    220.0,
    80.0,
    3
  ],
  [
    70.0,
    50.0,
    12
  ],
  [
    20.0,
    30.0,
    2
  ],
  [
    240.0,
    80.0,
    3
  ],
  [
    50.0,
    240.0,
    6
  ],
  [
    120.0,
    260.0,
    1
  ],
  [
    260.0,
    150.0,
    7
  ],
  [
    330.0,
    320.0,
    4
  ],
  [
    240.0,
    10.0,
    9
  ],
  [
    290.0,
    210.0,
    3
  ],
  [
    310.0,
    0.0,
    8
  ],
  [
    90.0,
    300.0,
    7
  ],
  [
    290.0,
    40.0,
    18
  ],
  [
    50.0,
    110.0,
    12
  ],
  [
    210.0,
    220.0,
    4
  ],
  [
    280.0,
    210.0,
    4
  ],
  [
    90.0,
    290.0,
    2
  ],
  [
    270.0,
    180.0,
    30
  ],
  [
    160.0,
    90.0,
    11
  ],
  [
    300.0,
    260.0,
    40
  ],
  [
    60.0,
    100.0,
    15
  ],
  [
    70.0,
    60.0,
    14
  ],
  [
    300.0,
    80.0,
    57
  ],
  [
    40.0,
    80.0,
    5
  ],
  [
    280.0,
    130.0,
    39
  ],
  [
    200.0,
    270.0,
    39
  ],
  [
    280.0,
    120.0,
    18
  ],
  [
    270.0,
    130.0,
    9
  ],
  [
    250.0,
    120.0,
    1
  ],
  [
    90.0,
    60.0,
    2
  ],
  [
    220.0,
    50.0,
    3
  ],
  [
    100.0,
    240.0,
    1
  ],
  [
    100.0,
    300.0,
    3
  ],
  [
    270.0,
    140.0,
    7
  ],
  [
    220.0,
    130.0,
    2
  ],
  [
    310.0,
    120.0,
    8
  ],
  [
    200.0,
    110.0,
    4
  ],
  [
    260.0,
    230.0,
    1
  ],
  [
    80.0,
    170.0,
    1
  ],
  [
    300.0,
    170.0,
    10
  ],
  [
    90.0,
    340.0,
    6
  ],
  [
    310.0,
    100.0,
    4
  ],
  [
    260.0,
    280.0,
    8
  ],
  [
    280.0,
    200.0,
    7
  ],
  [
    240.0,
    280.0,
    4
  ],
  [
    80.0,
    120.0,
    7
  ],
  [
    220.0,
    290.0,
    7
  ],
  [
    230.0,
    280.0,
    4
  ],
  [
    230.0,
    350.0,
    5
  ],
  [
    240.0,
    320.0,
    6
  ],
  [
    80.0,
    270.0,
    9
  ],
  [
    210.0,
    90.0,
    6
  ],
  [
    170.0,
    110.0,
    7
  ],
  [
    70.0,
    140.0,
    7
  ],
  [
    210.0,
    200.0,
    7
  ],
  [
    330.0,
    10.0,
    1
  ],
  [
    200.0,
    250.0,
    9
  ],
  [
    30.0,
    30.0,
    5
  ],
  [
    250.0,
    260.0,
    2
  ],
  [
    190.0,
    220.0,
    27
  ],
  [
    200.0,
    210.0,
    12
  ],
  [
    250.0,
    290.0,
    1
  ],
  [
    150.0,
    30.0,
    11
  ],
  [
    30.0,
    200.0,
    5
  ],
  [
    280.0,
    240.0,
    5
  ],
  [
    240.0,
    270.0,
    3
  ],
  [
    200.0,
    180.0,
    23
  ],
  [
    160.0,
    210.0,
    3
  ],
  [
    30.0,
    280.0,
    6
  ],
  [
    70.0,
    40.0,
    20
  ],
  [
    260.0,
    210.0,
    1
  ],
  [
    310.0,
    40.0,
    8
  ],
  [
    70.0,
    190.0,
    15
  ],
  [
    70.0,
    90.0,
    8
  ],
  [
    180.0,
    100.0,
    35
  ],
  [
    140.0,
    40.0,
    3
  ],
  [
    200.0,
    160.0,
    19
  ],
  [
    70.0,
    200.0,
    4
  ],
  [
    80.0,
    20.0,
    5
  ],
  [
    320.0,
    140.0,
    3
  ],
  [
    170.0,
    130.0,
    4
  ],
  [
    100.0,
    310.0,
    1
  ],
  [
    230.0,
    320.0,
    2
  ],
  [
    40.0,
    120.0,
    3
  ],
  [
    230.0,
    340.0,
    3
  ],
  [
    90.0,
    330.0,
    5
  ],
  [
    160.0,
    330.0,
    7
  ],
  [
    10.0,
    280.0,
    2
  ],
  [
    20.0,
    290.0,
    1
  ],
  [
    260.0,
    300.0,
    22
  ],
  [
    300.0,
    190.0,
    3
  ],
  [
    210.0,
    190.0,
    11
  ],
  [
    160.0,
    260.0,
    10
  ],
  [
    40.0,
    230.0,
    5
  ],
  [
    210.0,
    160.0,
    7
  ],
  [
    40.0,
    140.0,
    7
  ],
  [
    220.0,
    20.0,
    7
  ],
  [
    310.0,
    70.0,
    27
  ],
  [
    230.0,
    260.0,
    1
  ],
  [
    320.0,
    30.0,
    3
  ],
  [
    100.0,
    270.0,
    1
  ],
  [
    250.0,
    110.0,
    1
  ],
  [
    310.0,
    30.0,
    3
  ],
  [
    20.0,
    80.0,
    3
  ],
  [
    200.0,
    90.0,
    8
  ],
  [
    70.0,
    150.0,
    18
  ],
  [
    270.0,
    250.0,
    2
  ],
  [
    150.0,
    50.0,
    5
  ],
  [
    170.0,
    120.0,
    4
  ],
  [
    50.0,
    100.0,
    14
  ],
  [
    320.0,
    320.0,
    4
  ],
  [
    230.0,
    330.0,
    4
  ],
  [
    40.0,
    170.0,
    8
  ],
  [
    310.0,
    240.0,
    4
  ],
  [
    220.0,
    280.0,
    8
  ],
  [
    50.0,
    120.0,
    17
  ],
  [
    240.0,
    350.0,
    4
  ],
  [
    30.0,
    350.0,
    5
  ],
  [
    30.0,
    320.0,
    2
  ],
  [
    170.0,
    140.0,
    6
  ],
  [
    270.0,
    100.0,
    2
  ],
  [
    330.0,
    130.0,
    1
  ],
  [
    210.0,
    140.0,
    9
  ],
  [
    80.0,
    140.0,
    1
  ],
  [
    160.0,
    250.0,
    8
  ],
  [
    160.0,
    200.0,
    3
  ],
  [
    160.0,
    320.0,
    3
  ],
  [
    80.0,
    260.0,
    3
  ],
  [
    270.0,
    80.0,
    11
  ],
  [
    80.0,
    90.0,
    3
  ],
  [
    270.0,
    230.0,
    2
  ],
  [
    20.0,
    270.0,
    2
  ],
  [
    50.0,
    230.0,
    8
  ],
  [
    250.0,
    170.0,
    1
  ],
  [
    30.0,
    80.0,
    2
  ],
  [
    140.0,
    100.0,
    1
  ],
  [
    310.0,
    220.0,
    3
  ],
  [
    310.0,
    20.0,
    4
  ],
  [
    160.0,
    110.0,
    2
  ],
  [
    230.0,
    60.0,
    3
  ],
  [
    250.0,
    40.0,
    14
  ],
  [
    280.0,
    90.0,
    13
  ],
  [
    220.0,
    140.0,
    1
  ],
  [
    260.0,
    130.0,
    4
  ],
  [
    260.0,
    100.0,
    1
  ],
  [
    260.0,
    250.0,
    2
  ],
  [
    230.0,
    310.0,
    3
  ],
  [
    230.0,
    180.0,
    3
  ],
  [
    80.0,
    210.0,
    1
  ],
  [
    40.0,
    190.0,
    6
  ],
  [
    210.0,
    150.0,
    8
  ],
  [
    200.0,
    230.0,
    6
  ],
  [
    230.0,
    110.0,
    1
  ],
  [
    230.0,
    10.0,
    6
  ],
  [
    230.0,
    140.0,
    2
  ],
  [
    20.0,
    210.0,
    3
  ],
  [
    80.0,
    70.0,
    4
  ],
  [
    300.0,
    180.0,
    7
  ],
  [
    30.0,
    130.0,
    1
  ],
  [
    240.0,
    130.0,
    1
  ],
  [
    240.0,
    160.0,
    2
  ],
  [
    250.0,
    100.0,
    6
  ],
  [
    190.0,
    110.0,
    19
  ],
  [
    30.0,
    340.0,
    4
  ],
  [
    160.0,
    340.0,
    8
  ],
  [
    260.0,
    50.0,
    9
  ],
  [
    320.0,
    300.0,
    7
  ],
  [
    150.0,
    90.0,
    3
  ],
  [
    220.0,
    120.0,
    2
  ],
  [
    150.0,
    40.0,
    11
  ],
  [
    290.0,
    220.0,
    4
  ],
  [
    0.0,
    320.0,
    1
  ],
  [
    240.0,
    50.0,
    3
  ],
  [
    250.0,
    30.0,
    8
  ],
  [
    40.0,
    90.0,
    4
  ],
  [
    80.0,
    110.0,
    3
  ],
  [
    300.0,
    210.0,
    1
  ],
  [
    140.0,
    220.0,
    1
  ],
  [
    310.0,
    260.0,
    7
  ],
  [
    80.0,
    30.0,
    2
  ],
  [
    330.0,
    290.0,
    2
  ],
  [
    30.0,
    20.0,
    3
  ],
  [
    320.0,
    10.0,
    2
  ],
  [
    150.0,
    0.0,
    2
  ],
  [
    330.0,
    270.0,
    2
  ],
  [
    210.0,
    240.0,
    3
  ],
  [
    310.0,
    50.0,
    8
  ],
  [
    40.0,
    210.0,
    5
  ],
  [
    320.0,
    290.0,
    4
  ],
  [
    80.0,
    60.0,
    5
  ],
  [
    170.0,
    210.0,
    8
  ],
  [
    250.0,
    50.0,
    6
  ],
  [
    140.0,
    50.0,
    1
  ],
  [
    240.0,
    60.0,
    3
  ],
  [
    310.0,
    150.0,
    3
  ],
  [
    230.0,
    300.0,
    4
  ],
  [
    20.0,
    280.0,
    3
  ],
  [
    80.0,
    250.0,
    1
  ],
  [
    240.0,
    260.0,
    3
  ],
  [
    310.0,
    210.0,
    1
  ],
  [
    10.0,
    80.0,
    2
  ],
  [
    10.0,
    300.0,
    1
  ],
  [
    160.0,
    240.0,
    5
  ],
  [
    90.0,
    140.0,
    1
  ],
  [
    100.0,
    90.0,
    2
  ],
  [
    160.0,
    100.0,
    2
  ],
  [
    60.0,
    240.0,
    4
  ],
  [
    210.0,
    70.0,
    9
  ],
  [
    210.0,
    130.0,
    3
  ],
  [
    100.0,
    150.0,
    1
  ],
  [
    220.0,
    230.0,
    1
  ],
  [
    260.0,
    160.0,
    6
  ],
  [
    50.0,
    90.0,
    12
  ],
  [
    140.0,
    30.0,
    1
  ],
  [
    310.0,
    130.0,
    10
  ],
  [
    270.0,
    210.0,
    2
  ],
  [
    240.0,
    30.0,
    2
  ],
  [
    260.0,
    200.0,
    2
  ],
  [
    220.0,
    170.0,
    1
  ],
  [
    330.0,
    340.0,
    2
  ],
  [
    10.0,
    60.0,
    2
  ],
  [
    160.0,
    220.0,
    2
  ],
  [
    100.0,
    290.0,
    4
  ],
  [
    20.0,
    260.0,
    1
  ],
  [
    280.0,
    220.0,
    2
  ],
  [
    260.0,
    60.0,
    2
  ],
  [
    90.0,
    200.0,
    1
  ],
  [
    350.0,
    310.0,
    1
  ],
  [
    30.0,
    180.0,
    1
  ],
  [
    220.0,
    40.0,
    9
  ],
  [
    40.0,
    180.0,
    8
  ],
  [
    150.0,
    20.0,
    7
  ],
  [
    50.0,
    260.0,
    10
  ],
  [
    150.0,
    70.0,
    3
  ],
  [
    140.0,
    130.0,
    1
  ],
  [
    80.0,
    80.0,
    4
  ],
  [
    220.0,
    70.0,
    2
  ],
  [
    210.0,
    110.0,
    5
  ],
  [
    150.0,
    350.0,
    3
  ],
  [
    160.0,
    170.0,
    1
  ],
  [
    250.0,
    230.0,
    5
  ],
  [
    80.0,
    130.0,
    4
  ],
  [
    20.0,
    70.0,
    1
  ],
  [
    250.0,
    60.0,
    5
  ],
  [
    40.0,
    240.0,
    2
  ],
  [
    40.0,
    150.0,
    4
  ],
  [
    340.0,
    40.0,
    1
  ],
  [
    290.0,
    200.0,
    1
  ],
  [
    80.0,
    180.0,
    2
  ],
  [
    20.0,
    340.0,
    1
  ],
  [
    310.0,
    170.0,
    1
  ],
  [
    320.0,
    330.0,
    2
  ],
  [
    330.0,
    70.0,
    1
  ],
  [
    230.0,
    20.0,
    2
  ],
  [
    210.0,
    120.0,
    2
  ],
  [
    330.0,
    350.0,
    1
  ],
  [
    150.0,
    60.0,
    2
  ],
  [
    10.0,
    330.0,
    1
  ],
  [
    340.0,
    290.0,
    2
  ],
  [
    300.0,
    220.0,
    3
  ],
  [
    20.0,
    60.0,
    3
  ],
  [
    350.0,
    350.0,
    1
  ],
  [
    70.0,
    100.0,
    4
  ],
  [
    0.0,
    50.0,
    1
  ],
  [
    230.0,
    100.0,
    1
  ],
  [
    330.0,
    100.0,
    1
  ],
  [
    320.0,
    20.0,
    1
  ],
  [
    70.0,
    110.0,
    5
  ],
  [
    160.0,
    230.0,
    6
  ],
  [
    30.0,
    260.0,
    1
  ],
  [
    70.0,
    220.0,
    3
  ],
  [
    270.0,
    120.0,
    6
  ],
  [
    250.0,
    90.0,
    2
  ],
  [
    20.0,
    40.0,
    2
  ],
  [
    210.0,
    170.0,
    3
  ],
  [
    220.0,
    160.0,
    1
  ],
  [
    10.0,
    260.0,
    1
  ],
  [
    150.0,
    250.0,
    1
  ],
  [
    320.0,
    220.0,
    2
  ],
  [
    150.0,
    80.0,
    3
  ],
  [
    340.0,
    300.0,
    1
  ],
  [
    340.0,
    70.0,
    2
  ],
  [
    320.0,
    240.0,
    1
  ],
  [
    140.0,
    300.0,
    1
  ],
  [
    120.0,
    20.0,
    1
  ],
  [
    310.0,
    160.0,
    1
  ],
  [
    140.0,
    70.0,
    1
  ],
  [
    80.0,
    150.0,
    1
  ],
  [
    250.0,
    150.0,
    2
  ],
  [
    340.0,
    80.0,
    1
  ],
  [
    260.0,
    190.0,
    6
  ],
  [
    130.0,
    340.0,
    1
  ],
  [
    220.0,
    240.0,
    2
  ],
  [
    250.0,
    70.0,
    1
  ],
  [
    150.0,
    230.0,
    3
  ],
  [
    10.0,
    290.0,
    1
  ],
  [
    20.0,
    50.0,
    2
  ],
  [
    320.0,
    50.0,
    2
  ],
  [
    160.0,
    160.0,
    3
  ],
  [
    230.0,
    50.0,
    2
  ],
  [
    90.0,
    80.0,
    1
  ],
  [
    320.0,
    80.0,
    3
  ],
  [
    340.0,
    260.0,
    1
  ],
  [
    250.0,
    240.0,
    1
  ],
  [
    210.0,
    230.0,
    2
  ],
  [
    240.0,
    190.0,
    1
  ],
  [
    20.0,
    250.0,
    1
  ],
  [
    250.0,
    200.0,
    2
  ],
  [
    320.0,
    260.0,
    2
  ],
  [
    90.0,
    310.0,
    5
  ],
  [
    160.0,
    180.0,
    3
  ],
  [
    140.0,
    80.0,
    1
  ],
  [
    220.0,
    180.0,
    2
  ],
  [
    0.0,
    80.0,
    1
  ],
  [
    230.0,
    30.0,
    4
  ],
  [
    90.0,
    120.0,
    1
  ],
  [
    260.0,
    260.0,
    3
  ],
  [
    30.0,
    290.0,
    4
  ],
  [
    250.0,
    130.0,
    3
  ],
  [
    340.0,
    340.0,
    1
  ],
  [
    350.0,
    40.0,
    1
  ],
  [
    10.0,
    320.0,
    1
  ],
  [
    20.0,
    0.0,
    2
  ],
  [
    150.0,
    320.0,
    1
  ],
  [
    330.0,
    110.0,
    2
  ],
  [
    340.0,
    240.0,
    1
  ],
  [
    0.0,
    30.0,
    1
  ],
  [
    240.0,
    310.0,
    4
  ],
  [
    330.0,
    50.0,
    1
  ],
  [
    330.0,
    90.0,
    1
  ],
  [
    90.0,
    70.0,
    1
  ],
  [
    20.0,
    310.0,
    1
  ],
  [
    240.0,
    110.0,
    1
  ],
  [
    30.0,
    330.0,
    2
  ],
  [
    330.0,
    280.0,
    1
  ],
  [
    220.0,
    260.0,
    2
  ],
  [
    250.0,
    220.0,
    1
  ],
  [
    330.0,
    80.0,
    1
  ],
  [
    30.0,
    120.0,
    1
  ],
  [
    320.0,
    60.0,
    5
  ],
  [
    320.0,
    90.0,
    2
  ],
  [
    350.0,
    60.0,
    1
  ],
  [
    160.0,
    190.0,
    2
  ],
  [
    240.0,
    290.0,
    5
  ],
  [
    260.0,
    220.0,
    1
  ],
  [
    140.0,
    340.0,
    1
  ],
  [
    250.0,
    250.0,
    2
  ],
  [
    250.0,
    140.0,
    2
  ],
  [
    150.0,
    10.0,
    2
  ],
  [
    10.0,
    180.0,
    1
  ],
  [
    240.0,
    100.0,
    1
  ],
  [
    220.0,
    150.0,
    2
  ],
  [
    340.0,
    270.0,
    1
  ],
  [
    130.0,
    80.0,
    2
  ],
  [
    30.0,
    310.0,
    1
  ],
  [
    320.0,
    270.0,
    2
  ],
  [
    80.0,
    160.0,
    3
  ],
  [
    240.0,
    230.0,
    1
  ],
  [
    120.0,
    250.0,
    1
  ],
  [
    30.0,
    170.0,
    3
  ],
  [
    70.0,
    230.0,
    3
  ],
  [
    20.0,
    300.0,
    1
  ],
  [
    160.0,
    310.0,
    1
  ],
  [
    160.0,
    120.0,
    1
  ],
  [
    90.0,
    280.0,
    2
  ],
  [
    330.0,
    250.0,
    1
  ],
  [
    130.0,
    60.0,
    2
  ],
  [
    20.0,
    20.0,
    1
  ],
  [
    330.0,
    310.0,
    1
  ],
  [
    250.0,
    80.0,
    2
  ],
  [
    20.0,
    130.0,
    1
  ],
  [
    310.0,
    200.0,
    1
  ],
  [
    350.0,
    260.0,
    1
  ],
  [
    320.0,
    350.0,
    1
  ],
  [
    20.0,
    230.0,
    1
  ],
  [
    20.0,
    10.0,
    2
  ],
  [
    90.0,
    160.0,
    1
  ],
  [
    230.0,
    150.0,
    2
  ],
  [
    90.0,
    130.0,
    1
  ],
  [
    10.0,
    110.0,
    1
  ],
  [
    120.0,
    290.0,
    1
  ],
  [
    220.0,
    110.0,
    1
  ],
  [
    230.0,
    270.0,
    1
  ],
  [
    140.0,
    310.0,
    1
  ],
  [
    320.0,
    40.0,
    1
  ],
  [
    320.0,
    230.0,
    2
  ],
  [
    130.0,
    90.0,
    1
  ],
  [
    70.0,
    210.0,
    1
  ],
  [
    320.0,
    340.0,
    1
  ],
  [
    240.0,
    90.0,
    1
  ],
  [
    140.0,
    90.0,
    1
  ],
  [
    100.0,
    20.0,
    1
  ],
  [
    80.0,
    220.0,
    1
  ],
  [
    240.0,
    20.0,
    2
  ],
  [
    110.0,
    210.0,
    1
  ],
  [
    150.0,
    240.0,
    1
  ],
  [
    130.0,
    50.0,
    1
  ],
  [
    110.0,
    10.0,
    1
  ],
  [
    220.0,
    200.0,
    1
  ],
  [
    230.0,
    250.0,
    1
  ],
  [
    130.0,
    10.0,
    1
  ],
  [
    130.0,
    260.0,
    1
  ],
  [
    100.0,
    140.0,
    1
  ],
  [
    350.0,
    140.0,
    1
  ],
  [
    230.0,
    200.0,
    1
  ],
  [
    210.0,
    180.0,
    1
  ],
  [
    30.0,
    250.0,
    1
  ],
  [
    220.0,
    190.0,
    1
  ],
  [
    90.0,
    40.0,
    2
  ],
  [
    80.0,
    190.0,
    1
  ],
  [
    0.0,
    260.0,
    1
  ],
  [
    240.0,
    40.0,
    1
  ],
  [
    230.0,
    220.0,
    1
  ],
  [
    90.0,
    110.0,
    1
  ],
  [
    10.0,
    270.0,
    1
  ]
]