[
  [
    0,
    0
  ],
  [
    1,
    0
  ],
  [
    2,
    0
  ],
  [
    3,
    2
  ],
  [
    4,
    1
  ],
  [
    5,
    1
  ],
  [
    6,
    0
  ],
  [
    7,
    1
  ],
  [
    8,
    1
  ],
  [
    9,
    1
  ],
  [
    10,
    0
  ],
  [
    11,
    2
  ],
  [
    12,
    1
  ],
  [
    13,
    0
  ],
  [
    14,
    1
  ],
  [
    15,
    1
  ],
  [
    16,
    4
  ],
  [
    17,
    4
  ],
  [
    18,
    0
  ],
  [
    19,
    2
  ],
  [
    20,
    1
  ],
  [
    21,
    1
  ],
  [
    22,
    4
  ],
  [
    23,
    4
  ],
  [
    24,
    3
  ],
  [
    25,
    4
  ],
  [
    26,
    3
  ],
  [
    27,
    3
  ],
  [
    28,
    2
  ],
  [
    29,
    3
  ],
  [
    30,
    2
  ],
  [
    31,
    5
  ],
  [
    32,
    6
  ],
  [
    33,
    3
  ],
  [
    34,
    9
  ],
  [
    35,
    7
  ],
  [
    36,
    8
  ],
  [
    37,
    5
  ],
  [
    38,
    5
  ],
  [
    39,
    7
  ],
  [
    40,
    4
  ],
  [
    41,
    7
  ],
  [
    42,
    11
  ],
  [
    43,
    9
  ],
  [
    44,
    17
  ],
  [
    45,
    13
  ],
  [
    46,
    19
  ],
  [
    47,
    20
  ],
  [
    48,
    29
  ],
  [
    49,
    24
  ],
  [
    50,
    44
  ],
  [
    51,
    40
  ],
  [
    52,
    55
  ],
  [
    53,
    64
  ],
  [
    54,
    79
  ],
  [
    55,
    88
  ],
  [
    56,
    85
  ],
  [
    57,
    105
  ],
  [
    58,
    125
  ],
  [
    59,
    151
  ],
  [
    60,
    143
  ],
  [
    61,
    174
  ],
  [
    62,
    197
  ],
  [
    63,
    207
  ],
  [
    64,
    207
  ],
  [
    65,
    205
  ],
  [
    66,
    207
  ],
  [
    67,
    174
  ],
  [
    68,
    153
  ],
  [
    69,
    159
  ],
  [
    70,
    147
  ],
  [
    71,
    165
  ],
  [
    72,
    124
  ],
  [
    73,
    93
  ],
  [
    74,
    96
  ],
  [
    75,
    73
  ],
  [
    76,
    73
  ],
  [
    77,
    57
  ],
  [
    78,
    41
  ],
  [
    79,
    32
  ],
  [
    80,
    30
  ],
  [
    81,
    30
  ],
  [
    82,
    24
  ],
  [
    83,
    21
  ],
  [
    84,
    15
  ],
  [
    85,
    15
  ],
  [
    86,
    9
  ],
  [
    87,
    19
  ],
  [
    88,
    9
  ],
  [
    89,
    4
  ],
  [
    90,
    9
  ],
  [
    91,
    8
  ],
  [
    92,
    11
  ],
  [
    93,
    0
  ],
  [
    94,
    5
  ],
  [
    95,
    3
  ],
  [
    96,
    5
  ],
  [
    97,
    4
  ],
  [
    98,
    3
  ],
  [
    99,
    1
  ],
  [
    100,
    3
  ],
  [
    101,
    4
  ],
  [
    102,
    4
  ],
  [
    103,
    1
  ],
  [
    104,
    1
  ],
  [
    105,
    2
  ],
  [
    106,
    3
  ],
  [
    107,
    1
  ],
  [
    108,
    2
  ],
  [
    109,
    7
  ],
  [
    110,
    3
  ],
  [
    111,
    0
  ],
  [
    112,
    2
  ],
  [
    113,
    0
  ],
  [
    114,
    0
  ],
  [
    115,
    1
  ],
  [
    116,
    0
  ],
  [
    117,
    2
  ],
  [
    118,
    0
  ],
  [
    119,
    2
  ],
  [
    120,
    0
  ],
  [
    121,
    1
  ],
  [
    122,
    3
  ],
  [
    123,
    2
  ],
  [
    124,
    0
  ],
  [
    125,
    2
  ],
  [
    126,
    1
  ],
  [
    127,
    0
  ],
  [
    128,
    1
  ],
  [
    129,
    1
  ],
  [
    130,
    2
  ],
  [
    131,
    0
  ],
  [
    132,
    2
  ],
  [
    133,
    0
  ],
  [
    134,
    3
  ],
  [
    135,
    1
  ],
  [
    136,
    1
  ],
  [
    137,
    0
  ],
  [
    138,
    1
  ],
  [
    139,
    1
  ],
  [
    140,
    1
  ],
  [
    141,
    0
  ],
  [
    142,
    3
  ],
  [
    143,
    3
  ],
  [
    144,
    6
  ],
  [
    145,
    5
  ],
  [
    146,
    1
  ],
  [
    147,
    2
  ],
  [
    148,
    2
  ],
  [
    149,
    6
  ],
  [
    150,
    5
  ],
  [
    151,
    7
  ],
  [
    152,
    3
  ],
  [
    153,
    8
  ],
  [
    154,
    13
  ],
  [
    155,
    9
  ],
  [
    156,
    7
  ],
  [
    157,
    16
  ],
  [
    158,
    20
  ],
  [
    159,
    13
  ],
  [
    160,
    24
  ],
  [
    161,
    28
  ],
  [
    162,
    35
  ],
  [
    163,
    58
  ],
  [
    164,
    59
  ],
  [
    165,
    55
  ],
  [
    166,
    70
  ],
  [
    167,
    94
  ],
  [
    168,
    118
  ],
  [
    169,
    176
  ],
  [
    170,
    184
  ],
  [
    171,
    230
  ],
  [
    172,
    273
  ],
  [
    173,
    352
  ],
  [
    174,
    402
  ],
  [
    175,
    483
  ],
  [
    176,
    589
  ],
  [
    177,
    600
  ],
  [
    178,
    731
  ],
  [
    179,
    794
  ],
  [
    180,
    746
  ],
  [
    181,
    847
  ],
  [
    182,
    818
  ],
  [
    183,
    839
  ],
  [
    184,
    906
  ],
  [
    185,
    826
  ],
  [
    186,
    737
  ],
  [
    187,
    696
  ],
  [
    188,
    635
  ],
  [
    189,
    603
  ],
  [
    190,
    482
  ],
  [
    191,
    489
  ],
  [
    192,
    416
  ],
  [
    193,
    328
  ],
  [
    194,
    321
  ],
  [
    195,
    213
  ],
  [
    196,
    196
  ],
  [
    197,
    149
  ],
  [
    198,
    138
  ],
  [
    199,
    112
  ],
  [
    200,
    105
  ],
  [
    201,
    91
  ],
  [
    202,
    62
  ],
  [
    203,
    66
  ],
  [
    204,
    60
  ],
  [
    205,
    52
  ],
  [
    206,
    36
  ],
  [
    207,
    39
  ],
  [
    208,
    32
  ],
  [
    209,
    23
  ],
  [
    210,
    16
  ],
  [
    211,
    25
  ],
  [
    212,
    20
  ],
  [
    213,
    25
  ],
  [
    214,
    13
  ],
  [
    215,
    15
  ],
  [
    216,
    18
  ],
  [
    217,
    10
  ],
  [
    218,
    25
  ],
  [
    219,
    19
  ],
  [
    220,
    8
  ],
  [
    221,
    16
  ],
  [
    222,
    12
  ],
  [
    223,
    11
  ],
  [
    224,
    9
  ],
  [
    225,
    11
  ],
  [
    226,
    6
  ],
  [
    227,
    6
  ],
  [
    228,
    7
  ],
  [
    229,
    10
  ],
  [
    230,
    12
  ],
  [
    231,
    2
  ],
  [
    232,
    6
  ],
  [
    233,
    7
  ],
  [
    234,
    6
  ],
  [
    235,
    11
  ],
  [
    236,
    4
  ],
  [
    237,
    1
  ],
  [
    238,
    3
  ],
  [
    239,
    7
  ],
  [
    240,
    2
  ],
  [
    241,
    11
  ],
  [
    242,
    8
  ],
  [
    243,
    2
  ],
  [
    244,
    7
  ],
  [
    245,
    8
  ],
  [
    246,
    8
  ],
  [
    247,
    9
  ],
  [
    248,
    4
  ],
  [
    249,
    6
  ],
  [
    250,
    6
  ],
  [
    251,
    9
  ],
  [
    252,
    10
  ],
  [
    253,
    5
  ],
  [
    254,
    12
  ],
  [
    255,
    9
  ],
  [
    256,
    12
  ],
  [
    257,
    13
  ],
  [
    258,
    16
  ],
  [
    259,
    13
  ],
  [
    260,
    20
  ],
  [
    261,
    21
  ],
  [
    262,
    25
  ],
  [
    263,
    26
  ],
  [
    264,
    27
  ],
  [
    265,
    23
  ],
  [
    266,
    28
  ],
  [
    267,
    36
  ],
  [
    268,
    38
  ],
  [
    269,
    39
  ],
  [
    270,
    34
  ],
  [
    271,
    59
  ],
  [
    272,
    60
  ],
  [
    273,
    66
  ],
  [
    274,
    80
  ],
  [
    275,
    111
  ],
  [
    276,
    127
  ],
  [
    277,
    124
  ],
  [
    278,
    168
  ],
  [
    279,
    184
  ],
  [
    280,
    239
  ],
  [
    281,
    309
  ],
  [
    282,
    451
  ],
  [
    283,
    507
  ],
  [
    284,
    651
  ],
  [
    285,
    795
  ],
  [
    286,
    1027
  ],
  [
    287,
    1219
  ],
  [
    288,
    1352
  ],
  [
    289,
    1550
  ],
  [
    290,
    1726
  ],
  [
    291,
    1929
  ],
  [
    292,
    1956
  ],
  [
    293,
    1861
  ],
  [
    294,
    1798
  ],
  [
    295,
    1715
  ],
  [
    296,
    1666
  ],
  [
    297,
    1483
  ],
  [
    298,
    1408
  ],
  [
    299,
    1296
  ],
  [
    300,
    1144
  ],
  [
    301,
    989
  ],
  [
    302,
    888
  ],
  [
    303,
    765
  ],
  [
    304,
    667
  ],
  [
    305,
    549
  ],
  [
    306,
    452
  ],
  [
    307,
    329
  ],
  [
    308,
    312
  ],
  [
    309,
    267
  ],
  [
    310,
    213
  ],
  [
    311,
    173
  ],
  [
    312,
    152
  ],
  [
    313,
    107
  ],
  [
    314,
    93
  ],
  [
    315,
    71
  ],
  [
    316,
    54
  ],
  [
    317,
    48
  ],
  [
    318,
    53
  ],
  [
    319,
    47
  ],
  [
    320,
    28
  ],
  [
    321,
    21
  ],
  [
    322,
    23
  ],
  [
    323,
    22
  ],
  [
    324,
    14
  ],
  [
    325,
    12
  ],
  [
    326,
    12
  ],
  [
    327,
    10
  ],
  [
    328,
    4
  ],
  [
    329,
    3
  ],
  [
    330,
    3
  ],
  [
    331,
    6
  ],
  [
    332,
    5
  ],
  [
    333,
    3
  ],
  [
    334,
    5
  ],
  [
    335,
    4
  ],
  [
    336,
    5
  ],
  [
    337,
    1
  ],
  [
    338,
    2
  ],
  [
    339,
    3
  ],
  [
    340,
    4
  ],
  [
    341,
    1
  ],
  [
    342,
    5
  ],
  [
    343,
    2
  ],
  [
    344,
    3
  ],
  [
    345,
    2
  ],
  [
    346,
    2
  ],
  [
    347,
    2
  ],
  [
    348,
    0
  ],
  [
    349,
    2
  ],
  [
    350,
    1
  ],
  [
    351,
    0
  ],
  [
    352,
    1
  ],
  [
    353,
    0
  ],
  [
    354,
    0
  ],
  [
    355,
    1
  ],
  [
    356,
    0
  ],
  [
    357,
    1
  ],
  [
    358,
    0
  ],
  [
    359,
    1
  ]
]