[
  [
    0,
    0
  ],
  [
    1,
    0
  ],
  [
    2,
    0
  ],
  [
    3,
    0
  ],
  [
    4,
    1
  ],
  [
    5,
    0
  ],
  [
    6,
    1
  ],
  [
    7,
    0
  ],
  [
    8,
    0
  ],
  [
    9,
    0
  ],
  [
    10,
    1
  ],
  [
    11,
    0
  ],
  [
    12,
    2
  ],
  [
    13,
    0
  ],
  [
    14,
    1
  ],
  [
    15,
    1
  ],
  [
    16,
    0
  ],
  [
    17,
    1
  ],
  [
    18,
    1
  ],
  [
    19,
    0
  ],
  [
    20,
    0
  ],
  [
    21,
    0
  ],
  [
    22,
    1
  ],
  [
    23,
    0
  ],
  [
    24,
    1
  ],
  [
    25,
    1
  ],
  [
    26,
    2
  ],
  [
    27,
    2
  ],
  [
    28,
    0
  ],
  [
    29,
    1
  ],
  [
    30,
    5
  ],
  [
    31,
    1
  ],
  [
    32,
    4
  ],
  [
    33,
    1
  ],
  [
    34,
    1
  ],
  [
    35,
    2
  ],
  [
    36,
    3
  ],
  [
    37,
    4
  ],
  [
    38,
    7
  ],
  [
    39,
    6
  ],
  [
    40,
    2
  ],
  [
    41,
    5
  ],
  [
    42,
    14
  ],
  [
    43,
    9
  ],
  [
    44,
    11
  ],
  [
    45,
    16
  ],
  [
    46,
    18
  ],
  [
    47,
    22
  ],
  [
    48,
    38
  ],
  [
    49,
    42
  ],
  [
    50,
    34
  ],
  [
    51,
    64
  ],
  [
    52,
    63
  ],
  [
    53,
    74
  ],
  [
    54,
    117
  ],
  [
    55,
    142
  ],
  [
    56,
    132
  ],
  [
    57,
    224
  ],
  [
    58,
    213
  ],
  [
    59,
    255
  ],
  [
    60,
    282
  ],
  [
    61,
    323
  ],
  [
    62,
    305
  ],
  [
    63,
    391
  ],
  [
    64,
    339
  ],
  [
    65,
    360
  ],
  [
    66,
    323
  ],
  [
    67,
    342
  ],
  [
    68,
    311
  ],
  [
    69,
    240
  ],
  [
    70,
    245
  ],
  [
    71,
    241
  ],
  [
    72,
    195
  ],
  [
    73,
    197
  ],
  [
    74,
    192
  ],
  [
    75,
    166
  ],
  [
    76,
    162
  ],
  [
    77,
    146
  ],
  [
    78,
    110
  ],
  [
    79,
    132
  ],
  [
    80,
    121
  ],
  [
    81,
    112
  ],
  [
    82,
    114
  ],
  [
    83,
    82
  ],
  [
    84,
    107
  ],
  [
    85,
    101
  ],
  [
    86,
    86
  ],
  [
    87,
    94
  ],
  [
    88,
    77
  ],
  [
    89,
    80
  ],
  [
    90,
    86
  ],
  [
    91,
    70
  ],
  [
    92,
    79
  ],
  [
    93,
    76
  ],
  [
    94,
    74
  ],
  [
    95,
    57
  ],
  [
    96,
    52
  ],
  [
    97,
    43
  ],
  [
    98,
    43
  ],
  [
    99,
    37
  ],
  [
    100,
    30
  ],
  [
    101,
    25
  ],
  [
    102,
    16
  ],
  [
    103,
    15
  ],
  [
    104,
    16
  ],
  [
    105,
    14
  ],
  [
    106,
    9
  ],
  [
    107,
    6
  ],
  [
    108,
    13
  ],
  [
    109,
    13
  ],
  [
    110,
    12
  ],
  [
    111,
    9
  ],
  [
    112,
    6
  ],
  [
    113,
    9
  ],
  [
    114,
    10
  ],
  [
    115,
    8
  ],
  [
    116,
    8
  ],
  [
    117,
    5
  ],
  [
    118,
    8
  ],
  [
    119,
    4
  ],
  [
    120,
    5
  ],
  [
    121,
    5
  ],
  [
    122,
    8
  ],
  [
    123,
    4
  ],
  [
    124,
    8
  ],
  [
    125,
    3
  ],
  [
    126,
    14
  ],
  [
    127,
    9
  ],
  [
    128,
    8
  ],
  [
    129,
    9
  ],
  [
    130,
    8
  ],
  [
    131,
    14
  ],
  [
    132,
    8
  ],
  [
    133,
    7
  ],
  [
    134,
    11
  ],
  [
    135,
    13
  ],
  [
    136,
    10
  ],
  [
    137,
    9
  ],
  [
    138,
    19
  ],
  [
    139,
    16
  ],
  [
    140,
    21
  ],
  [
    141,
    15
  ],
  [
    142,
    23
  ],
  [
    143,
    29
  ],
  [
    144,
    20
  ],
  [
    145,
    27
  ],
  [
    146,
    33
  ],
  [
    147,
    26
  ],
  [
    148,
    38
  ],
  [
    149,
    45
  ],
  [
    150,
    70
  ],
  [
    151,
    89
  ],
  [
    152,
    93
  ],
  [
    153,
    96
  ],
  [
    154,
    114
  ],
  [
    155,
    132
  ],
  [
    156,
    162
  ],
  [
    157,
    161
  ],
  [
    158,
    196
  ],
  [
    159,
    247
  ],
  [
    160,
    308
  ],
  [
    161,
    321
  ],
  [
    162,
    390
  ],
  [
    163,
    477
  ],
  [
    164,
    554
  ],
  [
    165,
    613
  ],
  [
    166,
    667
  ],
  [
    167,
    718
  ],
  [
    168,
    800
  ],
  [
    169,
    849
  ],
  [
    170,
    986
  ],
  [
    171,
    1019
  ],
  [
    172,
    1126
  ],
  [
    173,
    1170
  ],
  [
    174,
    1189
  ],
  [
    175,
    1308
  ],
  [
    176,
    1262
  ],
  [
    177,
    1297
  ],
  [
    178,
    1245
  ],
  [
    179,
    1246
  ],
  [
    180,
    1186
  ],
  [
    181,
    1167
  ],
  [
    182,
    1089
  ],
  [
    183,
    1075
  ],
  [
    184,
    947
  ],
  [
    185,
    918
  ],
  [
    186,
    921
  ],
  [
    187,
    815
  ],
  [
    188,
    746
  ],
  [
    189,
    679
  ],
  [
    190,
    581
  ],
  [
    191,
    517
  ],
  [
    192,
    465
  ],
  [
    193,
    432
  ],
  [
    194,
    385
  ],
  [
    195,
    350
  ],
  [
    196,
    279
  ],
  [
    197,
    257
  ],
  [
    198,
    228
  ],
  [
    199,
    195
  ],
  [
    200,
    143
  ],
  [
    201,
    152
  ],
  [
    202,
    119
  ],
  [
    203,
    98
  ],
  [
    204,
    80
  ],
  [
    205,
    84
  ],
  [
    206,
    68
  ],
  [
    207,
    61
  ],
  [
    208,
    51
  ],
  [
    209,
    57
  ],
  [
    210,
    46
  ],
  [
    211,
    44
  ],
  [
    212,
    31
  ],
  [
    213,
    34
  ],
  [
    214,
    22
  ],
  [
    215,
    24
  ],
  [
    216,
    30
  ],
  [
    217,
    20
  ],
  [
    218,
    19
  ],
  [
    219,
    19
  ],
  [
    220,
    19
  ],
  [
    221,
    11
  ],
  [
    222,
    14
  ],
  [
    223,
    9
  ],
  [
    224,
    16
  ],
  [
    225,
    8
  ],
  [
    226,
    12
  ],
  [
    227,
    11
  ],
  [
    228,
    14
  ],
  [
    229,
    18
  ],
  [
    230,
    14
  ],
  [
    231,
    6
  ],
  [
    232,
    10
  ],
  [
    233,
    8
  ],
  [
    234,
    10
  ],
  [
    235,
    9
  ],
  [
    236,
    10
  ],
  [
    237,
    7
  ],
  [
    238,
    4
  ],
  [
    239,
    12
  ],
  [
    240,
    7
  ],
  [
    241,
    3
  ],
  [
    242,
    7
  ],
  [
    243,
    6
  ],
  [
    244,
    8
  ],
  [
    245,
    13
  ],
  [
    246,
    11
  ],
  [
    247,
    11
  ],
  [
    248,
    10
  ],
  [
    249,
    17
  ],
  [
    250,
    13
  ],
  [
    251,
    9
  ],
  [
    252,
    20
  ],
  [
    253,
    14
  ],
  [
    254,
    18
  ],
  [
    255,
    18
  ],
  [
    256,
    26
  ],
  [
    257,
    29
  ],
  [
    258,
    11
  ],
  [
    259,
    27
  ],
  [
    260,
    29
  ],
  [
    261,
    32
  ],
  [
    262,
    52
  ],
  [
    263,
    41
  ],
  [
    264,
    56
  ],
  [
    265,
    64
  ],
  [
    266,
    71
  ],
  [
    267,
    73
  ],
  [
    268,
    87
  ],
  [
    269,
    94
  ],
  [
    270,
    81
  ],
  [
    271,
    104
  ],
  [
    272,
    122
  ],
  [
    273,
    91
  ],
  [
    274,
    112
  ],
  [
    275,
    150
  ],
  [
    276,
    123
  ],
  [
    277,
    143
  ],
  [
    278,
    157
  ],
  [
    279,
    171
  ],
  [
    280,
    180
  ],
  [
    281,
    191
  ],
  [
    282,
    183
  ],
  [
    283,
    222
  ],
  [
    284,
    231
  ],
  [
    285,
    284
  ],
  [
    286,
    263
  ],
  [
    287,
    299
  ],
  [
    288,
    287
  ],
  [
    289,
    346
  ],
  [
    290,
    374
  ],
  [
    291,
    360
  ],
  [
    292,
    389
  ],
  [
    293,
    423
  ],
  [
    294,
    432
  ],
  [
    295,
    422
  ],
  [
    296,
    420
  ],
  [
    297,
    416
  ],
  [
    298,
    424
  ],
  [
    299,
    405
  ],
  [
    300,
    431
  ],
  [
    301,
    372
  ],
  [
    302,
    341
  ],
  [
    303,
    344
  ],
  [
    304,
    297
  ],
  [
    305,
    279
  ],
  [
    306,
    252
  ],
  [
    307,
    241
  ],
  [
    308,
    217
  ],
  [
    309,
    182
  ],
  [
    310,
    145
  ],
  [
    311,
    129
  ],
  [
    312,
    106
  ],
  [
    313,
    91
  ],
  [
    314,
    80
  ],
  [
    315,
    81
  ],
  [
    316,
    56
  ],
  [
    317,
    38
  ],
  [
    318,
    27
  ],
  [
    319,
    33
  ],
  [
    320,
    24
  ],
  [
    321,
    21
  ],
  [
    322,
    22
  ],
  [
    323,
    13
  ],
  [
    324,
    12
  ],
  [
    325,
    10
  ],
  [
    326,
    12
  ],
  [
    327,
    5
  ],
  [
    328,
    5
  ],
  [
    329,
    4
  ],
  [
    330,
    1
  ],
  [
    331,
    1
  ],
  [
    332,
    6
  ],
  [
    333,
    2
  ],
  [
    334,
    6
  ],
  [
    335,
    3
  ],
  [
    336,
    1
  ],
  [
    337,
    3
  ],
  [
    338,
    1
  ],
  [
    339,
    2
  ],
  [
    340,
    0
  ],
  [
    341,
    0
  ],
  [
    342,
    0
  ],
  [
    343,
    1
  ],
  [
    344,
    0
  ],
  [
    345,
    1
  ],
  [
    346,
    1
  ],
  [
    347,
    0
  ],
  [
    348,
    1
  ],
  [
    349,
    1
  ],
  [
    350,
    0
  ],
  [
    351,
    0
  ],
  [
    352,
    2
  ],
  [
    353,
    1
  ],
  [
    354,
    1
  ],
  [
    355,
    0
  ],
  [
    356,
    0
  ],
  [
    357,
    0
  ],
  [
    358,
    0
  ],
  [
    359,
    0
  ]
]