[
  [
    0,
    932
  ],
  [
    1,
    949
  ],
  [
    2,
    984
  ],
  [
    3,
    974
  ],
  [
    4,
    948
  ],
  [
    5,
    928
  ],
  [
    6,
    910
  ],
  [
    7,
    841
  ],
  [
    8,
    836
  ],
  [
    9,
    797
  ],
  [
    10,
    811
  ],
  [
    11,
    761
  ],
  [
    12,
    821
  ],
  [
    13,
    784
  ],
  [
    14,
    749
  ],
  [
    15,
    734
  ],
  [
    16,
    722
  ],
  [
    17,
    672
  ],
  [
    18,
    660
  ],
  [
    19,
    651
  ],
  [
    20,
    629
  ],
  [
    21,
    582
  ],
  [
    22,
    554
  ],
  [
    23,
    546
  ],
  [
    24,
    533
  ],
  [
    25,
    522
  ],
  [
    26,
    482
  ],
  [
    27,
    526
  ],
  [
    28,
    463
  ],
  [
    29,
    452
  ],
  [
    30,
    469
  ],
  [
    31,
    480
  ],
  [
    32,
    399
  ],
  [
    33,
    360
  ],
  [
    34,
    350
  ],
  [
    35,
    354
  ],
  [
    36,
    327
  ],
  [
    37,
    321
  ],
  [
    38,
    367
  ],
  [
    39,
    328
  ],
  [
    40,
    296
  ],
  [
    41,
    350
  ],
  [
    42,
    314
  ],
  [
    43,
    284
  ],
  [
    44,
    310
  ],
  [
    45,
    295
  ],
  [
    46,
    294
  ],
  [
    47,
    268
  ],
  [
    48,
    264
  ],
  [
    49,
    273
  ],
  [
    50,
    256
  ],
  [
    51,
    270
  ],
  [
    52,
    234
  ],
  [
    53,
    271
  ],
  [
    54,
    248
  ],
  [
    55,
    219
  ],
  [
    56,
    260
  ],
  [
    57,
    283
  ],
  [
    58,
    282
  ],
  [
    59,
    281
  ],
  [
    60,
    248
  ],
  [
    61,
    221
  ],
  [
    62,
    226
  ],
  [
    63,
    202
  ],
  [
    64,
    224
  ],
  [
    65,
    225
  ],
  [
    66,
    199
  ],
  [
    67,
    193
  ],
  [
    68,
    186
  ],
  [
    69,
    160
  ],
  [
    70,
    183
  ],
  [
    71,
    186
  ],
  [
    72,
    143
  ],
  [
    73,
    155
  ],
  [
    74,
    162
  ],
  [
    75,
    138
  ],
  [
    76,
    156
  ],
  [
    77,
    137
  ],
  [
    78,
    162
  ],
  [
    79,
    144
  ],
  [
    80,
    125
  ],
  [
    81,
    135
  ],
  [
    82,
    112
  ],
  [
    83,
    128
  ],
  [
    84,
    116
  ],
  [
    85,
    126
  ],
  [
    86,
    105
  ],
  [
    87,
    114
  ],
  [
    88,
    80
  ],
  [
    89,
    91
  ],
  [
    90,
    73
  ],
  [
    91,
    78
  ],
  [
    92,
    73
  ],
  [
    93,
    74
  ],
  [
    94,
    69
  ],
  [
    95,
    70
  ],
  [
    96,
    73
  ],
  [
    97,
    83
  ],
  [
    98,
    69
  ],
  [
    99,
    70
  ],
  [
    100,
    74
  ],
  [
    101,
    55
  ],
  [
    102,
    67
  ],
  [
    103,
    53
  ],
  [
    104,
    70
  ],
  [
    105,
    65
  ],
  [
    106,
    40
  ],
  [
    107,
    63
  ],
  [
    108,
    59
  ],
  [
    109,
    58
  ],
  [
    110,
    53
  ],
  [
    111,
    63
  ],
  [
    112,
    66
  ],
  [
    113,
    51
  ],
  [
    114,
    60
  ],
  [
    115,
    60
  ],
  [
    116,
    65
  ],
  [
    117,
    71
  ],
  [
    118,
    58
  ],
  [
    119,
    72
  ],
  [
    120,
    62
  ],
  [
    121,
    72
  ],
  [
    122,
    57
  ],
  [
    123,
    58
  ],
  [
    124,
    55
  ],
  [
    125,
    54
  ],
  [
    126,
    48
  ],
  [
    127,
    62
  ],
  [
    128,
    74
  ],
  [
    129,
    73
  ],
  [
    130,
    65
  ],
  [
    131,
    66
  ],
  [
    132,
    53
  ],
  [
    133,
    74
  ],
  [
    134,
    56
  ],
  [
    135,
    78
  ],
  [
    136,
    67
  ],
  [
    137,
    66
  ],
  [
    138,
    48
  ],
  [
    139,
    67
  ],
  [
    140,
    60
  ],
  [
    141,
    61
  ],
  [
    142,
    70
  ],
  [
    143,
    72
  ],
  [
    144,
    61
  ],
  [
    145,
    82
  ],
  [
    146,
    76
  ],
  [
    147,
    66
  ],
  [
    148,
    76
  ],
  [
    149,
    85
  ],
  [
    150,
    76
  ],
  [
    151,
    82
  ],
  [
    152,
    105
  ],
  [
    153,
    85
  ],
  [
    154,
    93
  ],
  [
    155,
    117
  ],
  [
    156,
    98
  ],
  [
    157,
    100
  ],
  [
    158,
    106
  ],
  [
    159,
    106
  ],
  [
    160,
    102
  ],
  [
    161,
    113
  ],
  [
    162,
    109
  ],
  [
    163,
    116
  ],
  [
    164,
    121
  ],
  [
    165,
    141
  ],
  [
    166,
    136
  ],
  [
    167,
    132
  ],
  [
    168,
    141
  ],
  [
    169,
    160
  ],
  [
    170,
    158
  ],
  [
    171,
    155
  ],
  [
    172,
    179
  ],
  [
    173,
    146
  ],
  [
    174,
    172
  ],
  [
    175,
    173
  ],
  [
    176,
    170
  ],
  [
    177,
    182
  ],
  [
    178,
    153
  ],
  [
    179,
    172
  ],
  [
    180,
    182
  ],
  [
    181,
    170
  ],
  [
    182,
    161
  ],
  [
    183,
    156
  ],
  [
    184,
    162
  ],
  [
    185,
    148
  ],
  [
    186,
    174
  ],
  [
    187,
    140
  ],
  [
    188,
    144
  ],
  [
    189,
    146
  ],
  [
    190,
    148
  ],
  [
    191,
    127
  ],
  [
    192,
    131
  ],
  [
    193,
    131
  ],
  [
    194,
    105
  ],
  [
    195,
    117
  ],
  [
    196,
    96
  ],
  [
    197,
    104
  ],
  [
    198,
    112
  ],
  [
    199,
    111
  ],
  [
    200,
    101
  ],
  [
    201,
    110
  ],
  [
    202,
    93
  ],
  [
    203,
    92
  ],
  [
    204,
    76
  ],
  [
    205,
    99
  ],
  [
    206,
    87
  ],
  [
    207,
    74
  ],
  [
    208,
    79
  ],
  [
    209,
    88
  ],
  [
    210,
    79
  ],
  [
    211,
    68
  ],
  [
    212,
    67
  ],
  [
    213,
    78
  ],
  [
    214,
    63
  ],
  [
    215,
    55
  ],
  [
    216,
    58
  ],
  [
    217,
    66
  ],
  [
    218,
    65
  ],
  [
    219,
    59
  ],
  [
    220,
    55
  ],
  [
    221,
    51
  ],
  [
    222,
    66
  ],
  [
    223,
    55
  ],
  [
    224,
    57
  ],
  [
    225,
    58
  ],
  [
    226,
    50
  ],
  [
    227,
    52
  ],
  [
    228,
    60
  ],
  [
    229,
    47
  ],
  [
    230,
    39
  ],
  [
    231,
    57
  ],
  [
    232,
    39
  ],
  [
    233,
    41
  ],
  [
    234,
    51
  ],
  [
    235,
    45
  ],
  [
    236,
    56
  ],
  [
    237,
    54
  ],
  [
    238,
    53
  ],
  [
    239,
    57
  ],
  [
    240,
    41
  ],
  [
    241,
    35
  ],
  [
    242,
    56
  ],
  [
    243,
    51
  ],
  [
    244,
    41
  ],
  [
    245,
    50
  ],
  [
    246,
    47
  ],
  [
    247,
    56
  ],
  [
    248,
    54
  ],
  [
    249,
    59
  ],
  [
    250,
    64
  ],
  [
    251,
    48
  ],
  [
    252,
    64
  ],
  [
    253,
    53
  ],
  [
    254,
    54
  ],
  [
    255,
    61
  ],
  [
    256,
    73
  ],
  [
    257,
    75
  ],
  [
    258,
    56
  ],
  [
    259,
    72
  ],
  [
    260,
    68
  ],
  [
    261,
    56
  ],
  [
    262,
    63
  ],
  [
    263,
    72
  ],
  [
    264,
    74
  ],
  [
    265,
    82
  ],
  [
    266,
    72
  ],
  [
    267,
    67
  ],
  [
    268,
    105
  ],
  [
    269,
    83
  ],
  [
    270,
    86
  ],
  [
    271,
    105
  ],
  [
    272,
    119
  ],
  [
    273,
    111
  ],
  [
    274,
    128
  ],
  [
    275,
    144
  ],
  [
    276,
    156
  ],
  [
    277,
    153
  ],
  [
    278,
    157
  ],
  [
    279,
    155
  ],
  [
    280,
    161
  ],
  [
    281,
    157
  ],
  [
    282,
    169
  ],
  [
    283,
    177
  ],
  [
    284,
    194
  ],
  [
    285,
    177
  ],
  [
    286,
    198
  ],
  [
    287,
    181
  ],
  [
    288,
    191
  ],
  [
    289,
    215
  ],
  [
    290,
    195
  ],
  [
    291,
    222
  ],
  [
    292,
    219
  ],
  [
    293,
    257
  ],
  [
    294,
    258
  ],
  [
    295,
    239
  ],
  [
    296,
    261
  ],
  [
    297,
    293
  ],
  [
    298,
    324
  ],
  [
    299,
    331
  ],
  [
    300,
    345
  ],
  [
    301,
    345
  ],
  [
    302,
    356
  ],
  [
    303,
    431
  ],
  [
    304,
    344
  ],
  [
    305,
    379
  ],
  [
    306,
    396
  ],
  [
    307,
    382
  ],
  [
    308,
    395
  ],
  [
    309,
    401
  ],
  [
    310,
    384
  ],
  [
    311,
    407
  ],
  [
    312,
    417
  ],
  [
    313,
    409
  ],
  [
    314,
    419
  ],
  [
    315,
    431
  ],
  [
    316,
    397
  ],
  [
    317,
    450
  ],
  [
    318,
    434
  ],
  [
    319,
    440
  ],
  [
    320,
    477
  ],
  [
    321,
    489
  ],
  [
    322,
    504
  ],
  [
    323,
    491
  ],
  [
    324,
    457
  ],
  [
    325,
    535
  ],
  [
    326,
    505
  ],
  [
    327,
    562
  ],
  [
    328,
    548
  ],
  [
    329,
    602
  ],
  [
    330,
    594
  ],
  [
    331,
    583
  ],
  [
    332,
    596
  ],
  [
    333,
    632
  ],
  [
    334,
    633
  ],
  [
    335,
    661
  ],
  [
    336,
    717
  ],
  [
    337,
    752
  ],
  [
    338,
    764
  ],
  [
    339,
    816
  ],
  [
    340,
    751
  ],
  [
    341,
    761
  ],
  [
    342,
    765
  ],
  [
    343,
    839
  ],
  [
    344,
    817
  ],
  [
    345,
    857
  ],
  [
    346,
    915
  ],
  [
    347,
    906
  ],
  [
    348,
    909
  ],
  [
    349,
    944
  ],
  [
    350,
    926
  ],
  [
    351,
    891
  ],
  [
    352,
    949
  ],
  [
    353,
    966
  ],
  [
    354,
    971
  ],
  [
    355,
    1024
  ],
  [
    356,
    929
  ],
  [
    357,
    1020
  ],
  [
    358,
    1014
  ],
  [
    359,
    987
  ]
]