[
  [
    0,
    3
  ],
  [
    1,
    3
  ],
  [
    2,
    7
  ],
  [
    3,
    3
  ],
  [
    4,
    8
  ],
  [
    5,
    4
  ],
  [
    6,
    8
  ],
  [
    7,
    8
  ],
  [
    8,
    10
  ],
  [
    9,
    14
  ],
  [
    10,
    2
  ],
  [
    11,
    5
  ],
  [
    12,
    3
  ],
  [
    13,
    7
  ],
  [
    14,
    7
  ],
  [
    15,
    9
  ],
  [
    16,
    6
  ],
  [
    17,
    6
  ],
  [
    18,
    9
  ],
  [
    19,
    8
  ],
  [
    20,
    3
  ],
  [
    21,
    5
  ],
  [
    22,
    8
  ],
  [
    23,
    7
  ],
  [
    24,
    8
  ],
  [
    25,
    10
  ],
  [
    26,
    6
  ],
  [
    27,
    12
  ],
  [
    28,
    6
  ],
  [
    29,
    7
  ],
  [
    30,
    14
  ],
  [
    31,
    11
  ],
  [
    32,
    13
  ],
  [
    33,
    13
  ],
  [
    34,
    11
  ],
  [
    35,
    13
  ],
  [
    36,
    10
  ],
  [
    37,
    17
  ],
  [
    38,
    13
  ],
  [
    39,
    16
  ],
  [
    40,
    15
  ],
  [
    41,
    16
  ],
  [
    42,
    25
  ],
  [
    43,
    20
  ],
  [
    44,
    26
  ],
  [
    45,
    30
  ],
  [
    46,
    31
  ],
  [
    47,
    42
  ],
  [
    48,
    37
  ],
  [
    49,
    42
  ],
  [
    50,
    47
  ],
  [
    51,
    58
  ],
  [
    52,
    69
  ],
  [
    53,
    65
  ],
  [
    54,
    84
  ],
  [
    55,
    96
  ],
  [
    56,
    102
  ],
  [
    57,
    106
  ],
  [
    58,
    136
  ],
  [
    59,
    140
  ],
  [
    60,
    129
  ],
  [
    61,
    174
  ],
  [
    62,
    170
  ],
  [
    63,
    154
  ],
  [
    64,
    187
  ],
  [
    65,
    209
  ],
  [
    66,
    202
  ],
  [
    67,
    222
  ],
  [
    68,
    236
  ],
  [
    69,
    247
  ],
  [
    70,
    279
  ],
  [
    71,
    255
  ],
  [
    72,
    280
  ],
  [
    73,
    268
  ],
  [
    74,
    336
  ],
  [
    75,
    345
  ],
  [
    76,
    302
  ],
  [
    77,
    359
  ],
  [
    78,
    349
  ],
  [
    79,
    334
  ],
  [
    80,
    319
  ],
  [
    81,
    331
  ],
  [
    82,
    291
  ],
  [
    83,
    307
  ],
  [
    84,
    286
  ],
  [
    85,
    248
  ],
  [
    86,
    292
  ],
  [
    87,
    262
  ],
  [
    88,
    250
  ],
  [
    89,
    236
  ],
  [
    90,
    210
  ],
  [
    91,
    212
  ],
  [
    92,
    202
  ],
  [
    93,
    192
  ],
  [
    94,
    160
  ],
  [
    95,
    156
  ],
  [
    96,
    146
  ],
  [
    97,
    147
  ],
  [
    98,
    134
  ],
  [
    99,
    164
  ],
  [
    100,
    123
  ],
  [
    101,
    109
  ],
  [
    102,
    115
  ],
  [
    103,
    116
  ],
  [
    104,
    96
  ],
  [
    105,
    93
  ],
  [
    106,
    97
  ],
  [
    107,
    77
  ],
  [
    108,
    84
  ],
  [
    109,
    83
  ],
  [
    110,
    88
  ],
  [
    111,
    72
  ],
  [
    112,
    67
  ],
  [
    113,
    49
  ],
  [
    114,
    63
  ],
  [
    115,
    69
  ],
  [
    116,
    58
  ],
  [
    117,
    48
  ],
  [
    118,
    55
  ],
  [
    119,
    54
  ],
  [
    120,
    38
  ],
  [
    121,
    62
  ],
  [
    122,
    40
  ],
  [
    123,
    55
  ],
  [
    124,
    41
  ],
  [
    125,
    37
  ],
  [
    126,
    33
  ],
  [
    127,
    39
  ],
  [
    128,
    32
  ],
  [
    129,
    34
  ],
  [
    130,
    32
  ],
  [
    131,
    33
  ],
  [
    132,
    38
  ],
  [
    133,
    36
  ],
  [
    134,
    40
  ],
  [
    135,
    33
  ],
  [
    136,
    34
  ],
  [
    137,
    41
  ],
  [
    138,
    39
  ],
  [
    139,
    48
  ],
  [
    140,
    40
  ],
  [
    141,
    32
  ],
  [
    142,
    43
  ],
  [
    143,
    42
  ],
  [
    144,
    38
  ],
  [
    145,
    41
  ],
  [
    146,
    41
  ],
  [
    147,
    33
  ],
  [
    148,
    44
  ],
  [
    149,
    34
  ],
  [
    150,
    46
  ],
  [
    151,
    47
  ],
  [
    152,
    48
  ],
  [
    153,
    49
  ],
  [
    154,
    67
  ],
  [
    155,
    56
  ],
  [
    156,
    64
  ],
  [
    157,
    53
  ],
  [
    158,
    65
  ],
  [
    159,
    62
  ],
  [
    160,
    59
  ],
  [
    161,
    59
  ],
  [
    162,
    70
  ],
  [
    163,
    64
  ],
  [
    164,
    80
  ],
  [
    165,
    66
  ],
  [
    166,
    80
  ],
  [
    167,
    77
  ],
  [
    168,
    68
  ],
  [
    169,
    87
  ],
  [
    170,
    82
  ],
  [
    171,
    79
  ],
  [
    172,
    88
  ],
  [
    173,
    86
  ],
  [
    174,
    78
  ],
  [
    175,
    80
  ],
  [
    176,
    84
  ],
  [
    177,
    85
  ],
  [
    178,
    68
  ],
  [
    179,
    54
  ],
  [
    180,
    59
  ],
  [
    181,
    56
  ],
  [
    182,
    60
  ],
  [
    183,
    68
  ],
  [
    184,
    59
  ],
  [
    185,
    61
  ],
  [
    186,
    64
  ],
  [
    187,
    67
  ],
  [
    188,
    65
  ],
  [
    189,
    71
  ],
  [
    190,
    50
  ],
  [
    191,
    69
  ],
  [
    192,
    62
  ],
  [
    193,
    62
  ],
  [
    194,
    50
  ],
  [
    195,
    53
  ],
  [
    196,
    45
  ],
  [
    197,
    49
  ],
  [
    198,
    45
  ],
  [
    199,
    43
  ],
  [
    200,
    48
  ],
  [
    201,
    44
  ],
  [
    202,
    43
  ],
  [
    203,
    39
  ],
  [
    204,
    57
  ],
  [
    205,
    45
  ],
  [
    206,
    26
  ],
  [
    207,
    43
  ],
  [
    208,
    30
  ],
  [
    209,
    30
  ],
  [
    210,
    42
  ],
  [
    211,
    27
  ],
  [
    212,
    28
  ],
  [
    213,
    44
  ],
  [
    214,
    26
  ],
  [
    215,
    21
  ],
  [
    216,
    32
  ],
  [
    217,
    25
  ],
  [
    218,
    29
  ],
  [
    219,
    36
  ],
  [
    220,
    29
  ],
  [
    221,
    27
  ],
  [
    222,
    20
  ],
  [
    223,
    20
  ],
  [
    224,
    21
  ],
  [
    225,
    18
  ],
  [
    226,
    27
  ],
  [
    227,
    36
  ],
  [
    228,
    31
  ],
  [
    229,
    24
  ],
  [
    230,
    26
  ],
  [
    231,
    32
  ],
  [
    232,
    40
  ],
  [
    233,
    34
  ],
  [
    234,
    37
  ],
  [
    235,
    32
  ],
  [
    236,
    42
  ],
  [
    237,
    41
  ],
  [
    238,
    45
  ],
  [
    239,
    41
  ],
  [
    240,
    62
  ],
  [
    241,
    57
  ],
  [
    242,
    55
  ],
  [
    243,
    57
  ],
  [
    244,
    67
  ],
  [
    245,
    60
  ],
  [
    246,
    61
  ],
  [
    247,
    80
  ],
  [
    248,
    85
  ],
  [
    249,
    104
  ],
  [
    250,
    72
  ],
  [
    251,
    89
  ],
  [
    252,
    96
  ],
  [
    253,
    136
  ],
  [
    254,
    116
  ],
  [
    255,
    122
  ],
  [
    256,
    157
  ],
  [
    257,
    148
  ],
  [
    258,
    167
  ],
  [
    259,
    159
  ],
  [
    260,
    174
  ],
  [
    261,
    178
  ],
  [
    262,
    218
  ],
  [
    263,
    201
  ],
  [
    264,
    188
  ],
  [
    265,
    199
  ],
  [
    266,
    257
  ],
  [
    267,
    260
  ],
  [
    268,
    252
  ],
  [
    269,
    293
  ],
  [
    270,
    282
  ],
  [
    271,
    326
  ],
  [
    272,
    326
  ],
  [
    273,
    298
  ],
  [
    274,
    349
  ],
  [
    275,
    397
  ],
  [
    276,
    380
  ],
  [
    277,
    401
  ],
  [
    278,
    365
  ],
  [
    279,
    369
  ],
  [
    280,
    397
  ],
  [
    281,
    383
  ],
  [
    282,
    465
  ],
  [
    283,
    411
  ],
  [
    284,
    409
  ],
  [
    285,
    398
  ],
  [
    286,
    397
  ],
  [
    287,
    410
  ],
  [
    288,
    399
  ],
  [
    289,
    387
  ],
  [
    290,
    401
  ],
  [
    291,
    333
  ],
  [
    292,
    343
  ],
  [
    293,
    306
  ],
  [
    294,
    295
  ],
  [
    295,
    327
  ],
  [
    296,
    288
  ],
  [
    297,
    270
  ],
  [
    298,
    245
  ],
  [
    299,
    227
  ],
  [
    300,
    212
  ],
  [
    301,
    190
  ],
  [
    302,
    186
  ],
  [
    303,
    169
  ],
  [
    304,
    172
  ],
  [
    305,
    150
  ],
  [
    306,
    126
  ],
  [
    307,
    121
  ],
  [
    308,
    101
  ],
  [
    309,
    101
  ],
  [
    310,
    80
  ],
  [
    311,
    71
  ],
  [
    312,
    61
  ],
  [
    313,
    60
  ],
  [
    314,
    41
  ],
  [
    315,
    44
  ],
  [
    316,
    41
  ],
  [
    317,
    31
  ],
  [
    318,
    32
  ],
  [
    319,
    38
  ],
  [
    320,
    37
  ],
  [
    321,
    29
  ],
  [
    322,
    33
  ],
  [
    323,
    27
  ],
  [
    324,
    25
  ],
  [
    325,
    16
  ],
  [
    326,
    25
  ],
  [
    327,
    16
  ],
  [
    328,
    14
  ],
  [
    329,
    20
  ],
  [
    330,
    25
  ],
  [
    331,
    20
  ],
  [
    332,
    15
  ],
  [
    333,
    15
  ],
  [
    334,
    15
  ],
  [
    335,
    15
  ],
  [
    336,
    14
  ],
  [
    337,
    12
  ],
  [
    338,
    13
  ],
  [
    339,
    9
  ],
  [
    340,
    14
  ],
  [
    341,
    10
  ],
  [
    342,
    10
  ],
  [
    343,
    15
  ],
  [
    344,
    8
  ],
  [
    345,
    12
  ],
  [
    346,
    17
  ],
  [
    347,
    14
  ],
  [
    348,
    10
  ],
  [
    349,
    7
  ],
  [
    350,
    16
  ],
  [
    351,
    11
  ],
  [
    352,
    13
  ],
  [
    353,
    10
  ],
  [
    354,
    6
  ],
  [
    355,
    6
  ],
  [
    356,
    4
  ],
  [
    357,
    7
  ],
  [
    358,
    4
  ],
  [
    359,
    7
  ]
]