[
  [
    0,
    1
  ],
  [
    1,
    0
  ],
  [
    2,
    0
  ],
  [
    3,
    0
  ],
  [
    4,
    1
  ],
  [
    5,
    0
  ],
  [
    6,
    0
  ],
  [
    7,
    2
  ],
  [
    8,
    0
  ],
  [
    9,
    0
  ],
  [
    10,
    1
  ],
  [
    11,
    1
  ],
  [
    12,
    3
  ],
  [
    13,
    0
  ],
  [
    14,
    2
  ],
  [
    15,
    0
  ],
  [
    16,
    2
  ],
  [
    17,
    0
  ],
  [
    18,
    1
  ],
  [
    19,
    0
  ],
  [
    20,
    2
  ],
  [
    21,
    1
  ],
  [
    22,
    0
  ],
  [
    23,
    0
  ],
  [
    24,
    1
  ],
  [
    25,
    2
  ],
  [
    26,
    1
  ],
  [
    27,
    1
  ],
  [
    28,
    1
  ],
  [
    29,
    0
  ],
  [
    30,
    1
  ],
  [
    31,
    1
  ],
  [
    32,
    1
  ],
  [
    33,
    1
  ],
  [
    34,
    1
  ],
  [
    35,
    3
  ],
  [
    36,
    3
  ],
  [
    37,
    1
  ],
  [
    38,
    0
  ],
  [
    39,
    1
  ],
  [
    40,
    4
  ],
  [
    41,
    3
  ],
  [
    42,
    3
  ],
  [
    43,
    4
  ],
  [
    44,
    5
  ],
  [
    45,
    7
  ],
  [
    46,
    11
  ],
  [
    47,
    10
  ],
  [
    48,
    15
  ],
  [
    49,
    8
  ],
  [
    50,
    21
  ],
  [
    51,
    20
  ],
  [
    52,
    28
  ],
  [
    53,
    31
  ],
  [
    54,
    44
  ],
  [
    55,
    57
  ],
  [
    56,
    83
  ],
  [
    57,
    92
  ],
  [
    58,
    86
  ],
  [
    59,
    143
  ],
  [
    60,
    122
  ],
  [
    61,
    156
  ],
  [
    62,
    172
  ],
  [
    63,
    183
  ],
  [
    64,
    163
  ],
  [
    65,
    156
  ],
  [
    66,
    166
  ],
  [
    67,
    144
  ],
  [
    68,
    127
  ],
  [
    69,
    135
  ],
  [
    70,
    108
  ],
  [
    71,
    104
  ],
  [
    72,
    86
  ],
  [
    73,
    93
  ],
  [
    74,
    61
  ],
  [
    75,
    58
  ],
  [
    76,
    53
  ],
  [
    77,
    50
  ],
  [
    78,
    61
  ],
  [
    79,
    57
  ],
  [
    80,
    46
  ],
  [
    81,
    45
  ],
  [
    82,
    51
  ],
  [
    83,
    35
  ],
  [
    84,
    43
  ],
  [
    85,
    38
  ],
  [
    86,
    43
  ],
  [
    87,
    55
  ],
  [
    88,
    45
  ],
  [
    89,
    49
  ],
  [
    90,
    50
  ],
  [
    91,
    53
  ],
  [
    92,
    54
  ],
  [
    93,
    49
  ],
  [
    94,
    42
  ],
  [
    95,
    47
  ],
  [
    96,
    47
  ],
  [
    97,
    29
  ],
  [
    98,
    27
  ],
  [
    99,
    31
  ],
  [
    100,
    33
  ],
  [
    101,
    30
  ],
  [
    102,
    27
  ],
  [
    103,
    20
  ],
  [
    104,
    23
  ],
  [
    105,
    17
  ],
  [
    106,
    16
  ],
  [
    107,
    14
  ],
  [
    108,
    16
  ],
  [
    109,
    20
  ],
  [
    110,
    12
  ],
  [
    111,
    6
  ],
  [
    112,
    8
  ],
  [
    113,
    12
  ],
  [
    114,
    13
  ],
  [
    115,
    7
  ],
  [
    116,
    10
  ],
  [
    117,
    9
  ],
  [
    118,
    8
  ],
  [
    119,
    5
  ],
  [
    120,
    3
  ],
  [
    121,
    7
  ],
  [
    122,
    7
  ],
  [
    123,
    10
  ],
  [
    124,
    12
  ],
  [
    125,
    6
  ],
  [
    126,
    9
  ],
  [
    127,
    15
  ],
  [
    128,
    8
  ],
  [
    129,
    17
  ],
  [
    130,
    14
  ],
  [
    131,
    11
  ],
  [
    132,
    8
  ],
  [
    133,
    22
  ],
  [
    134,
    22
  ],
  [
    135,
    12
  ],
  [
    136,
    16
  ],
  [
    137,
    28
  ],
  [
    138,
    20
  ],
  [
    139,
    30
  ],
  [
    140,
    22
  ],
  [
    141,
    33
  ],
  [
    142,
    46
  ],
  [
    143,
    45
  ],
  [
    144,
    48
  ],
  [
    145,
    46
  ],
  [
    146,
    52
  ],
  [
    147,
    68
  ],
  [
    148,
    82
  ],
  [
    149,
    115
  ],
  [
    150,
    128
  ],
  [
    151,
    129
  ],
  [
    152,
    189
  ],
  [
    153,
    237
  ],
  [
    154,
    294
  ],
  [
    155,
    441
  ],
  [
    156,
    527
  ],
  [
    157,
    651
  ],
  [
    158,
    868
  ],
  [
    159,
    1143
  ],
  [
    160,
    1475
  ],
  [
    161,
    1844
  ],
  [
    162,
    2300
  ],
  [
    163,
    2698
  ],
  [
    164,
    3013
  ],
  [
    165,
    3339
  ],
  [
    166,
    3597
  ],
  [
    167,
    3657
  ],
  [
    168,
    3798
  ],
  [
    169,
    3853
  ],
  [
    170,
    3663
  ],
  [
    171,
    3702
  ],
  [
    172,
    3337
  ],
  [
    173,
    3057
  ],
  [
    174,
    2757
  ],
  [
    175,
    2498
  ],
  [
    176,
    2207
  ],
  [
    177,
    1797
  ],
  [
    178,
    1463
  ],
  [
    179,
    1261
  ],
  [
    180,
    966
  ],
  [
    181,
    764
  ],
  [
    182,
    597
  ],
  [
    183,
    462
  ],
  [
    184,
    353
  ],
  [
    185,
    284
  ],
  [
    186,
    240
  ],
  [
    187,
    182
  ],
  [
    188,
    147
  ],
  [
    189,
    100
  ],
  [
    190,
    67
  ],
  [
    191,
    59
  ],
  [
    192,
    45
  ],
  [
    193,
    38
  ],
  [
    194,
    35
  ],
  [
    195,
    31
  ],
  [
    196,
    22
  ],
  [
    197,
    20
  ],
  [
    198,
    12
  ],
  [
    199,
    12
  ],
  [
    200,
    5
  ],
  [
    201,
    9
  ],
  [
    202,
    6
  ],
  [
    203,
    6
  ],
  [
    204,
    6
  ],
  [
    205,
    7
  ],
  [
    206,
    7
  ],
  [
    207,
    1
  ],
  [
    208,
    7
  ],
  [
    209,
    2
  ],
  [
    210,
    2
  ],
  [
    211,
    6
  ],
  [
    212,
    3
  ],
  [
    213,
    3
  ],
  [
    214,
    4
  ],
  [
    215,
    0
  ],
  [
    216,
    2
  ],
  [
    217,
    2
  ],
  [
    218,
    4
  ],
  [
    219,
    0
  ],
  [
    220,
    0
  ],
  [
    221,
    1
  ],
  [
    222,
    0
  ],
  [
    223,
    0
  ],
  [
    224,
    1
  ],
  [
    225,
    1
  ],
  [
    226,
    1
  ],
  [
    227,
    1
  ],
  [
    228,
    0
  ],
  [
    229,
    0
  ],
  [
    230,
    0
  ],
  [
    231,
    0
  ],
  [
    232,
    1
  ],
  [
    233,
    2
  ],
  [
    234,
    1
  ],
  [
    235,
    1
  ],
  [
    236,
    0
  ],
  [
    237,
    0
  ],
  [
    238,
    1
  ],
  [
    239,
    1
  ],
  [
    240,
    2
  ],
  [
    241,
    0
  ],
  [
    242,
    2
  ],
  [
    243,
    1
  ],
  [
    244,
    1
  ],
  [
    245,
    2
  ],
  [
    246,
    1
  ],
  [
    247,
    1
  ],
  [
    248,
    2
  ],
  [
    249,
    1
  ],
  [
    250,
    0
  ],
  [
    251,
    1
  ],
  [
    252,
    2
  ],
  [
    253,
    4
  ],
  [
    254,
    0
  ],
  [
    255,
    5
  ],
  [
    256,
    1
  ],
  [
    257,
    1
  ],
  [
    258,
    2
  ],
  [
    259,
    3
  ],
  [
    260,
    5
  ],
  [
    261,
    4
  ],
  [
    262,
    7
  ],
  [
    263,
    4
  ],
  [
    264,
    9
  ],
  [
    265,
    6
  ],
  [
    266,
    11
  ],
  [
    267,
    6
  ],
  [
    268,
    10
  ],
  [
    269,
    1
  ],
  [
    270,
    10
  ],
  [
    271,
    13
  ],
  [
    272,
    17
  ],
  [
    273,
    11
  ],
  [
    274,
    20
  ],
  [
    275,
    26
  ],
  [
    276,
    20
  ],
  [
    277,
    26
  ],
  [
    278,
    36
  ],
  [
    279,
    48
  ],
  [
    280,
    47
  ],
  [
    281,
    57
  ],
  [
    282,
    76
  ],
  [
    283,
    114
  ],
  [
    284,
    127
  ],
  [
    285,
    160
  ],
  [
    286,
    178
  ],
  [
    287,
    198
  ],
  [
    288,
    246
  ],
  [
    289,
    284
  ],
  [
    290,
    332
  ],
  [
    291,
    370
  ],
  [
    292,
    436
  ],
  [
    293,
    499
  ],
  [
    294,
    540
  ],
  [
    295,
    633
  ],
  [
    296,
    726
  ],
  [
    297,
    712
  ],
  [
    298,
    771
  ],
  [
    299,
    848
  ],
  [
    300,
    822
  ],
  [
    301,
    762
  ],
  [
    302,
    740
  ],
  [
    303,
    690
  ],
  [
    304,
    627
  ],
  [
    305,
    491
  ],
  [
    306,
    415
  ],
  [
    307,
    349
  ],
  [
    308,
    282
  ],
  [
    309,
    192
  ],
  [
    310,
    158
  ],
  [
    311,
    125
  ],
  [
    312,
    94
  ],
  [
    313,
    83
  ],
  [
    314,
    69
  ],
  [
    315,
    22
  ],
  [
    316,
    31
  ],
  [
    317,
    20
  ],
  [
    318,
    25
  ],
  [
    319,
    21
  ],
  [
    320,
    18
  ],
  [
    321,
    9
  ],
  [
    322,
    13
  ],
  [
    323,
    9
  ],
  [
    324,
    11
  ],
  [
    325,
    7
  ],
  [
    326,
    5
  ],
  [
    327,
    7
  ],
  [
    328,
    6
  ],
  [
    329,
    4
  ],
  [
    330,
    4
  ],
  [
    331,
    3
  ],
  [
    332,
    8
  ],
  [
    333,
    2
  ],
  [
    334,
    6
  ],
  [
    335,
    2
  ],
  [
    336,
    2
  ],
  [
    337,
    1
  ],
  [
    338,
    3
  ],
  [
    339,
    4
  ],
  [
    340,
    1
  ],
  [
    341,
    2
  ],
  [
    342,
    1
  ],
  [
    343,
    1
  ],
  [
    344,
    1
  ],
  [
    345,
    0
  ],
  [
    346,
    2
  ],
  [
    347,
    2
  ],
  [
    348,
    0
  ],
  [
    349,
    1
  ],
  [
    350,
    1
  ],
  [
    351,
    1
  ],
  [
    352,
    0
  ],
  [
    353,
    3
  ],
  [
    354,
    0
  ],
  [
    355,
    1
  ],
  [
    356,
    1
  ],
  [
    357,
    0
  ],
  [
    358,
    0
  ],
  [
    359,
    0
  ]
]