[
  [
    300.0,
    280.0,
    326
  ],
  [
    290.0,
    160.0,
    13902
  ],
  [
    280.0,
    170.0,
    2154
  ],
  [
    290.0,
    280.0,
    734
  ],
  [
    200.0,
    170.0,
    198
  ],
  [
    60.0,
    180.0,
    523
  ],
  [
    290.0,
    290.0,
    2388
  ],
  [
    170.0,
    170.0,
    124
  ],
  [
    310.0,
    290.0,
    577
  ],
  [
    50.0,
    180.0,
    210
  ],
  [
    190.0,
    170.0,
    635
  ],
  [
    300.0,
    180.0,
    1447
  ],
  [
    290.0,
    180.0,
    1167
  ],
  [
    60.0,
    170.0,
    2894
  ],
  [
    300.0,
    140.0,
    137
  ],
  [
    50.0,
    170.0,
    1443
  ],
  [
    300.0,
    300.0,
    3096
  ],
  [
    300.0,
    290.0,
    2456
  ],
  [
    300.0,
    160.0,
    4497
  ],
  [
    310.0,
    300.0,
    671
  ],
  [
    300.0,
    90.0,
    178
  ],
  [
    310.0,
    160.0,
    300
  ],
  [
    310.0,
    170.0,
    583
  ],
  [
    290.0,
    300.0,
    1475
  ],
  [
    290.0,
    150.0,
    1852
  ],
  [
    50.0,
    150.0,
    249
  ],
  [
    290.0,
    170.0,
    10017
  ],
  [
    280.0,
    160.0,
    4270
  ],
  [
    270.0,
    170.0,
    54
  ],
  [
    300.0,
    150.0,
    781
  ],
  [
    300.0,
    190.0,
    114
  ],
  [
    120.0,
    110.0,
    1
  ],
  [
    50.0,
    120.0,
    9
  ],
  [
    200.0,
    160.0,
    228
  ],
  [
    190.0,
    60.0,
    572
  ],
  [
    290.0,
    130.0,
    33
  ],
  [
    190.0,
    270.0,
    3
  ],
  [
    190.0,
    160.0,
    1045
  ],
  [
    280.0,
    280.0,
    297
  ],
  [
    60.0,
    100.0,
    35
  ],
  [
    300.0,
    170.0,
    6347
  ],
  [
    180.0,
    160.0,
    1212
  ],
  [
    50.0,
    160.0,
    1267
  ],
  [
    60.0,
    160.0,
    2017
  ],
  [
    170.0,
    160.0,
    248
  ],
  [
    200.0,
    70.0,
    112
  ],
  [
    180.0,
    60.0,
    431
  ],
  [
    40.0,
    160.0,
    126
  ],
  [
    60.0,
    290.0,
    4
  ],
  [
    180.0,
    50.0,
    205
  ],
  [
    280.0,
    150.0,
    603
  ],
  [
    280.0,
    290.0,
    371
  ],
  [
    200.0,
    140.0,
    11
  ],
  [
    190.0,
    70.0,
    190
  ],
  [
    180.0,
    70.0,
    107
  ],
  [
    190.0,
    50.0,
    209
  ],
  [
    270.0,
    40.0,
    22
  ],
  [
    290.0,
    60.0,
    21
  ],
  [
    190.0,
    150.0,
    235
  ],
  [
    70.0,
    160.0,
    321
  ],
  [
    170.0,
    60.0,
    79
  ],
  [
    50.0,
    60.0,
    43
  ],
  [
    70.0,
    170.0,
    509
  ],
  [
    260.0,
    50.0,
    14
  ],
  [
    60.0,
    90.0,
    59
  ],
  [
    300.0,
    310.0,
    362
  ],
  [
    160.0,
    60.0,
    10
  ],
  [
    280.0,
    80.0,
    12
  ],
  [
    300.0,
    320.0,
    31
  ],
  [
    290.0,
    80.0,
    64
  ],
  [
    310.0,
    90.0,
    48
  ],
  [
    290.0,
    270.0,
    95
  ],
  [
    290.0,
    190.0,
    103
  ],
  [
    180.0,
    180.0,
    37
  ],
  [
    60.0,
    80.0,
    85
  ],
  [
    280.0,
    180.0,
    207
  ],
  [
    290.0,
    90.0,
    57
  ],
  [
    300.0,
    120.0,
    35
  ],
  [
    290.0,
    140.0,
    146
  ],
  [
    70.0,
    180.0,
    141
  ],
  [
    280.0,
    190.0,
    22
  ],
  [
    180.0,
    150.0,
    244
  ],
  [
    310.0,
    190.0,
    17
  ],
  [
    290.0,
    50.0,
    10
  ],
  [
    310.0,
    180.0,
    193
  ],
  [
    210.0,
    60.0,
    24
  ],
  [
    290.0,
    120.0,
    19
  ],
  [
    300.0,
    80.0,
    95
  ],
  [
    290.0,
    310.0,
    234
  ],
  [
    160.0,
    160.0,
    15
  ],
  [
    180.0,
    40.0,
    6
  ],
  [
    50.0,
    80.0,
    44
  ],
  [
    180.0,
    90.0,
    15
  ],
  [
    60.0,
    150.0,
    360
  ],
  [
    200.0,
    180.0,
    27
  ],
  [
    40.0,
    180.0,
    22
  ],
  [
    80.0,
    300.0,
    2
  ],
  [
    310.0,
    110.0,
    9
  ],
  [
    310.0,
    100.0,
    13
  ],
  [
    280.0,
    350.0,
    5
  ],
  [
    50.0,
    140.0,
    26
  ],
  [
    200.0,
    80.0,
    21
  ],
  [
    180.0,
    170.0,
    555
  ],
  [
    290.0,
    70.0,
    62
  ],
  [
    190.0,
    280.0,
    1
  ],
  [
    290.0,
    260.0,
    14
  ],
  [
    320.0,
    290.0,
    38
  ],
  [
    270.0,
    140.0,
    9
  ],
  [
    70.0,
    110.0,
    7
  ],
  [
    190.0,
    110.0,
    4
  ],
  [
    280.0,
    60.0,
    44
  ],
  [
    170.0,
    80.0,
    8
  ],
  [
    300.0,
    100.0,
    92
  ],
  [
    70.0,
    150.0,
    69
  ],
  [
    200.0,
    60.0,
    205
  ],
  [
    50.0,
    90.0,
    22
  ],
  [
    210.0,
    170.0,
    25
  ],
  [
    280.0,
    70.0,
    36
  ],
  [
    280.0,
    300.0,
    88
  ],
  [
    50.0,
    70.0,
    60
  ],
  [
    280.0,
    270.0,
    43
  ],
  [
    290.0,
    200.0,
    13
  ],
  [
    310.0,
    280.0,
    80
  ],
  [
    320.0,
    230.0,
    1
  ],
  [
    290.0,
    110.0,
    12
  ],
  [
    290.0,
    320.0,
    47
  ],
  [
    190.0,
    40.0,
    12
  ],
  [
    280.0,
    140.0,
    49
  ],
  [
    200.0,
    50.0,
    44
  ],
  [
    310.0,
    150.0,
    58
  ],
  [
    110.0,
    80.0,
    1
  ],
  [
    170.0,
    50.0,
    27
  ],
  [
    310.0,
    210.0,
    5
  ],
  [
    210.0,
    50.0,
    3
  ],
  [
    60.0,
    140.0,
    56
  ],
  [
    40.0,
    170.0,
    112
  ],
  [
    300.0,
    200.0,
    17
  ],
  [
    70.0,
    80.0,
    10
  ],
  [
    40.0,
    140.0,
    5
  ],
  [
    200.0,
    150.0,
    43
  ],
  [
    180.0,
    130.0,
    11
  ],
  [
    320.0,
    170.0,
    39
  ],
  [
    210.0,
    80.0,
    3
  ],
  [
    190.0,
    140.0,
    34
  ],
  [
    40.0,
    80.0,
    9
  ],
  [
    300.0,
    270.0,
    46
  ],
  [
    300.0,
    130.0,
    54
  ],
  [
    300.0,
    330.0,
    5
  ],
  [
    290.0,
    330.0,
    15
  ],
  [
    60.0,
    190.0,
    22
  ],
  [
    40.0,
    150.0,
    23
  ],
  [
    70.0,
    140.0,
    17
  ],
  [
    180.0,
    30.0,
    1
  ],
  [
    70.0,
    190.0,
    11
  ],
  [
    310.0,
    310.0,
    29
  ],
  [
    320.0,
    250.0,
    1
  ],
  [
    300.0,
    70.0,
    24
  ],
  [
    280.0,
    40.0,
    11
  ],
  [
    50.0,
    280.0,
    4
  ],
  [
    180.0,
    270.0,
    1
  ],
  [
    280.0,
    50.0,
    24
  ],
  [
    270.0,
    250.0,
    2
  ],
  [
    50.0,
    190.0,
    21
  ],
  [
    60.0,
    130.0,
    22
  ],
  [
    50.0,
    260.0,
    4
  ],
  [
    30.0,
    170.0,
    11
  ],
  [
    180.0,
    140.0,
    36
  ],
  [
    40.0,
    100.0,
    5
  ],
  [
    50.0,
    100.0,
    7
  ],
  [
    80.0,
    180.0,
    3
  ],
  [
    270.0,
    150.0,
    19
  ],
  [
    80.0,
    160.0,
    5
  ],
  [
    280.0,
    110.0,
    3
  ],
  [
    190.0,
    80.0,
    34
  ],
  [
    40.0,
    60.0,
    25
  ],
  [
    80.0,
    190.0,
    3
  ],
  [
    320.0,
    280.0,
    10
  ],
  [
    80.0,
    170.0,
    14
  ],
  [
    170.0,
    230.0,
    1
  ],
  [
    310.0,
    270.0,
    16
  ],
  [
    320.0,
    190.0,
    4
  ],
  [
    180.0,
    200.0,
    2
  ],
  [
    130.0,
    160.0,
    2
  ],
  [
    320.0,
    300.0,
    20
  ],
  [
    300.0,
    250.0,
    5
  ],
  [
    70.0,
    130.0,
    5
  ],
  [
    280.0,
    130.0,
    11
  ],
  [
    270.0,
    180.0,
    18
  ],
  [
    320.0,
    120.0,
    1
  ],
  [
    320.0,
    310.0,
    3
  ],
  [
    50.0,
    50.0,
    12
  ],
  [
    310.0,
    80.0,
    20
  ],
  [
    80.0,
    290.0,
    3
  ],
  [
    270.0,
    160.0,
    61
  ],
  [
    300.0,
    60.0,
    4
  ],
  [
    40.0,
    70.0,
    29
  ],
  [
    300.0,
    240.0,
    4
  ],
  [
    160.0,
    180.0,
    7
  ],
  [
    210.0,
    160.0,
    16
  ],
  [
    320.0,
    110.0,
    2
  ],
  [
    260.0,
    170.0,
    4
  ],
  [
    70.0,
    290.0,
    8
  ],
  [
    60.0,
    280.0,
    5
  ],
  [
    60.0,
    270.0,
    6
  ],
  [
    170.0,
    180.0,
    21
  ],
  [
    300.0,
    110.0,
    28
  ],
  [
    210.0,
    70.0,
    25
  ],
  [
    220.0,
    60.0,
    1
  ],
  [
    280.0,
    100.0,
    7
  ],
  [
    280.0,
    90.0,
    8
  ],
  [
    70.0,
    300.0,
    7
  ],
  [
    160.0,
    170.0,
    10
  ],
  [
    310.0,
    130.0,
    6
  ],
  [
    190.0,
    130.0,
    11
  ],
  [
    70.0,
    90.0,
    15
  ],
  [
    320.0,
    130.0,
    1
  ],
  [
    280.0,
    330.0,
    12
  ],
  [
    270.0,
    190.0,
    6
  ],
  [
    260.0,
    150.0,
    5
  ],
  [
    280.0,
    310.0,
    18
  ],
  [
    190.0,
    180.0,
    40
  ],
  [
    350.0,
    270.0,
    1
  ],
  [
    270.0,
    100.0,
    4
  ],
  [
    180.0,
    80.0,
    23
  ],
  [
    270.0,
    50.0,
    39
  ],
  [
    190.0,
    250.0,
    2
  ],
  [
    190.0,
    100.0,
    7
  ],
  [
    320.0,
    200.0,
    1
  ],
  [
    170.0,
    150.0,
    38
  ],
  [
    70.0,
    70.0,
    3
  ],
  [
    320.0,
    160.0,
    12
  ],
  [
    30.0,
    80.0,
    4
  ],
  [
    130.0,
    140.0,
    2
  ],
  [
    170.0,
    190.0,
    1
  ],
  [
    290.0,
    30.0,
    1
  ],
  [
    50.0,
    130.0,
    9
  ],
  [
    200.0,
    190.0,
    3
  ],
  [
    270.0,
    60.0,
    37
  ],
  [
    200.0,
    240.0,
    1
  ],
  [
    260.0,
    290.0,
    1
  ],
  [
    40.0,
    210.0,
    2
  ],
  [
    310.0,
    260.0,
    9
  ],
  [
    270.0,
    280.0,
    12
  ],
  [
    30.0,
    160.0,
    6
  ],
  [
    310.0,
    320.0,
    1
  ],
  [
    180.0,
    190.0,
    3
  ],
  [
    60.0,
    30.0,
    1
  ],
  [
    280.0,
    20.0,
    2
  ],
  [
    150.0,
    180.0,
    3
  ],
  [
    160.0,
    50.0,
    4
  ],
  [
    170.0,
    70.0,
    23
  ],
  [
    260.0,
    140.0,
    2
  ],
  [
    280.0,
    340.0,
    3
  ],
  [
    60.0,
    70.0,
    30
  ],
  [
    270.0,
    260.0,
    2
  ],
  [
    170.0,
    140.0,
    8
  ],
  [
    280.0,
    10.0,
    6
  ],
  [
    40.0,
    190.0,
    4
  ],
  [
    250.0,
    180.0,
    1
  ],
  [
    80.0,
    110.0,
    3
  ],
  [
    70.0,
    280.0,
    6
  ],
  [
    100.0,
    160.0,
    4
  ],
  [
    330.0,
    160.0,
    4
  ],
  [
    120.0,
    120.0,
    1
  ],
  [
    290.0,
    210.0,
    6
  ],
  [
    290.0,
    250.0,
    4
  ],
  [
    160.0,
    80.0,
    3
  ],
  [
    170.0,
    90.0,
    4
  ],
  [
    300.0,
    260.0,
    21
  ],
  [
    290.0,
    340.0,
    3
  ],
  [
    210.0,
    180.0,
    5
  ],
  [
    240.0,
    320.0,
    1
  ],
  [
    320.0,
    180.0,
    12
  ],
  [
    290.0,
    100.0,
    20
  ],
  [
    330.0,
    170.0,
    5
  ],
  [
    90.0,
    160.0,
    3
  ],
  [
    260.0,
    70.0,
    3
  ],
  [
    320.0,
    100.0,
    1
  ],
  [
    10.0,
    70.0,
    2
  ],
  [
    200.0,
    90.0,
    6
  ],
  [
    270.0,
    290.0,
    16
  ],
  [
    240.0,
    50.0,
    2
  ],
  [
    320.0,
    270.0,
    2
  ],
  [
    320.0,
    260.0,
    2
  ],
  [
    260.0,
    130.0,
    1
  ],
  [
    40.0,
    50.0,
    7
  ],
  [
    290.0,
    220.0,
    3
  ],
  [
    30.0,
    60.0,
    3
  ],
  [
    230.0,
    170.0,
    1
  ],
  [
    80.0,
    130.0,
    2
  ],
  [
    160.0,
    150.0,
    4
  ],
  [
    320.0,
    150.0,
    7
  ],
  [
    100.0,
    100.0,
    4
  ],
  [
    200.0,
    280.0,
    4
  ],
  [
    150.0,
    170.0,
    1
  ],
  [
    30.0,
    140.0,
    2
  ],
  [
    260.0,
    40.0,
    8
  ],
  [
    230.0,
    70.0,
    3
  ],
  [
    90.0,
    170.0,
    2
  ],
  [
    70.0,
    200.0,
    2
  ],
  [
    200.0,
    270.0,
    2
  ],
  [
    170.0,
    40.0,
    3
  ],
  [
    200.0,
    130.0,
    7
  ],
  [
    280.0,
    260.0,
    4
  ],
  [
    220.0,
    310.0,
    1
  ],
  [
    190.0,
    90.0,
    10
  ],
  [
    0.0,
    150.0,
    1
  ],
  [
    290.0,
    230.0,
    1
  ],
  [
    40.0,
    260.0,
    1
  ],
  [
    160.0,
    70.0,
    4
  ],
  [
    260.0,
    60.0,
    10
  ],
  [
    40.0,
    270.0,
    2
  ],
  [
    310.0,
    140.0,
    9
  ],
  [
    60.0,
    60.0,
    7
  ],
  [
    270.0,
    110.0,
    2
  ],
  [
    140.0,
    140.0,
    1
  ],
  [
    220.0,
    160.0,
    2
  ],
  [
    90.0,
    80.0,
    3
  ],
  [
    80.0,
    150.0,
    4
  ],
  [
    220.0,
    70.0,
    2
  ],
  [
    180.0,
    120.0,
    4
  ],
  [
    60.0,
    120.0,
    7
  ],
  [
    310.0,
    70.0,
    2
  ],
  [
    10.0,
    160.0,
    1
  ],
  [
    350.0,
    80.0,
    1
  ],
  [
    170.0,
    270.0,
    2
  ],
  [
    270.0,
    30.0,
    3
  ],
  [
    300.0,
    210.0,
    6
  ],
  [
    40.0,
    120.0,
    2
  ],
  [
    80.0,
    270.0,
    1
  ],
  [
    60.0,
    300.0,
    2
  ],
  [
    280.0,
    120.0,
    3
  ],
  [
    60.0,
    110.0,
    11
  ],
  [
    330.0,
    290.0,
    2
  ],
  [
    70.0,
    100.0,
    6
  ],
  [
    80.0,
    100.0,
    1
  ],
  [
    230.0,
    50.0,
    1
  ],
  [
    170.0,
    330.0,
    1
  ],
  [
    260.0,
    10.0,
    1
  ],
  [
    70.0,
    120.0,
    3
  ],
  [
    280.0,
    320.0,
    8
  ],
  [
    340.0,
    100.0,
    1
  ],
  [
    90.0,
    190.0,
    1
  ],
  [
    160.0,
    140.0,
    1
  ],
  [
    80.0,
    330.0,
    1
  ],
  [
    70.0,
    270.0,
    2
  ],
  [
    270.0,
    70.0,
    7
  ],
  [
    210.0,
    250.0,
    1
  ],
  [
    250.0,
    60.0,
    5
  ],
  [
    60.0,
    200.0,
    5
  ],
  [
    180.0,
    100.0,
    6
  ],
  [
    210.0,
    130.0,
    2
  ],
  [
    250.0,
    100.0,
    1
  ],
  [
    100.0,
    170.0,
    2
  ],
  [
    50.0,
    20.0,
    1
  ],
  [
    90.0,
    180.0,
    1
  ],
  [
    330.0,
    140.0,
    1
  ],
  [
    50.0,
    200.0,
    3
  ],
  [
    280.0,
    240.0,
    2
  ],
  [
    20.0,
    60.0,
    2
  ],
  [
    120.0,
    160.0,
    2
  ],
  [
    290.0,
    240.0,
    2
  ],
  [
    20.0,
    100.0,
    1
  ],
  [
    130.0,
    150.0,
    1
  ],
  [
    340.0,
    170.0,
    1
  ],
  [
    230.0,
    180.0,
    1
  ],
  [
    30.0,
    180.0,
    3
  ],
  [
    220.0,
    180.0,
    1
  ],
  [
    260.0,
    300.0,
    1
  ],
  [
    10.0,
    120.0,
    1
  ],
  [
    190.0,
    120.0,
    3
  ],
  [
    200.0,
    100.0,
    1
  ],
  [
    260.0,
    80.0,
    2
  ],
  [
    180.0,
    280.0,
    3
  ],
  [
    190.0,
    210.0,
    1
  ],
  [
    150.0,
    70.0,
    1
  ],
  [
    100.0,
    80.0,
    2
  ],
  [
    220.0,
    150.0,
    2
  ],
  [
    140.0,
    190.0,
    1
  ],
  [
    300.0,
    230.0,
    1
  ],
  [
    60.0,
    20.0,
    1
  ],
  [
    170.0,
    20.0,
    1
  ],
  [
    270.0,
    210.0,
    1
  ],
  [
    210.0,
    150.0,
    5
  ],
  [
    330.0,
    210.0,
    1
  ],
  [
    120.0,
    240.0,
    1
  ],
  [
    110.0,
    200.0,
    1
  ],
  [
    80.0,
    120.0,
    1
  ],
  [
    250.0,
    190.0,
    1
  ],
  [
    110.0,
    110.0,
    2
  ],
  [
    270.0,
    130.0,
    2
  ],
  [
    280.0,
    30.0,
    4
  ],
  [
    190.0,
    260.0,
    5
  ],
  [
    220.0,
    110.0,
    1
  ],
  [
    190.0,
    200.0,
    1
  ],
  [
    150.0,
    160.0,
    2
  ],
  [
    220.0,
    50.0,
    1
  ],
  [
    40.0,
    290.0,
    1
  ],
  [
    170.0,
    280.0,
    1
  ],
  [
    270.0,
    120.0,
    1
  ],
  [
    90.0,
    310.0,
    1
  ],
  [
    320.0,
    140.0,
    2
  ],
  [
    330.0,
    250.0,
    1
  ],
  [
    50.0,
    270.0,
    3
  ],
  [
    270.0,
    300.0,
    4
  ],
  [
    190.0,
    190.0,
    1
  ],
  [
    230.0,
    150.0,
    1
  ],
  [
    200.0,
    40.0,
    2
  ],
  [
    220.0,
    80.0,
    2
  ],
  [
    220.0,
    300.0,
    1
  ],
  [
    240.0,
    40.0,
    1
  ],
  [
    280.0,
    250.0,
    1
  ],
  [
    150.0,
    220.0,
    1
  ],
  [
    320.0,
    90.0,
    1
  ],
  [
    80.0,
    280.0,
    1
  ],
  [
    270.0,
    270.0,
    1
  ],
  [
    20.0,
    70.0,
    3
  ],
  [
    270.0,
    320.0,
    1
  ],
  [
    30.0,
    150.0,
    1
  ],
  [
    330.0,
    280.0,
    2
  ],
  [
    50.0,
    210.0,
    1
  ],
  [
    280.0,
    230.0,
    1
  ],
  [
    230.0,
    110.0,
    1
  ],
  [
    60.0,
    250.0,
    1
  ],
  [
    80.0,
    80.0,
    1
  ],
  [
    90.0,
    100.0,
    3
  ],
  [
    270.0,
    80.0,
    1
  ],
  [
    170.0,
    200.0,
    1
  ],
  [
    20.0,
    180.0,
    1
  ],
  [
    280.0,
    200.0,
    5
  ],
  [
    120.0,
    180.0,
    1
  ],
  [
    140.0,
    170.0,
    1
  ],
  [
    30.0,
    50.0,
    2
  ],
  [
    240.0,
    80.0,
    1
  ],
  [
    280.0,
    210.0,
    2
  ],
  [
    80.0,
    90.0,
    1
  ],
  [
    340.0,
    160.0,
    2
  ],
  [
    90.0,
    140.0,
    1
  ],
  [
    310.0,
    120.0,
    1
  ],
  [
    300.0,
    340.0,
    2
  ],
  [
    20.0,
    290.0,
    1
  ],
  [
    330.0,
    270.0,
    1
  ],
  [
    20.0,
    130.0,
    1
  ],
  [
    270.0,
    200.0,
    1
  ],
  [
    310.0,
    330.0,
    1
  ],
  [
    250.0,
    140.0,
    1
  ],
  [
    40.0,
    200.0,
    1
  ],
  [
    160.0,
    200.0,
    2
  ],
  [
    340.0,
    130.0,
    1
  ],
  [
    260.0,
    210.0,
    1
  ],
  [
    310.0,
    200.0,
    1
  ],
  [
    260.0,
    20.0,
    1
  ],
  [
    30.0,
    70.0,
    1
  ],
  [
    290.0,
    20.0,
    1
  ],
  [
    220.0,
    340.0,
    1
  ],
  [
    230.0,
    300.0,
    1
  ],
  [
    260.0,
    340.0,
    1
  ],
  [
    110.0,
    250.0,
    1
  ],
  [
    240.0,
    190.0,
    1
  ],
  [
    220.0,
    30.0,
    1
  ],
  [
    300.0,
    50.0,
    1
  ],
  [
    110.0,
    90.0,
    1
  ],
  [
    220.0,
    40.0,
    1
  ],
  [
    40.0,
    130.0,
    3
  ],
  [
    100.0,
    110.0,
    1
  ],
  [
    290.0,
    0.0,
    1
  ],
  [
    50.0,
    30.0,
    1
  ],
  [
    290.0,
    40.0,
    2
  ],
  [
    250.0,
    120.0,
    1
  ],
  [
    330.0,
    300.0,
    1
  ],
  [
    60.0,
    230.0,
    1
  ],
  [
    340.0,
    180.0,
    1
  ],
  [
    260.0,
    160.0,
    1
  ],
  [
    60.0,
    240.0,
    1
  ],
  [
    70.0,
    260.0,
    1
  ],
  [
    270.0,
    90.0,
    2
  ],
  [
    30.0,
    90.0,
    1
  ],
  [
    220.0,
    190.0,
    1
  ],
  [
    20.0,
    160.0,
    1
  ],
  [
    290.0,
    350.0,
    2
  ],
  [
    240.0,
    150.0,
    1
  ],
  [
    210.0,
    300.0,
    1
  ],
  [
    130.0,
    0.0,
    1
  ],
  [
    220.0,
    10.0,
    1
  ],
  [
    250.0,
    20.0,
    2
  ],
  [
    340.0,
    60.0,
    1
  ],
  [
    230.0,
    160.0,
    1
  ],
  [
    330.0,
    180.0,
    1
  ],
  [
    260.0,
    110.0,
    1
  ],
  [
    0.0,
    70.0,
    1
  ],
  [
    250.0,
    170.0,
    1
  ],
  [
    250.0,
    160.0,
    1
  ],
  [
    20.0,
    80.0,
    1
  ],
  [
    190.0,
    0.0,
    1
  ],
  [
    50.0,
    290.0,
    1
  ],
  [
    200.0,
    10.0,
    1
  ],
  [
    270.0,
    10.0,
    1
  ],
  [
    320.0,
    220.0,
    1
  ],
  [
    220.0,
    0.0,
    1
  ],
  [
    120.0,
    90.0,
    1
  ],
  [
    230.0,
    140.0,
    1
  ],
  [
    260.0,
    100.0,
    1
  ],
  [
    250.0,
    30.0,
    1
  ],
  [
    210.0,
    120.0,
    1
  ],
  [
    310.0,
    240.0,
    2
  ],
  [
    30.0,
    280.0,
    1
  ],
  [
    180.0,
    110.0,
    1
  ],
  [
    60.0,
    340.0,
    1
  ],
  [
    0.0,
    180.0,
    1
  ],
  [
    140.0,
    70.0,
    1
  ],
  [
    330.0,
    190.0,
    1
  ],
  [
    50.0,
    40.0,
    1
  ],
  [
    90.0,
    120.0,
    1
  ],
  [
    250.0,
    40.0,
    1
  ],
  [
    50.0,
    230.0,
    1
  ],
  [
    90.0,
    130.0,
    1
  ],
  [
    30.0,
    110.0,
    1
  ],
  [
    90.0,
    150.0,
    1
  ]
]