[
  [
    0,
    1
  ],
  [
    1,
    1
  ],
  [
    2,
    1
  ],
  [
    3,
    1
  ],
  [
    4,
    0
  ],
  [
    5,
    1
  ],
  [
    6,
    0
  ],
  [
    7,
    0
  ],
  [
    8,
    0
  ],
  [
    9,
    0
  ],
  [
    10,
    2
  ],
  [
    11,
    1
  ],
  [
    12,
    0
  ],
  [
    13,
    0
  ],
  [
    14,
    0
  ],
  [
    15,
    0
  ],
  [
    16,
    1
  ],
  [
    17,
    0
  ],
  [
    18,
    2
  ],
  [
    19,
    0
  ],
  [
    20,
    1
  ],
  [
    21,
    3
  ],
  [
    22,
    1
  ],
  [
    23,
    1
  ],
  [
    24,
    3
  ],
  [
    25,
    2
  ],
  [
    26,
    3
  ],
  [
    27,
    0
  ],
  [
    28,
    3
  ],
  [
    29,
    1
  ],
  [
    30,
    2
  ],
  [
    31,
    0
  ],
  [
    32,
    2
  ],
  [
    33,
    3
  ],
  [
    34,
    1
  ],
  [
    35,
    3
  ],
  [
    36,
    6
  ],
  [
    37,
    2
  ],
  [
    38,
    4
  ],
  [
    39,
    7
  ],
  [
    40,
    3
  ],
  [
    41,
    4
  ],
  [
    42,
    7
  ],
  [
    43,
    18
  ],
  [
    44,
    14
  ],
  [
    45,
    7
  ],
  [
    46,
    14
  ],
  [
    47,
    11
  ],
  [
    48,
    17
  ],
  [
    49,
    21
  ],
  [
    50,
    15
  ],
  [
    51,
    24
  ],
  [
    52,
    23
  ],
  [
    53,
    26
  ],
  [
    54,
    39
  ],
  [
    55,
    41
  ],
  [
    56,
    39
  ],
  [
    57,
    47
  ],
  [
    58,
    78
  ],
  [
    59,
    63
  ],
  [
    60,
    71
  ],
  [
    61,
    68
  ],
  [
    62,
    77
  ],
  [
    63,
    55
  ],
  [
    64,
    56
  ],
  [
    65,
    74
  ],
  [
    66,
    45
  ],
  [
    67,
    52
  ],
  [
    68,
    62
  ],
  [
    69,
    60
  ],
  [
    70,
    44
  ],
  [
    71,
    45
  ],
  [
    72,
    37
  ],
  [
    73,
    48
  ],
  [
    74,
    44
  ],
  [
    75,
    42
  ],
  [
    76,
    44
  ],
  [
    77,
    32
  ],
  [
    78,
    33
  ],
  [
    79,
    19
  ],
  [
    80,
    28
  ],
  [
    81,
    21
  ],
  [
    82,
    21
  ],
  [
    83,
    12
  ],
  [
    84,
    10
  ],
  [
    85,
    10
  ],
  [
    86,
    13
  ],
  [
    87,
    5
  ],
  [
    88,
    2
  ],
  [
    89,
    4
  ],
  [
    90,
    2
  ],
  [
    91,
    3
  ],
  [
    92,
    3
  ],
  [
    93,
    1
  ],
  [
    94,
    2
  ],
  [
    95,
    1
  ],
  [
    96,
    4
  ],
  [
    97,
    1
  ],
  [
    98,
    0
  ],
  [
    99,
    2
  ],
  [
    100,
    0
  ],
  [
    101,
    0
  ],
  [
    102,
    1
  ],
  [
    103,
    0
  ],
  [
    104,
    0
  ],
  [
    105,
    0
  ],
  [
    106,
    0
  ],
  [
    107,
    0
  ],
  [
    108,
    1
  ],
  [
    109,
    1
  ],
  [
    110,
    0
  ],
  [
    111,
    0
  ],
  [
    112,
    0
  ],
  [
    113,
    0
  ],
  [
    114,
    0
  ],
  [
    115,
    0
  ],
  [
    116,
    1
  ],
  [
    117,
    0
  ],
  [
    118,
    0
  ],
  [
    119,
    0
  ],
  [
    120,
    1
  ],
  [
    121,
    0
  ],
  [
    122,
    0
  ],
  [
    123,
    0
  ],
  [
    124,
    0
  ],
  [
    125,
    0
  ],
  [
    126,
    0
  ],
  [
    127,
    0
  ],
  [
    128,
    0
  ],
  [
    129,
    1
  ],
  [
    130,
    0
  ],
  [
    131,
    0
  ],
  [
    132,
    1
  ],
  [
    133,
    0
  ],
  [
    134,
    0
  ],
  [
    135,
    2
  ],
  [
    136,
    1
  ],
  [
    137,
    0
  ],
  [
    138,
    0
  ],
  [
    139,
    1
  ],
  [
    140,
    1
  ],
  [
    141,
    0
  ],
  [
    142,
    0
  ],
  [
    143,
    0
  ],
  [
    144,
    1
  ],
  [
    145,
    0
  ],
  [
    146,
    1
  ],
  [
    147,
    2
  ],
  [
    148,
    2
  ],
  [
    149,
    3
  ],
  [
    150,
    2
  ],
  [
    151,
    2
  ],
  [
    152,
    3
  ],
  [
    153,
    2
  ],
  [
    154,
    1
  ],
  [
    155,
    9
  ],
  [
    156,
    7
  ],
  [
    157,
    14
  ],
  [
    158,
    13
  ],
  [
    159,
    28
  ],
  [
    160,
    26
  ],
  [
    161,
    55
  ],
  [
    162,
    60
  ],
  [
    163,
    94
  ],
  [
    164,
    140
  ],
  [
    165,
    195
  ],
  [
    166,
    301
  ],
  [
    167,
    366
  ],
  [
    168,
    541
  ],
  [
    169,
    694
  ],
  [
    170,
    891
  ],
  [
    171,
    1131
  ],
  [
    172,
    1389
  ],
  [
    173,
    1512
  ],
  [
    174,
    1847
  ],
  [
    175,
    2069
  ],
  [
    176,
    2325
  ],
  [
    177,
    2399
  ],
  [
    178,
    2505
  ],
  [
    179,
    2361
  ],
  [
    180,
    2295
  ],
  [
    181,
    2238
  ],
  [
    182,
    2072
  ],
  [
    183,
    1888
  ],
  [
    184,
    1692
  ],
  [
    185,
    1510
  ],
  [
    186,
    1376
  ],
  [
    187,
    1190
  ],
  [
    188,
    995
  ],
  [
    189,
    888
  ],
  [
    190,
    775
  ],
  [
    191,
    678
  ],
  [
    192,
    610
  ],
  [
    193,
    499
  ],
  [
    194,
    419
  ],
  [
    195,
    404
  ],
  [
    196,
    313
  ],
  [
    197,
    271
  ],
  [
    198,
    232
  ],
  [
    199,
    207
  ],
  [
    200,
    177
  ],
  [
    201,
    157
  ],
  [
    202,
    153
  ],
  [
    203,
    138
  ],
  [
    204,
    102
  ],
  [
    205,
    94
  ],
  [
    206,
    99
  ],
  [
    207,
    88
  ],
  [
    208,
    70
  ],
  [
    209,
    73
  ],
  [
    210,
    73
  ],
  [
    211,
    57
  ],
  [
    212,
    38
  ],
  [
    213,
    33
  ],
  [
    214,
    44
  ],
  [
    215,
    38
  ],
  [
    216,
    39
  ],
  [
    217,
    30
  ],
  [
    218,
    28
  ],
  [
    219,
    17
  ],
  [
    220,
    28
  ],
  [
    221,
    24
  ],
  [
    222,
    23
  ],
  [
    223,
    19
  ],
  [
    224,
    24
  ],
  [
    225,
    17
  ],
  [
    226,
    23
  ],
  [
    227,
    16
  ],
  [
    228,
    20
  ],
  [
    229,
    10
  ],
  [
    230,
    19
  ],
  [
    231,
    14
  ],
  [
    232,
    18
  ],
  [
    233,
    8
  ],
  [
    234,
    17
  ],
  [
    235,
    13
  ],
  [
    236,
    14
  ],
  [
    237,
    10
  ],
  [
    238,
    10
  ],
  [
    239,
    11
  ],
  [
    240,
    9
  ],
  [
    241,
    15
  ],
  [
    242,
    13
  ],
  [
    243,
    27
  ],
  [
    244,
    13
  ],
  [
    245,
    18
  ],
  [
    246,
    19
  ],
  [
    247,
    21
  ],
  [
    248,
    25
  ],
  [
    249,
    20
  ],
  [
    250,
    42
  ],
  [
    251,
    32
  ],
  [
    252,
    25
  ],
  [
    253,
    31
  ],
  [
    254,
    41
  ],
  [
    255,
    40
  ],
  [
    256,
    36
  ],
  [
    257,
    42
  ],
  [
    258,
    68
  ],
  [
    259,
    65
  ],
  [
    260,
    88
  ],
  [
    261,
    84
  ],
  [
    262,
    101
  ],
  [
    263,
    117
  ],
  [
    264,
    125
  ],
  [
    265,
    167
  ],
  [
    266,
    166
  ],
  [
    267,
    196
  ],
  [
    268,
    231
  ],
  [
    269,
    229
  ],
  [
    270,
    267
  ],
  [
    271,
    293
  ],
  [
    272,
    362
  ],
  [
    273,
    356
  ],
  [
    274,
    378
  ],
  [
    275,
    446
  ],
  [
    276,
    491
  ],
  [
    277,
    519
  ],
  [
    278,
    572
  ],
  [
    279,
    702
  ],
  [
    280,
    758
  ],
  [
    281,
    915
  ],
  [
    282,
    1136
  ],
  [
    283,
    1361
  ],
  [
    284,
    1620
  ],
  [
    285,
    1891
  ],
  [
    286,
    2317
  ],
  [
    287,
    2667
  ],
  [
    288,
    3187
  ],
  [
    289,
    3455
  ],
  [
    290,
    3832
  ],
  [
    291,
    3982
  ],
  [
    292,
    4250
  ],
  [
    293,
    4453
  ],
  [
    294,
    4402
  ],
  [
    295,
    4241
  ],
  [
    296,
    4186
  ],
  [
    297,
    3985
  ],
  [
    298,
    3809
  ],
  [
    299,
    3651
  ],
  [
    300,
    3394
  ],
  [
    301,
    3142
  ],
  [
    302,
    2892
  ],
  [
    303,
    2497
  ],
  [
    304,
    2218
  ],
  [
    305,
    1887
  ],
  [
    306,
    1577
  ],
  [
    307,
    1309
  ],
  [
    308,
    1019
  ],
  [
    309,
    804
  ],
  [
    310,
    645
  ],
  [
    311,
    476
  ],
  [
    312,
    365
  ],
  [
    313,
    216
  ],
  [
    314,
    201
  ],
  [
    315,
    137
  ],
  [
    316,
    103
  ],
  [
    317,
    65
  ],
  [
    318,
    40
  ],
  [
    319,
    49
  ],
  [
    320,
    29
  ],
  [
    321,
    18
  ],
  [
    322,
    14
  ],
  [
    323,
    11
  ],
  [
    324,
    13
  ],
  [
    325,
    9
  ],
  [
    326,
    3
  ],
  [
    327,
    8
  ],
  [
    328,
    5
  ],
  [
    329,
    6
  ],
  [
    330,
    3
  ],
  [
    331,
    4
  ],
  [
    332,
    1
  ],
  [
    333,
    2
  ],
  [
    334,
    2
  ],
  [
    335,
    1
  ],
  [
    336,
    0
  ],
  [
    337,
    0
  ],
  [
    338,
    2
  ],
  [
    339,
    0
  ],
  [
    340,
    0
  ],
  [
    341,
    0
  ],
  [
    342,
    0
  ],
  [
    343,
    0
  ],
  [
    344,
    0
  ],
  [
    345,
    0
  ],
  [
    346,
    0
  ],
  [
    347,
    1
  ],
  [
    348,
    1
  ],
  [
    349,
    0
  ],
  [
    350,
    1
  ],
  [
    351,
    0
  ],
  [
    352,
    0
  ],
  [
    353,
    0
  ],
  [
    354,
    1
  ],
  [
    355,
    0
  ],
  [
    356,
    0
  ],
  [
    357,
    0
  ],
  [
    358,
    0
  ],
  [
    359,
    1
  ]
]