[
  [
    200.0,
    150.0,
    32
  ],
  [
    280.0,
    180.0,
    2429
  ],
  [
    280.0,
    200.0,
    275
  ],
  [
    290.0,
    180.0,
    6089
  ],
  [
    300.0,
    190.0,
    1103
  ],
  [
    300.0,
    170.0,
    1894
  ],
  [
    170.0,
    190.0,
    473
  ],
  [
    180.0,
    180.0,
    3101
  ],
  [
    290.0,
    220.0,
    131
  ],
  [
    170.0,
    280.0,
    203
  ],
  [
    290.0,
    290.0,
    957
  ],
  [
    280.0,
    190.0,
    885
  ],
  [
    290.0,
    60.0,
    677
  ],
  [
    300.0,
    220.0,
    57
  ],
  [
    170.0,
    50.0,
    141
  ],
  [
    280.0,
    140.0,
    123
  ],
  [
    280.0,
    170.0,
    3159
  ],
  [
    290.0,
    200.0,
    524
  ],
  [
    270.0,
    110.0,
    7
  ],
  [
    300.0,
    210.0,
    110
  ],
  [
    300.0,
    160.0,
    508
  ],
  [
    220.0,
    230.0,
    5
  ],
  [
    70.0,
    60.0,
    44
  ],
  [
    170.0,
    180.0,
    1736
  ],
  [
    170.0,
    170.0,
    2668
  ],
  [
    300.0,
    280.0,
    329
  ],
  [
    180.0,
    270.0,
    141
  ],
  [
    180.0,
    190.0,
    876
  ],
  [
    290.0,
    170.0,
    5749
  ],
  [
    290.0,
    280.0,
    792
  ],
  [
    280.0,
    290.0,
    430
  ],
  [
    280.0,
    150.0,
    322
  ],
  [
    70.0,
    180.0,
    355
  ],
  [
    180.0,
    90.0,
    77
  ],
  [
    70.0,
    170.0,
    256
  ],
  [
    300.0,
    180.0,
    2952
  ],
  [
    50.0,
    180.0,
    206
  ],
  [
    240.0,
    300.0,
    3
  ],
  [
    300.0,
    300.0,
    180
  ],
  [
    180.0,
    60.0,
    513
  ],
  [
    160.0,
    190.0,
    75
  ],
  [
    170.0,
    270.0,
    79
  ],
  [
    180.0,
    160.0,
    1061
  ],
  [
    280.0,
    160.0,
    1137
  ],
  [
    270.0,
    180.0,
    288
  ],
  [
    170.0,
    70.0,
    301
  ],
  [
    60.0,
    180.0,
    766
  ],
  [
    160.0,
    40.0,
    9
  ],
  [
    310.0,
    180.0,
    438
  ],
  [
    180.0,
    170.0,
    3243
  ],
  [
    170.0,
    60.0,
    388
  ],
  [
    300.0,
    60.0,
    184
  ],
  [
    170.0,
    150.0,
    324
  ],
  [
    60.0,
    170.0,
    742
  ],
  [
    280.0,
    50.0,
    287
  ],
  [
    50.0,
    190.0,
    60
  ],
  [
    300.0,
    290.0,
    391
  ],
  [
    10.0,
    40.0,
    1
  ],
  [
    300.0,
    140.0,
    63
  ],
  [
    260.0,
    140.0,
    6
  ],
  [
    290.0,
    150.0,
    380
  ],
  [
    310.0,
    320.0,
    5
  ],
  [
    280.0,
    100.0,
    44
  ],
  [
    180.0,
    150.0,
    305
  ],
  [
    280.0,
    70.0,
    326
  ],
  [
    290.0,
    190.0,
    2057
  ],
  [
    290.0,
    50.0,
    304
  ],
  [
    170.0,
    160.0,
    1025
  ],
  [
    290.0,
    160.0,
    1480
  ],
  [
    160.0,
    150.0,
    56
  ],
  [
    190.0,
    170.0,
    713
  ],
  [
    210.0,
    180.0,
    31
  ],
  [
    280.0,
    280.0,
    387
  ],
  [
    190.0,
    180.0,
    890
  ],
  [
    330.0,
    90.0,
    1
  ],
  [
    180.0,
    50.0,
    180
  ],
  [
    300.0,
    150.0,
    168
  ],
  [
    290.0,
    80.0,
    227
  ],
  [
    300.0,
    260.0,
    46
  ],
  [
    60.0,
    280.0,
    95
  ],
  [
    300.0,
    270.0,
    113
  ],
  [
    270.0,
    170.0,
    286
  ],
  [
    280.0,
    300.0,
    142
  ],
  [
    310.0,
    190.0,
    181
  ],
  [
    160.0,
    120.0,
    10
  ],
  [
    180.0,
    290.0,
    417
  ],
  [
    310.0,
    170.0,
    264
  ],
  [
    190.0,
    140.0,
    30
  ],
  [
    300.0,
    200.0,
    285
  ],
  [
    160.0,
    160.0,
    162
  ],
  [
    70.0,
    70.0,
    37
  ],
  [
    180.0,
    280.0,
    299
  ],
  [
    50.0,
    170.0,
    278
  ],
  [
    290.0,
    300.0,
    313
  ],
  [
    200.0,
    180.0,
    139
  ],
  [
    50.0,
    60.0,
    57
  ],
  [
    270.0,
    190.0,
    151
  ],
  [
    90.0,
    230.0,
    1
  ],
  [
    240.0,
    170.0,
    15
  ],
  [
    310.0,
    280.0,
    41
  ],
  [
    30.0,
    80.0,
    2
  ],
  [
    180.0,
    140.0,
    110
  ],
  [
    90.0,
    170.0,
    6
  ],
  [
    150.0,
    190.0,
    6
  ],
  [
    60.0,
    290.0,
    110
  ],
  [
    290.0,
    110.0,
    41
  ],
  [
    260.0,
    170.0,
    67
  ],
  [
    320.0,
    190.0,
    21
  ],
  [
    280.0,
    60.0,
    518
  ],
  [
    280.0,
    0.0,
    10
  ],
  [
    260.0,
    100.0,
    12
  ],
  [
    300.0,
    110.0,
    17
  ],
  [
    270.0,
    210.0,
    41
  ],
  [
    280.0,
    40.0,
    66
  ],
  [
    180.0,
    210.0,
    97
  ],
  [
    150.0,
    170.0,
    29
  ],
  [
    290.0,
    70.0,
    527
  ],
  [
    180.0,
    70.0,
    435
  ],
  [
    190.0,
    60.0,
    113
  ],
  [
    40.0,
    180.0,
    35
  ],
  [
    330.0,
    180.0,
    7
  ],
  [
    300.0,
    100.0,
    29
  ],
  [
    70.0,
    290.0,
    54
  ],
  [
    160.0,
    70.0,
    37
  ],
  [
    190.0,
    280.0,
    118
  ],
  [
    190.0,
    190.0,
    351
  ],
  [
    290.0,
    250.0,
    83
  ],
  [
    190.0,
    220.0,
    27
  ],
  [
    280.0,
    210.0,
    147
  ],
  [
    180.0,
    260.0,
    60
  ],
  [
    170.0,
    140.0,
    95
  ],
  [
    90.0,
    300.0,
    1
  ],
  [
    190.0,
    300.0,
    93
  ],
  [
    190.0,
    70.0,
    120
  ],
  [
    280.0,
    110.0,
    39
  ],
  [
    260.0,
    200.0,
    20
  ],
  [
    220.0,
    170.0,
    15
  ],
  [
    190.0,
    200.0,
    101
  ],
  [
    310.0,
    300.0,
    30
  ],
  [
    170.0,
    310.0,
    22
  ],
  [
    70.0,
    100.0,
    4
  ],
  [
    180.0,
    110.0,
    40
  ],
  [
    280.0,
    260.0,
    98
  ],
  [
    320.0,
    160.0,
    15
  ],
  [
    50.0,
    80.0,
    16
  ],
  [
    290.0,
    130.0,
    76
  ],
  [
    50.0,
    140.0,
    19
  ],
  [
    190.0,
    160.0,
    306
  ],
  [
    170.0,
    80.0,
    120
  ],
  [
    60.0,
    160.0,
    183
  ],
  [
    40.0,
    100.0,
    5
  ],
  [
    160.0,
    170.0,
    308
  ],
  [
    160.0,
    60.0,
    66
  ],
  [
    200.0,
    90.0,
    12
  ],
  [
    50.0,
    160.0,
    124
  ],
  [
    120.0,
    130.0,
    1
  ],
  [
    210.0,
    60.0,
    10
  ],
  [
    250.0,
    220.0,
    10
  ],
  [
    190.0,
    290.0,
    155
  ],
  [
    280.0,
    90.0,
    53
  ],
  [
    210.0,
    110.0,
    7
  ],
  [
    160.0,
    300.0,
    10
  ],
  [
    290.0,
    120.0,
    56
  ],
  [
    260.0,
    160.0,
    36
  ],
  [
    270.0,
    200.0,
    74
  ],
  [
    150.0,
    160.0,
    19
  ],
  [
    170.0,
    200.0,
    147
  ],
  [
    40.0,
    200.0,
    12
  ],
  [
    290.0,
    140.0,
    170
  ],
  [
    70.0,
    190.0,
    149
  ],
  [
    290.0,
    100.0,
    57
  ],
  [
    60.0,
    320.0,
    4
  ],
  [
    310.0,
    270.0,
    28
  ],
  [
    200.0,
    310.0,
    11
  ],
  [
    200.0,
    170.0,
    128
  ],
  [
    60.0,
    190.0,
    209
  ],
  [
    60.0,
    90.0,
    27
  ],
  [
    290.0,
    210.0,
    200
  ],
  [
    80.0,
    190.0,
    27
  ],
  [
    160.0,
    180.0,
    180
  ],
  [
    180.0,
    200.0,
    228
  ],
  [
    290.0,
    90.0,
    97
  ],
  [
    180.0,
    10.0,
    5
  ],
  [
    150.0,
    50.0,
    5
  ],
  [
    260.0,
    80.0,
    10
  ],
  [
    160.0,
    320.0,
    3
  ],
  [
    180.0,
    80.0,
    197
  ],
  [
    60.0,
    120.0,
    5
  ],
  [
    180.0,
    100.0,
    43
  ],
  [
    170.0,
    100.0,
    24
  ],
  [
    280.0,
    270.0,
    183
  ],
  [
    200.0,
    250.0,
    8
  ],
  [
    60.0,
    60.0,
    111
  ],
  [
    290.0,
    270.0,
    319
  ],
  [
    80.0,
    150.0,
    12
  ],
  [
    270.0,
    50.0,
    69
  ],
  [
    290.0,
    40.0,
    65
  ],
  [
    290.0,
    310.0,
    58
  ],
  [
    190.0,
    230.0,
    9
  ],
  [
    70.0,
    280.0,
    31
  ],
  [
    210.0,
    200.0,
    15
  ],
  [
    190.0,
    50.0,
    55
  ],
  [
    50.0,
    150.0,
    27
  ],
  [
    170.0,
    290.0,
    180
  ],
  [
    180.0,
    130.0,
    67
  ],
  [
    260.0,
    180.0,
    60
  ],
  [
    280.0,
    240.0,
    37
  ],
  [
    190.0,
    110.0,
    13
  ],
  [
    60.0,
    150.0,
    61
  ],
  [
    270.0,
    120.0,
    11
  ],
  [
    270.0,
    270.0,
    31
  ],
  [
    320.0,
    210.0,
    13
  ],
  [
    20.0,
    80.0,
    4
  ],
  [
    190.0,
    250.0,
    13
  ],
  [
    200.0,
    130.0,
    11
  ],
  [
    210.0,
    270.0,
    12
  ],
  [
    200.0,
    120.0,
    7
  ],
  [
    300.0,
    250.0,
    35
  ],
  [
    330.0,
    230.0,
    2
  ],
  [
    180.0,
    220.0,
    51
  ],
  [
    230.0,
    100.0,
    1
  ],
  [
    270.0,
    10.0,
    3
  ],
  [
    170.0,
    90.0,
    55
  ],
  [
    200.0,
    190.0,
    76
  ],
  [
    60.0,
    70.0,
    82
  ],
  [
    170.0,
    120.0,
    28
  ],
  [
    40.0,
    190.0,
    17
  ],
  [
    290.0,
    320.0,
    27
  ],
  [
    70.0,
    90.0,
    7
  ],
  [
    40.0,
    160.0,
    12
  ],
  [
    320.0,
    180.0,
    32
  ],
  [
    200.0,
    300.0,
    25
  ],
  [
    170.0,
    210.0,
    57
  ],
  [
    250.0,
    180.0,
    22
  ],
  [
    80.0,
    220.0,
    3
  ],
  [
    280.0,
    220.0,
    67
  ],
  [
    60.0,
    80.0,
    29
  ],
  [
    210.0,
    170.0,
    34
  ],
  [
    290.0,
    260.0,
    132
  ],
  [
    270.0,
    290.0,
    57
  ],
  [
    210.0,
    160.0,
    30
  ],
  [
    70.0,
    80.0,
    21
  ],
  [
    310.0,
    140.0,
    16
  ],
  [
    50.0,
    120.0,
    4
  ],
  [
    310.0,
    260.0,
    11
  ],
  [
    60.0,
    200.0,
    74
  ],
  [
    180.0,
    330.0,
    16
  ],
  [
    80.0,
    170.0,
    46
  ],
  [
    320.0,
    140.0,
    8
  ],
  [
    40.0,
    140.0,
    7
  ],
  [
    190.0,
    130.0,
    20
  ],
  [
    300.0,
    130.0,
    30
  ],
  [
    290.0,
    240.0,
    52
  ],
  [
    60.0,
    330.0,
    2
  ],
  [
    180.0,
    40.0,
    42
  ],
  [
    30.0,
    170.0,
    6
  ],
  [
    280.0,
    310.0,
    44
  ],
  [
    270.0,
    160.0,
    168
  ],
  [
    180.0,
    300.0,
    174
  ],
  [
    260.0,
    70.0,
    23
  ],
  [
    270.0,
    310.0,
    13
  ],
  [
    160.0,
    80.0,
    18
  ],
  [
    250.0,
    140.0,
    9
  ],
  [
    190.0,
    210.0,
    52
  ],
  [
    310.0,
    240.0,
    10
  ],
  [
    50.0,
    290.0,
    34
  ],
  [
    160.0,
    140.0,
    26
  ],
  [
    310.0,
    100.0,
    8
  ],
  [
    320.0,
    290.0,
    6
  ],
  [
    300.0,
    70.0,
    158
  ],
  [
    330.0,
    190.0,
    8
  ],
  [
    160.0,
    130.0,
    17
  ],
  [
    250.0,
    170.0,
    21
  ],
  [
    40.0,
    60.0,
    13
  ],
  [
    170.0,
    230.0,
    17
  ],
  [
    80.0,
    160.0,
    25
  ],
  [
    170.0,
    300.0,
    72
  ],
  [
    220.0,
    140.0,
    9
  ],
  [
    160.0,
    50.0,
    27
  ],
  [
    310.0,
    220.0,
    24
  ],
  [
    220.0,
    20.0,
    2
  ],
  [
    240.0,
    150.0,
    8
  ],
  [
    280.0,
    250.0,
    71
  ],
  [
    70.0,
    150.0,
    26
  ],
  [
    70.0,
    110.0,
    6
  ],
  [
    250.0,
    280.0,
    7
  ],
  [
    100.0,
    270.0,
    1
  ],
  [
    260.0,
    260.0,
    8
  ],
  [
    90.0,
    180.0,
    7
  ],
  [
    140.0,
    140.0,
    1
  ],
  [
    260.0,
    50.0,
    12
  ],
  [
    80.0,
    290.0,
    6
  ],
  [
    180.0,
    230.0,
    28
  ],
  [
    300.0,
    80.0,
    87
  ],
  [
    120.0,
    210.0,
    2
  ],
  [
    310.0,
    290.0,
    53
  ],
  [
    200.0,
    50.0,
    11
  ],
  [
    70.0,
    200.0,
    34
  ],
  [
    70.0,
    300.0,
    28
  ],
  [
    310.0,
    160.0,
    83
  ],
  [
    50.0,
    90.0,
    10
  ],
  [
    350.0,
    190.0,
    1
  ],
  [
    200.0,
    160.0,
    64
  ],
  [
    60.0,
    30.0,
    6
  ],
  [
    180.0,
    240.0,
    30
  ],
  [
    270.0,
    70.0,
    58
  ],
  [
    50.0,
    260.0,
    12
  ],
  [
    320.0,
    230.0,
    5
  ],
  [
    290.0,
    230.0,
    55
  ],
  [
    50.0,
    280.0,
    28
  ],
  [
    280.0,
    30.0,
    33
  ],
  [
    300.0,
    30.0,
    8
  ],
  [
    160.0,
    90.0,
    10
  ],
  [
    190.0,
    320.0,
    10
  ],
  [
    190.0,
    80.0,
    61
  ],
  [
    220.0,
    180.0,
    19
  ],
  [
    270.0,
    260.0,
    29
  ],
  [
    270.0,
    90.0,
    24
  ],
  [
    80.0,
    180.0,
    43
  ],
  [
    300.0,
    240.0,
    20
  ],
  [
    60.0,
    50.0,
    46
  ],
  [
    310.0,
    330.0,
    5
  ],
  [
    160.0,
    220.0,
    8
  ],
  [
    300.0,
    230.0,
    32
  ],
  [
    170.0,
    220.0,
    23
  ],
  [
    180.0,
    250.0,
    35
  ],
  [
    310.0,
    80.0,
    20
  ],
  [
    260.0,
    280.0,
    10
  ],
  [
    60.0,
    300.0,
    49
  ],
  [
    70.0,
    160.0,
    92
  ],
  [
    60.0,
    210.0,
    31
  ],
  [
    160.0,
    270.0,
    15
  ],
  [
    310.0,
    70.0,
    25
  ],
  [
    270.0,
    350.0,
    1
  ],
  [
    280.0,
    230.0,
    44
  ],
  [
    240.0,
    260.0,
    2
  ],
  [
    240.0,
    180.0,
    6
  ],
  [
    60.0,
    230.0,
    11
  ],
  [
    0.0,
    250.0,
    1
  ],
  [
    250.0,
    80.0,
    6
  ],
  [
    240.0,
    200.0,
    3
  ],
  [
    20.0,
    190.0,
    6
  ],
  [
    300.0,
    50.0,
    68
  ],
  [
    210.0,
    190.0,
    19
  ],
  [
    90.0,
    210.0,
    2
  ],
  [
    50.0,
    310.0,
    5
  ],
  [
    260.0,
    60.0,
    25
  ],
  [
    200.0,
    100.0,
    7
  ],
  [
    170.0,
    320.0,
    13
  ],
  [
    40.0,
    170.0,
    39
  ],
  [
    280.0,
    80.0,
    147
  ],
  [
    210.0,
    150.0,
    15
  ],
  [
    70.0,
    50.0,
    14
  ],
  [
    230.0,
    160.0,
    5
  ],
  [
    270.0,
    130.0,
    19
  ],
  [
    320.0,
    320.0,
    1
  ],
  [
    50.0,
    240.0,
    5
  ],
  [
    160.0,
    280.0,
    18
  ],
  [
    210.0,
    290.0,
    9
  ],
  [
    270.0,
    280.0,
    39
  ],
  [
    40.0,
    50.0,
    9
  ],
  [
    80.0,
    280.0,
    5
  ],
  [
    200.0,
    230.0,
    6
  ],
  [
    90.0,
    290.0,
    3
  ],
  [
    300.0,
    90.0,
    46
  ],
  [
    250.0,
    60.0,
    8
  ],
  [
    230.0,
    280.0,
    4
  ],
  [
    150.0,
    110.0,
    1
  ],
  [
    130.0,
    120.0,
    2
  ],
  [
    190.0,
    150.0,
    90
  ],
  [
    120.0,
    150.0,
    1
  ],
  [
    40.0,
    240.0,
    1
  ],
  [
    150.0,
    70.0,
    5
  ],
  [
    310.0,
    150.0,
    19
  ],
  [
    320.0,
    150.0,
    7
  ],
  [
    150.0,
    290.0,
    2
  ],
  [
    20.0,
    230.0,
    1
  ],
  [
    270.0,
    150.0,
    64
  ],
  [
    60.0,
    40.0,
    13
  ],
  [
    120.0,
    160.0,
    1
  ],
  [
    80.0,
    70.0,
    7
  ],
  [
    220.0,
    160.0,
    9
  ],
  [
    200.0,
    270.0,
    15
  ],
  [
    310.0,
    30.0,
    3
  ],
  [
    100.0,
    120.0,
    2
  ],
  [
    170.0,
    40.0,
    44
  ],
  [
    320.0,
    60.0,
    6
  ],
  [
    300.0,
    320.0,
    12
  ],
  [
    40.0,
    10.0,
    1
  ],
  [
    230.0,
    60.0,
    3
  ],
  [
    300.0,
    310.0,
    52
  ],
  [
    230.0,
    180.0,
    10
  ],
  [
    80.0,
    300.0,
    4
  ],
  [
    290.0,
    10.0,
    9
  ],
  [
    230.0,
    140.0,
    2
  ],
  [
    150.0,
    210.0,
    4
  ],
  [
    60.0,
    140.0,
    20
  ],
  [
    190.0,
    30.0,
    15
  ],
  [
    180.0,
    120.0,
    31
  ],
  [
    50.0,
    70.0,
    31
  ],
  [
    270.0,
    250.0,
    16
  ],
  [
    190.0,
    270.0,
    51
  ],
  [
    50.0,
    50.0,
    24
  ],
  [
    270.0,
    300.0,
    33
  ],
  [
    310.0,
    200.0,
    65
  ],
  [
    260.0,
    270.0,
    11
  ],
  [
    180.0,
    310.0,
    50
  ],
  [
    320.0,
    80.0,
    3
  ],
  [
    280.0,
    120.0,
    33
  ],
  [
    200.0,
    290.0,
    33
  ],
  [
    180.0,
    350.0,
    1
  ],
  [
    280.0,
    130.0,
    47
  ],
  [
    270.0,
    80.0,
    37
  ],
  [
    310.0,
    310.0,
    9
  ],
  [
    190.0,
    310.0,
    29
  ],
  [
    220.0,
    240.0,
    3
  ],
  [
    290.0,
    330.0,
    14
  ],
  [
    120.0,
    100.0,
    1
  ],
  [
    270.0,
    100.0,
    13
  ],
  [
    140.0,
    90.0,
    2
  ],
  [
    190.0,
    100.0,
    21
  ],
  [
    230.0,
    70.0,
    2
  ],
  [
    270.0,
    60.0,
    71
  ],
  [
    320.0,
    170.0,
    26
  ],
  [
    250.0,
    190.0,
    15
  ],
  [
    300.0,
    120.0,
    11
  ],
  [
    220.0,
    290.0,
    7
  ],
  [
    210.0,
    100.0,
    4
  ],
  [
    60.0,
    270.0,
    41
  ],
  [
    150.0,
    200.0,
    3
  ],
  [
    30.0,
    160.0,
    4
  ],
  [
    70.0,
    310.0,
    8
  ],
  [
    70.0,
    220.0,
    8
  ],
  [
    150.0,
    40.0,
    5
  ],
  [
    200.0,
    320.0,
    5
  ],
  [
    70.0,
    40.0,
    7
  ],
  [
    110.0,
    40.0,
    1
  ],
  [
    10.0,
    150.0,
    1
  ],
  [
    170.0,
    130.0,
    50
  ],
  [
    270.0,
    330.0,
    2
  ],
  [
    50.0,
    270.0,
    20
  ],
  [
    150.0,
    60.0,
    7
  ],
  [
    200.0,
    60.0,
    22
  ],
  [
    50.0,
    210.0,
    11
  ],
  [
    290.0,
    340.0,
    7
  ],
  [
    30.0,
    40.0,
    2
  ],
  [
    160.0,
    290.0,
    20
  ],
  [
    170.0,
    10.0,
    4
  ],
  [
    60.0,
    260.0,
    17
  ],
  [
    180.0,
    30.0,
    13
  ],
  [
    310.0,
    210.0,
    27
  ],
  [
    300.0,
    40.0,
    19
  ],
  [
    310.0,
    250.0,
    8
  ],
  [
    40.0,
    260.0,
    4
  ],
  [
    190.0,
    240.0,
    10
  ],
  [
    60.0,
    130.0,
    11
  ],
  [
    310.0,
    130.0,
    13
  ],
  [
    180.0,
    340.0,
    5
  ],
  [
    200.0,
    280.0,
    27
  ],
  [
    200.0,
    200.0,
    30
  ],
  [
    190.0,
    260.0,
    31
  ],
  [
    250.0,
    290.0,
    2
  ],
  [
    200.0,
    30.0,
    5
  ],
  [
    190.0,
    90.0,
    35
  ],
  [
    270.0,
    140.0,
    38
  ],
  [
    180.0,
    320.0,
    16
  ],
  [
    160.0,
    260.0,
    4
  ],
  [
    80.0,
    310.0,
    4
  ],
  [
    40.0,
    70.0,
    8
  ],
  [
    70.0,
    320.0,
    2
  ],
  [
    20.0,
    170.0,
    3
  ],
  [
    170.0,
    260.0,
    37
  ],
  [
    260.0,
    190.0,
    37
  ],
  [
    80.0,
    230.0,
    3
  ],
  [
    50.0,
    220.0,
    9
  ],
  [
    210.0,
    260.0,
    5
  ],
  [
    130.0,
    220.0,
    3
  ],
  [
    200.0,
    140.0,
    16
  ],
  [
    330.0,
    210.0,
    4
  ],
  [
    160.0,
    200.0,
    17
  ],
  [
    250.0,
    90.0,
    7
  ],
  [
    270.0,
    40.0,
    24
  ],
  [
    140.0,
    180.0,
    4
  ],
  [
    40.0,
    40.0,
    2
  ],
  [
    220.0,
    300.0,
    3
  ],
  [
    150.0,
    20.0,
    2
  ],
  [
    250.0,
    150.0,
    8
  ],
  [
    340.0,
    190.0,
    1
  ],
  [
    150.0,
    180.0,
    21
  ],
  [
    230.0,
    200.0,
    4
  ],
  [
    230.0,
    130.0,
    2
  ],
  [
    100.0,
    350.0,
    1
  ],
  [
    280.0,
    350.0,
    1
  ],
  [
    260.0,
    230.0,
    5
  ],
  [
    140.0,
    300.0,
    1
  ],
  [
    80.0,
    50.0,
    3
  ],
  [
    190.0,
    20.0,
    5
  ],
  [
    40.0,
    90.0,
    4
  ],
  [
    30.0,
    140.0,
    1
  ],
  [
    250.0,
    240.0,
    6
  ],
  [
    250.0,
    200.0,
    11
  ],
  [
    220.0,
    80.0,
    2
  ],
  [
    240.0,
    230.0,
    3
  ],
  [
    310.0,
    60.0,
    22
  ],
  [
    170.0,
    250.0,
    21
  ],
  [
    170.0,
    110.0,
    20
  ],
  [
    50.0,
    100.0,
    5
  ],
  [
    60.0,
    310.0,
    13
  ],
  [
    270.0,
    230.0,
    11
  ],
  [
    50.0,
    230.0,
    10
  ],
  [
    50.0,
    200.0,
    23
  ],
  [
    10.0,
    200.0,
    2
  ],
  [
    50.0,
    30.0,
    8
  ],
  [
    200.0,
    80.0,
    13
  ],
  [
    80.0,
    140.0,
    5
  ],
  [
    150.0,
    250.0,
    1
  ],
  [
    340.0,
    230.0,
    3
  ],
  [
    60.0,
    250.0,
    15
  ],
  [
    230.0,
    300.0,
    1
  ],
  [
    330.0,
    200.0,
    4
  ],
  [
    310.0,
    10.0,
    1
  ],
  [
    340.0,
    160.0,
    2
  ],
  [
    330.0,
    270.0,
    3
  ],
  [
    250.0,
    40.0,
    3
  ],
  [
    330.0,
    70.0,
    3
  ],
  [
    310.0,
    40.0,
    4
  ],
  [
    220.0,
    50.0,
    3
  ],
  [
    240.0,
    140.0,
    6
  ],
  [
    270.0,
    220.0,
    19
  ],
  [
    210.0,
    70.0,
    6
  ],
  [
    140.0,
    270.0,
    1
  ],
  [
    230.0,
    120.0,
    3
  ],
  [
    260.0,
    130.0,
    9
  ],
  [
    320.0,
    130.0,
    1
  ],
  [
    60.0,
    100.0,
    7
  ],
  [
    70.0,
    140.0,
    15
  ],
  [
    190.0,
    330.0,
    9
  ],
  [
    310.0,
    230.0,
    3
  ],
  [
    230.0,
    150.0,
    6
  ],
  [
    90.0,
    200.0,
    4
  ],
  [
    250.0,
    70.0,
    9
  ],
  [
    30.0,
    180.0,
    7
  ],
  [
    60.0,
    110.0,
    8
  ],
  [
    110.0,
    160.0,
    2
  ],
  [
    220.0,
    280.0,
    8
  ],
  [
    230.0,
    170.0,
    10
  ],
  [
    150.0,
    150.0,
    16
  ],
  [
    200.0,
    40.0,
    7
  ],
  [
    270.0,
    30.0,
    11
  ],
  [
    260.0,
    210.0,
    16
  ],
  [
    300.0,
    340.0,
    3
  ],
  [
    250.0,
    260.0,
    5
  ],
  [
    40.0,
    80.0,
    6
  ],
  [
    10.0,
    260.0,
    1
  ],
  [
    50.0,
    130.0,
    6
  ],
  [
    90.0,
    100.0,
    1
  ],
  [
    70.0,
    210.0,
    10
  ],
  [
    310.0,
    90.0,
    4
  ],
  [
    170.0,
    330.0,
    6
  ],
  [
    300.0,
    20.0,
    4
  ],
  [
    330.0,
    160.0,
    5
  ],
  [
    70.0,
    260.0,
    3
  ],
  [
    150.0,
    220.0,
    2
  ],
  [
    50.0,
    110.0,
    4
  ],
  [
    240.0,
    190.0,
    7
  ],
  [
    190.0,
    340.0,
    6
  ],
  [
    150.0,
    130.0,
    4
  ],
  [
    20.0,
    160.0,
    2
  ],
  [
    260.0,
    90.0,
    14
  ],
  [
    200.0,
    70.0,
    24
  ],
  [
    60.0,
    240.0,
    8
  ],
  [
    250.0,
    310.0,
    2
  ],
  [
    80.0,
    210.0,
    9
  ],
  [
    220.0,
    200.0,
    5
  ],
  [
    70.0,
    270.0,
    15
  ],
  [
    280.0,
    330.0,
    9
  ],
  [
    260.0,
    150.0,
    14
  ],
  [
    40.0,
    310.0,
    2
  ],
  [
    200.0,
    260.0,
    14
  ],
  [
    250.0,
    230.0,
    6
  ],
  [
    0.0,
    60.0,
    1
  ],
  [
    160.0,
    310.0,
    9
  ],
  [
    130.0,
    60.0,
    3
  ],
  [
    260.0,
    220.0,
    15
  ],
  [
    130.0,
    170.0,
    5
  ],
  [
    80.0,
    270.0,
    8
  ],
  [
    280.0,
    20.0,
    11
  ],
  [
    260.0,
    40.0,
    9
  ],
  [
    70.0,
    20.0,
    2
  ],
  [
    140.0,
    150.0,
    3
  ],
  [
    220.0,
    220.0,
    5
  ],
  [
    190.0,
    40.0,
    18
  ],
  [
    320.0,
    300.0,
    4
  ],
  [
    40.0,
    130.0,
    3
  ],
  [
    80.0,
    60.0,
    5
  ],
  [
    260.0,
    250.0,
    6
  ],
  [
    30.0,
    150.0,
    3
  ],
  [
    220.0,
    250.0,
    4
  ],
  [
    220.0,
    210.0,
    6
  ],
  [
    40.0,
    150.0,
    14
  ],
  [
    340.0,
    50.0,
    1
  ],
  [
    220.0,
    130.0,
    3
  ],
  [
    50.0,
    10.0,
    1
  ],
  [
    0.0,
    100.0,
    1
  ],
  [
    260.0,
    110.0,
    7
  ],
  [
    290.0,
    30.0,
    19
  ],
  [
    170.0,
    30.0,
    11
  ],
  [
    190.0,
    120.0,
    9
  ],
  [
    270.0,
    20.0,
    6
  ],
  [
    260.0,
    240.0,
    7
  ],
  [
    210.0,
    80.0,
    4
  ],
  [
    330.0,
    130.0,
    2
  ],
  [
    240.0,
    210.0,
    1
  ],
  [
    310.0,
    110.0,
    5
  ],
  [
    350.0,
    170.0,
    1
  ],
  [
    270.0,
    240.0,
    12
  ],
  [
    50.0,
    300.0,
    9
  ],
  [
    10.0,
    90.0,
    1
  ],
  [
    90.0,
    150.0,
    2
  ],
  [
    320.0,
    200.0,
    9
  ],
  [
    210.0,
    320.0,
    4
  ],
  [
    260.0,
    290.0,
    9
  ],
  [
    330.0,
    260.0,
    2
  ],
  [
    260.0,
    300.0,
    11
  ],
  [
    160.0,
    240.0,
    3
  ],
  [
    170.0,
    20.0,
    8
  ],
  [
    210.0,
    130.0,
    3
  ],
  [
    290.0,
    350.0,
    4
  ],
  [
    130.0,
    200.0,
    2
  ],
  [
    30.0,
    190.0,
    3
  ],
  [
    330.0,
    80.0,
    3
  ],
  [
    240.0,
    160.0,
    4
  ],
  [
    10.0,
    220.0,
    1
  ],
  [
    210.0,
    210.0,
    6
  ],
  [
    70.0,
    240.0,
    2
  ],
  [
    160.0,
    210.0,
    12
  ],
  [
    20.0,
    180.0,
    6
  ],
  [
    120.0,
    170.0,
    1
  ],
  [
    240.0,
    90.0,
    1
  ],
  [
    90.0,
    190.0,
    2
  ],
  [
    150.0,
    260.0,
    3
  ],
  [
    240.0,
    100.0,
    2
  ],
  [
    200.0,
    210.0,
    15
  ],
  [
    210.0,
    220.0,
    7
  ],
  [
    150.0,
    140.0,
    4
  ],
  [
    130.0,
    80.0,
    2
  ],
  [
    340.0,
    240.0,
    2
  ],
  [
    90.0,
    250.0,
    1
  ],
  [
    50.0,
    40.0,
    7
  ],
  [
    30.0,
    70.0,
    2
  ],
  [
    0.0,
    150.0,
    1
  ],
  [
    200.0,
    110.0,
    6
  ],
  [
    220.0,
    60.0,
    5
  ],
  [
    20.0,
    50.0,
    2
  ],
  [
    290.0,
    20.0,
    10
  ],
  [
    30.0,
    230.0,
    1
  ],
  [
    240.0,
    60.0,
    1
  ],
  [
    230.0,
    290.0,
    5
  ],
  [
    30.0,
    300.0,
    2
  ],
  [
    280.0,
    320.0,
    12
  ],
  [
    80.0,
    100.0,
    1
  ],
  [
    280.0,
    340.0,
    3
  ],
  [
    320.0,
    70.0,
    1
  ],
  [
    100.0,
    190.0,
    3
  ],
  [
    80.0,
    40.0,
    3
  ],
  [
    240.0,
    50.0,
    3
  ],
  [
    100.0,
    200.0,
    1
  ],
  [
    0.0,
    50.0,
    1
  ],
  [
    250.0,
    160.0,
    16
  ],
  [
    40.0,
    280.0,
    3
  ],
  [
    100.0,
    90.0,
    3
  ],
  [
    110.0,
    170.0,
    2
  ],
  [
    250.0,
    270.0,
    6
  ],
  [
    220.0,
    190.0,
    7
  ],
  [
    280.0,
    10.0,
    12
  ],
  [
    300.0,
    330.0,
    5
  ],
  [
    160.0,
    230.0,
    2
  ],
  [
    100.0,
    160.0,
    4
  ],
  [
    10.0,
    190.0,
    3
  ],
  [
    320.0,
    50.0,
    2
  ],
  [
    200.0,
    220.0,
    4
  ],
  [
    220.0,
    310.0,
    3
  ],
  [
    210.0,
    20.0,
    3
  ],
  [
    230.0,
    320.0,
    1
  ],
  [
    10.0,
    350.0,
    1
  ],
  [
    150.0,
    90.0,
    2
  ],
  [
    100.0,
    250.0,
    1
  ],
  [
    210.0,
    330.0,
    2
  ],
  [
    150.0,
    100.0,
    5
  ],
  [
    310.0,
    120.0,
    7
  ],
  [
    230.0,
    210.0,
    5
  ],
  [
    50.0,
    250.0,
    3
  ],
  [
    180.0,
    20.0,
    4
  ],
  [
    320.0,
    220.0,
    7
  ],
  [
    170.0,
    240.0,
    9
  ],
  [
    140.0,
    190.0,
    3
  ],
  [
    150.0,
    80.0,
    4
  ],
  [
    10.0,
    70.0,
    2
  ],
  [
    330.0,
    170.0,
    4
  ],
  [
    210.0,
    310.0,
    3
  ],
  [
    90.0,
    140.0,
    5
  ],
  [
    10.0,
    50.0,
    1
  ],
  [
    230.0,
    110.0,
    1
  ],
  [
    230.0,
    190.0,
    4
  ],
  [
    140.0,
    80.0,
    1
  ],
  [
    240.0,
    130.0,
    2
  ],
  [
    350.0,
    110.0,
    1
  ],
  [
    250.0,
    50.0,
    5
  ],
  [
    200.0,
    340.0,
    2
  ],
  [
    210.0,
    280.0,
    6
  ],
  [
    260.0,
    310.0,
    3
  ],
  [
    80.0,
    320.0,
    2
  ],
  [
    240.0,
    40.0,
    1
  ],
  [
    340.0,
    210.0,
    2
  ],
  [
    90.0,
    310.0,
    1
  ],
  [
    210.0,
    300.0,
    5
  ],
  [
    140.0,
    10.0,
    1
  ],
  [
    220.0,
    150.0,
    5
  ],
  [
    210.0,
    50.0,
    4
  ],
  [
    70.0,
    130.0,
    2
  ],
  [
    140.0,
    110.0,
    4
  ],
  [
    90.0,
    280.0,
    4
  ],
  [
    210.0,
    140.0,
    8
  ],
  [
    130.0,
    190.0,
    3
  ],
  [
    70.0,
    250.0,
    6
  ],
  [
    230.0,
    220.0,
    3
  ],
  [
    240.0,
    220.0,
    2
  ],
  [
    130.0,
    150.0,
    4
  ],
  [
    240.0,
    110.0,
    2
  ],
  [
    350.0,
    20.0,
    1
  ],
  [
    210.0,
    30.0,
    2
  ],
  [
    340.0,
    290.0,
    3
  ],
  [
    70.0,
    230.0,
    3
  ],
  [
    40.0,
    270.0,
    3
  ],
  [
    160.0,
    250.0,
    5
  ],
  [
    350.0,
    150.0,
    1
  ],
  [
    140.0,
    20.0,
    1
  ],
  [
    110.0,
    180.0,
    2
  ],
  [
    100.0,
    170.0,
    4
  ],
  [
    160.0,
    340.0,
    1
  ],
  [
    0.0,
    180.0,
    1
  ],
  [
    50.0,
    20.0,
    1
  ],
  [
    340.0,
    260.0,
    2
  ],
  [
    220.0,
    70.0,
    4
  ],
  [
    10.0,
    310.0,
    1
  ],
  [
    150.0,
    120.0,
    5
  ],
  [
    40.0,
    290.0,
    3
  ],
  [
    60.0,
    220.0,
    8
  ],
  [
    290.0,
    0.0,
    2
  ],
  [
    150.0,
    300.0,
    1
  ],
  [
    320.0,
    260.0,
    2
  ],
  [
    100.0,
    280.0,
    2
  ],
  [
    60.0,
    10.0,
    2
  ],
  [
    230.0,
    270.0,
    2
  ],
  [
    250.0,
    120.0,
    2
  ],
  [
    160.0,
    100.0,
    4
  ],
  [
    40.0,
    300.0,
    4
  ],
  [
    250.0,
    210.0,
    4
  ],
  [
    80.0,
    200.0,
    4
  ],
  [
    230.0,
    310.0,
    1
  ],
  [
    330.0,
    300.0,
    1
  ],
  [
    320.0,
    100.0,
    2
  ],
  [
    40.0,
    210.0,
    4
  ],
  [
    300.0,
    0.0,
    2
  ],
  [
    240.0,
    250.0,
    2
  ],
  [
    220.0,
    260.0,
    2
  ],
  [
    150.0,
    270.0,
    1
  ],
  [
    20.0,
    70.0,
    1
  ],
  [
    250.0,
    300.0,
    3
  ],
  [
    80.0,
    260.0,
    3
  ],
  [
    240.0,
    80.0,
    1
  ],
  [
    70.0,
    120.0,
    9
  ],
  [
    250.0,
    250.0,
    1
  ],
  [
    140.0,
    220.0,
    2
  ],
  [
    30.0,
    280.0,
    2
  ],
  [
    110.0,
    140.0,
    1
  ],
  [
    130.0,
    110.0,
    1
  ],
  [
    210.0,
    230.0,
    1
  ],
  [
    140.0,
    230.0,
    1
  ],
  [
    140.0,
    160.0,
    1
  ],
  [
    160.0,
    20.0,
    1
  ],
  [
    310.0,
    340.0,
    4
  ],
  [
    320.0,
    40.0,
    1
  ],
  [
    10.0,
    170.0,
    2
  ],
  [
    140.0,
    340.0,
    1
  ],
  [
    250.0,
    100.0,
    2
  ],
  [
    100.0,
    180.0,
    2
  ],
  [
    300.0,
    10.0,
    2
  ],
  [
    100.0,
    210.0,
    1
  ],
  [
    110.0,
    260.0,
    1
  ],
  [
    20.0,
    270.0,
    2
  ],
  [
    270.0,
    320.0,
    4
  ],
  [
    60.0,
    0.0,
    2
  ],
  [
    190.0,
    350.0,
    4
  ],
  [
    260.0,
    120.0,
    4
  ],
  [
    320.0,
    330.0,
    2
  ],
  [
    100.0,
    320.0,
    1
  ],
  [
    320.0,
    350.0,
    2
  ],
  [
    220.0,
    120.0,
    1
  ],
  [
    210.0,
    90.0,
    8
  ],
  [
    330.0,
    110.0,
    3
  ],
  [
    320.0,
    310.0,
    1
  ],
  [
    100.0,
    60.0,
    1
  ],
  [
    310.0,
    50.0,
    6
  ],
  [
    90.0,
    50.0,
    1
  ],
  [
    90.0,
    60.0,
    3
  ],
  [
    320.0,
    90.0,
    3
  ],
  [
    260.0,
    330.0,
    1
  ],
  [
    320.0,
    280.0,
    5
  ],
  [
    30.0,
    270.0,
    2
  ],
  [
    30.0,
    130.0,
    2
  ],
  [
    330.0,
    150.0,
    1
  ],
  [
    220.0,
    100.0,
    3
  ],
  [
    120.0,
    220.0,
    3
  ],
  [
    100.0,
    130.0,
    1
  ],
  [
    30.0,
    250.0,
    4
  ],
  [
    20.0,
    280.0,
    1
  ],
  [
    80.0,
    20.0,
    2
  ],
  [
    330.0,
    50.0,
    1
  ],
  [
    30.0,
    120.0,
    1
  ],
  [
    260.0,
    10.0,
    1
  ],
  [
    110.0,
    210.0,
    1
  ],
  [
    340.0,
    280.0,
    2
  ],
  [
    130.0,
    180.0,
    2
  ],
  [
    250.0,
    110.0,
    1
  ],
  [
    350.0,
    270.0,
    1
  ],
  [
    250.0,
    130.0,
    1
  ],
  [
    350.0,
    220.0,
    1
  ],
  [
    130.0,
    300.0,
    2
  ],
  [
    30.0,
    50.0,
    3
  ],
  [
    320.0,
    240.0,
    1
  ],
  [
    340.0,
    20.0,
    1
  ],
  [
    240.0,
    70.0,
    2
  ],
  [
    240.0,
    270.0,
    3
  ],
  [
    20.0,
    120.0,
    1
  ],
  [
    100.0,
    290.0,
    1
  ],
  [
    140.0,
    130.0,
    1
  ],
  [
    320.0,
    0.0,
    1
  ],
  [
    160.0,
    30.0,
    3
  ],
  [
    100.0,
    150.0,
    1
  ],
  [
    30.0,
    100.0,
    1
  ],
  [
    220.0,
    270.0,
    4
  ],
  [
    30.0,
    90.0,
    2
  ],
  [
    30.0,
    340.0,
    1
  ],
  [
    170.0,
    350.0,
    1
  ],
  [
    70.0,
    30.0,
    3
  ],
  [
    120.0,
    60.0,
    1
  ],
  [
    30.0,
    260.0,
    2
  ],
  [
    150.0,
    280.0,
    1
  ],
  [
    20.0,
    200.0,
    1
  ],
  [
    200.0,
    20.0,
    1
  ],
  [
    220.0,
    320.0,
    1
  ],
  [
    140.0,
    200.0,
    2
  ],
  [
    350.0,
    100.0,
    1
  ],
  [
    330.0,
    290.0,
    3
  ],
  [
    60.0,
    350.0,
    1
  ],
  [
    20.0,
    60.0,
    1
  ],
  [
    330.0,
    40.0,
    1
  ],
  [
    90.0,
    330.0,
    2
  ],
  [
    140.0,
    210.0,
    1
  ],
  [
    140.0,
    260.0,
    1
  ],
  [
    140.0,
    0.0,
    1
  ],
  [
    30.0,
    210.0,
    2
  ],
  [
    130.0,
    100.0,
    1
  ],
  [
    130.0,
    130.0,
    1
  ],
  [
    40.0,
    320.0,
    1
  ],
  [
    340.0,
    170.0,
    1
  ],
  [
    190.0,
    0.0,
    1
  ],
  [
    150.0,
    10.0,
    1
  ],
  [
    80.0,
    130.0,
    1
  ],
  [
    110.0,
    150.0,
    1
  ],
  [
    210.0,
    250.0,
    3
  ],
  [
    170.0,
    340.0,
    1
  ],
  [
    220.0,
    110.0,
    1
  ],
  [
    210.0,
    120.0,
    2
  ],
  [
    30.0,
    310.0,
    1
  ],
  [
    240.0,
    290.0,
    3
  ],
  [
    230.0,
    230.0,
    1
  ],
  [
    330.0,
    240.0,
    1
  ],
  [
    320.0,
    120.0,
    2
  ],
  [
    230.0,
    240.0,
    1
  ],
  [
    100.0,
    230.0,
    1
  ],
  [
    210.0,
    340.0,
    1
  ],
  [
    220.0,
    90.0,
    4
  ],
  [
    130.0,
    160.0,
    1
  ],
  [
    320.0,
    270.0,
    2
  ],
  [
    100.0,
    240.0,
    1
  ],
  [
    130.0,
    90.0,
    1
  ],
  [
    130.0,
    270.0,
    1
  ],
  [
    10.0,
    180.0,
    2
  ],
  [
    260.0,
    30.0,
    1
  ],
  [
    120.0,
    70.0,
    1
  ],
  [
    110.0,
    250.0,
    1
  ],
  [
    30.0,
    240.0,
    1
  ],
  [
    200.0,
    330.0,
    2
  ],
  [
    0.0,
    110.0,
    1
  ],
  [
    330.0,
    280.0,
    2
  ],
  [
    20.0,
    260.0,
    1
  ],
  [
    20.0,
    130.0,
    1
  ],
  [
    320.0,
    250.0,
    1
  ],
  [
    210.0,
    40.0,
    2
  ],
  [
    50.0,
    330.0,
    2
  ],
  [
    130.0,
    140.0,
    1
  ],
  [
    130.0,
    310.0,
    1
  ],
  [
    150.0,
    330.0,
    1
  ],
  [
    230.0,
    80.0,
    1
  ],
  [
    90.0,
    160.0,
    1
  ],
  [
    40.0,
    250.0,
    1
  ],
  [
    260.0,
    320.0,
    2
  ],
  [
    60.0,
    20.0,
    1
  ],
  [
    90.0,
    80.0,
    1
  ],
  [
    0.0,
    330.0,
    1
  ],
  [
    40.0,
    110.0,
    1
  ],
  [
    100.0,
    50.0,
    1
  ],
  [
    350.0,
    290.0,
    1
  ],
  [
    10.0,
    110.0,
    1
  ],
  [
    180.0,
    0.0,
    3
  ],
  [
    100.0,
    260.0,
    1
  ],
  [
    80.0,
    250.0,
    1
  ],
  [
    340.0,
    130.0,
    1
  ],
  [
    140.0,
    70.0,
    1
  ],
  [
    30.0,
    220.0,
    1
  ],
  [
    160.0,
    110.0,
    1
  ],
  [
    140.0,
    60.0,
    1
  ],
  [
    20.0,
    100.0,
    2
  ],
  [
    330.0,
    60.0,
    1
  ],
  [
    230.0,
    260.0,
    1
  ],
  [
    80.0,
    120.0,
    2
  ],
  [
    260.0,
    20.0,
    1
  ],
  [
    250.0,
    320.0,
    1
  ],
  [
    20.0,
    150.0,
    2
  ],
  [
    10.0,
    160.0,
    1
  ],
  [
    220.0,
    40.0,
    1
  ],
  [
    80.0,
    80.0,
    1
  ],
  [
    100.0,
    80.0,
    1
  ],
  [
    40.0,
    230.0,
    1
  ],
  [
    90.0,
    110.0,
    1
  ],
  [
    250.0,
    30.0,
    1
  ],
  [
    60.0,
    340.0,
    1
  ],
  [
    340.0,
    330.0,
    1
  ],
  [
    250.0,
    10.0,
    1
  ],
  [
    230.0,
    250.0,
    1
  ],
  [
    350.0,
    180.0,
    1
  ],
  [
    340.0,
    180.0,
    1
  ],
  [
    140.0,
    170.0,
    2
  ],
  [
    100.0,
    310.0,
    1
  ],
  [
    140.0,
    290.0,
    1
  ],
  [
    340.0,
    220.0,
    1
  ]
]