[
  [
    0,
    1
  ],
  [
    1,
    3
  ],
  [
    2,
    3
  ],
  [
    3,
    0
  ],
  [
    4,
    1
  ],
  [
    5,
    3
  ],
  [
    6,
    4
  ],
  [
    7,
    2
  ],
  [
    8,
    1
  ],
  [
    9,
    4
  ],
  [
    10,
    5
  ],
  [
    11,
    3
  ],
  [
    12,
    5
  ],
  [
    13,
    4
  ],
  [
    14,
    4
  ],
  [
    15,
    4
  ],
  [
    16,
    4
  ],
  [
    17,
    8
  ],
  [
    18,
    3
  ],
  [
    19,
    4
  ],
  [
    20,
    6
  ],
  [
    21,
    3
  ],
  [
    22,
    5
  ],
  [
    23,
    5
  ],
  [
    24,
    7
  ],
  [
    25,
    8
  ],
  [
    26,
    4
  ],
  [
    27,
    11
  ],
  [
    28,
    10
  ],
  [
    29,
    8
  ],
  [
    30,
    20
  ],
  [
    31,
    15
  ],
  [
    32,
    11
  ],
  [
    33,
    18
  ],
  [
    34,
    14
  ],
  [
    35,
    6
  ],
  [
    36,
    12
  ],
  [
    37,
    12
  ],
  [
    38,
    13
  ],
  [
    39,
    21
  ],
  [
    40,
    25
  ],
  [
    41,
    22
  ],
  [
    42,
    32
  ],
  [
    43,
    28
  ],
  [
    44,
    31
  ],
  [
    45,
    34
  ],
  [
    46,
    40
  ],
  [
    47,
    45
  ],
  [
    48,
    54
  ],
  [
    49,
    46
  ],
  [
    50,
    70
  ],
  [
    51,
    80
  ],
  [
    52,
    90
  ],
  [
    53,
    115
  ],
  [
    54,
    121
  ],
  [
    55,
    131
  ],
  [
    56,
    132
  ],
  [
    57,
    161
  ],
  [
    58,
    190
  ],
  [
    59,
    199
  ],
  [
    60,
    251
  ],
  [
    61,
    250
  ],
  [
    62,
    287
  ],
  [
    63,
    289
  ],
  [
    64,
    312
  ],
  [
    65,
    291
  ],
  [
    66,
    314
  ],
  [
    67,
    283
  ],
  [
    68,
    304
  ],
  [
    69,
    300
  ],
  [
    70,
    313
  ],
  [
    71,
    277
  ],
  [
    72,
    260
  ],
  [
    73,
    215
  ],
  [
    74,
    241
  ],
  [
    75,
    211
  ],
  [
    76,
    212
  ],
  [
    77,
    175
  ],
  [
    78,
    170
  ],
  [
    79,
    164
  ],
  [
    80,
    171
  ],
  [
    81,
    155
  ],
  [
    82,
    122
  ],
  [
    83,
    124
  ],
  [
    84,
    100
  ],
  [
    85,
    85
  ],
  [
    86,
    91
  ],
  [
    87,
    72
  ],
  [
    88,
    54
  ],
  [
    89,
    71
  ],
  [
    90,
    67
  ],
  [
    91,
    67
  ],
  [
    92,
    40
  ],
  [
    93,
    46
  ],
  [
    94,
    54
  ],
  [
    95,
    52
  ],
  [
    96,
    47
  ],
  [
    97,
    36
  ],
  [
    98,
    48
  ],
  [
    99,
    53
  ],
  [
    100,
    40
  ],
  [
    101,
    38
  ],
  [
    102,
    43
  ],
  [
    103,
    36
  ],
  [
    104,
    26
  ],
  [
    105,
    19
  ],
  [
    106,
    33
  ],
  [
    107,
    34
  ],
  [
    108,
    12
  ],
  [
    109,
    30
  ],
  [
    110,
    34
  ],
  [
    111,
    36
  ],
  [
    112,
    22
  ],
  [
    113,
    18
  ],
  [
    114,
    19
  ],
  [
    115,
    18
  ],
  [
    116,
    20
  ],
  [
    117,
    24
  ],
  [
    118,
    27
  ],
  [
    119,
    22
  ],
  [
    120,
    23
  ],
  [
    121,
    18
  ],
  [
    122,
    9
  ],
  [
    123,
    24
  ],
  [
    124,
    27
  ],
  [
    125,
    32
  ],
  [
    126,
    27
  ],
  [
    127,
    31
  ],
  [
    128,
    20
  ],
  [
    129,
    37
  ],
  [
    130,
    36
  ],
  [
    131,
    51
  ],
  [
    132,
    47
  ],
  [
    133,
    24
  ],
  [
    134,
    38
  ],
  [
    135,
    34
  ],
  [
    136,
    38
  ],
  [
    137,
    45
  ],
  [
    138,
    46
  ],
  [
    139,
    49
  ],
  [
    140,
    57
  ],
  [
    141,
    64
  ],
  [
    142,
    59
  ],
  [
    143,
    77
  ],
  [
    144,
    83
  ],
  [
    145,
    71
  ],
  [
    146,
    80
  ],
  [
    147,
    94
  ],
  [
    148,
    84
  ],
  [
    149,
    145
  ],
  [
    150,
    122
  ],
  [
    151,
    139
  ],
  [
    152,
    133
  ],
  [
    153,
    165
  ],
  [
    154,
    196
  ],
  [
    155,
    187
  ],
  [
    156,
    224
  ],
  [
    157,
    247
  ],
  [
    158,
    272
  ],
  [
    159,
    315
  ],
  [
    160,
    402
  ],
  [
    161,
    396
  ],
  [
    162,
    440
  ],
  [
    163,
    492
  ],
  [
    164,
    575
  ],
  [
    165,
    671
  ],
  [
    166,
    703
  ],
  [
    167,
    840
  ],
  [
    168,
    943
  ],
  [
    169,
    1126
  ],
  [
    170,
    1274
  ],
  [
    171,
    1379
  ],
  [
    172,
    1566
  ],
  [
    173,
    1807
  ],
  [
    174,
    2005
  ],
  [
    175,
    2193
  ],
  [
    176,
    2216
  ],
  [
    177,
    2387
  ],
  [
    178,
    2568
  ],
  [
    179,
    2632
  ],
  [
    180,
    2559
  ],
  [
    181,
    2514
  ],
  [
    182,
    2423
  ],
  [
    183,
    2269
  ],
  [
    184,
    2088
  ],
  [
    185,
    1918
  ],
  [
    186,
    1679
  ],
  [
    187,
    1665
  ],
  [
    188,
    1448
  ],
  [
    189,
    1327
  ],
  [
    190,
    1097
  ],
  [
    191,
    1033
  ],
  [
    192,
    859
  ],
  [
    193,
    827
  ],
  [
    194,
    698
  ],
  [
    195,
    585
  ],
  [
    196,
    526
  ],
  [
    197,
    474
  ],
  [
    198,
    399
  ],
  [
    199,
    341
  ],
  [
    200,
    310
  ],
  [
    201,
    264
  ],
  [
    202,
    248
  ],
  [
    203,
    195
  ],
  [
    204,
    205
  ],
  [
    205,
    194
  ],
  [
    206,
    145
  ],
  [
    207,
    156
  ],
  [
    208,
    130
  ],
  [
    209,
    132
  ],
  [
    210,
    115
  ],
  [
    211,
    97
  ],
  [
    212,
    107
  ],
  [
    213,
    114
  ],
  [
    214,
    84
  ],
  [
    215,
    92
  ],
  [
    216,
    67
  ],
  [
    217,
    70
  ],
  [
    218,
    73
  ],
  [
    219,
    74
  ],
  [
    220,
    62
  ],
  [
    221,
    68
  ],
  [
    222,
    44
  ],
  [
    223,
    50
  ],
  [
    224,
    55
  ],
  [
    225,
    43
  ],
  [
    226,
    48
  ],
  [
    227,
    45
  ],
  [
    228,
    45
  ],
  [
    229,
    42
  ],
  [
    230,
    26
  ],
  [
    231,
    31
  ],
  [
    232,
    34
  ],
  [
    233,
    37
  ],
  [
    234,
    30
  ],
  [
    235,
    27
  ],
  [
    236,
    23
  ],
  [
    237,
    27
  ],
  [
    238,
    21
  ],
  [
    239,
    15
  ],
  [
    240,
    17
  ],
  [
    241,
    18
  ],
  [
    242,
    20
  ],
  [
    243,
    22
  ],
  [
    244,
    31
  ],
  [
    245,
    25
  ],
  [
    246,
    14
  ],
  [
    247,
    22
  ],
  [
    248,
    35
  ],
  [
    249,
    18
  ],
  [
    250,
    29
  ],
  [
    251,
    29
  ],
  [
    252,
    36
  ],
  [
    253,
    37
  ],
  [
    254,
    29
  ],
  [
    255,
    37
  ],
  [
    256,
    39
  ],
  [
    257,
    38
  ],
  [
    258,
    41
  ],
  [
    259,
    33
  ],
  [
    260,
    39
  ],
  [
    261,
    45
  ],
  [
    262,
    43
  ],
  [
    263,
    64
  ],
  [
    264,
    53
  ],
  [
    265,
    53
  ],
  [
    266,
    48
  ],
  [
    267,
    54
  ],
  [
    268,
    72
  ],
  [
    269,
    69
  ],
  [
    270,
    91
  ],
  [
    271,
    66
  ],
  [
    272,
    84
  ],
  [
    273,
    94
  ],
  [
    274,
    99
  ],
  [
    275,
    103
  ],
  [
    276,
    145
  ],
  [
    277,
    136
  ],
  [
    278,
    137
  ],
  [
    279,
    159
  ],
  [
    280,
    186
  ],
  [
    281,
    194
  ],
  [
    282,
    191
  ],
  [
    283,
    202
  ],
  [
    284,
    264
  ],
  [
    285,
    258
  ],
  [
    286,
    262
  ],
  [
    287,
    298
  ],
  [
    288,
    309
  ],
  [
    289,
    305
  ],
  [
    290,
    328
  ],
  [
    291,
    318
  ],
  [
    292,
    346
  ],
  [
    293,
    320
  ],
  [
    294,
    303
  ],
  [
    295,
    299
  ],
  [
    296,
    269
  ],
  [
    297,
    264
  ],
  [
    298,
    278
  ],
  [
    299,
    230
  ],
  [
    300,
    192
  ],
  [
    301,
    177
  ],
  [
    302,
    167
  ],
  [
    303,
    151
  ],
  [
    304,
    130
  ],
  [
    305,
    102
  ],
  [
    306,
    93
  ],
  [
    307,
    71
  ],
  [
    308,
    73
  ],
  [
    309,
    48
  ],
  [
    310,
    53
  ],
  [
    311,
    46
  ],
  [
    312,
    37
  ],
  [
    313,
    44
  ],
  [
    314,
    34
  ],
  [
    315,
    35
  ],
  [
    316,
    22
  ],
  [
    317,
    25
  ],
  [
    318,
    32
  ],
  [
    319,
    19
  ],
  [
    320,
    15
  ],
  [
    321,
    21
  ],
  [
    322,
    9
  ],
  [
    323,
    16
  ],
  [
    324,
    17
  ],
  [
    325,
    12
  ],
  [
    326,
    10
  ],
  [
    327,
    9
  ],
  [
    328,
    12
  ],
  [
    329,
    6
  ],
  [
    330,
    10
  ],
  [
    331,
    15
  ],
  [
    332,
    10
  ],
  [
    333,
    13
  ],
  [
    334,
    2
  ],
  [
    335,
    7
  ],
  [
    336,
    6
  ],
  [
    337,
    9
  ],
  [
    338,
    5
  ],
  [
    339,
    5
  ],
  [
    340,
    2
  ],
  [
    341,
    6
  ],
  [
    342,
    3
  ],
  [
    343,
    4
  ],
  [
    344,
    8
  ],
  [
    345,
    3
  ],
  [
    346,
    2
  ],
  [
    347,
    2
  ],
  [
    348,
    4
  ],
  [
    349,
    2
  ],
  [
    350,
    3
  ],
  [
    351,
    1
  ],
  [
    352,
    0
  ],
  [
    353,
    0
  ],
  [
    354,
    3
  ],
  [
    355,
    1
  ],
  [
    356,
    1
  ],
  [
    357,
    3
  ],
  [
    358,
    3
  ],
  [
    359,
    2
  ]
]