[
  [
    0,
    0
  ],
  [
    1,
    0
  ],
  [
    2,
    2
  ],
  [
    3,
    2
  ],
  [
    4,
    2
  ],
  [
    5,
    1
  ],
  [
    6,
    3
  ],
  [
    7,
    0
  ],
  [
    8,
    2
  ],
  [
    9,
    1
  ],
  [
    10,
    3
  ],
  [
    11,
    2
  ],
  [
    12,
    1
  ],
  [
    13,
    3
  ],
  [
    14,
    3
  ],
  [
    15,
    2
  ],
  [
    16,
    2
  ],
  [
    17,
    2
  ],
  [
    18,
    2
  ],
  [
    19,
    4
  ],
  [
    20,
    3
  ],
  [
    21,
    4
  ],
  [
    22,
    2
  ],
  [
    23,
    0
  ],
  [
    24,
    6
  ],
  [
    25,
    2
  ],
  [
    26,
    8
  ],
  [
    27,
    4
  ],
  [
    28,
    5
  ],
  [
    29,
    11
  ],
  [
    30,
    8
  ],
  [
    31,
    13
  ],
  [
    32,
    9
  ],
  [
    33,
    11
  ],
  [
    34,
    20
  ],
  [
    35,
    25
  ],
  [
    36,
    27
  ],
  [
    37,
    25
  ],
  [
    38,
    26
  ],
  [
    39,
    43
  ],
  [
    40,
    51
  ],
  [
    41,
    55
  ],
  [
    42,
    51
  ],
  [
    43,
    94
  ],
  [
    44,
    102
  ],
  [
    45,
    117
  ],
  [
    46,
    138
  ],
  [
    47,
    172
  ],
  [
    48,
    224
  ],
  [
    49,
    255
  ],
  [
    50,
    336
  ],
  [
    51,
    386
  ],
  [
    52,
    521
  ],
  [
    53,
    615
  ],
  [
    54,
    728
  ],
  [
    55,
    912
  ],
  [
    56,
    1027
  ],
  [
    57,
    1212
  ],
  [
    58,
    1381
  ],
  [
    59,
    1539
  ],
  [
    60,
    1705
  ],
  [
    61,
    1878
  ],
  [
    62,
    1917
  ],
  [
    63,
    2004
  ],
  [
    64,
    1950
  ],
  [
    65,
    2019
  ],
  [
    66,
    2001
  ],
  [
    67,
    2000
  ],
  [
    68,
    1910
  ],
  [
    69,
    1844
  ],
  [
    70,
    1590
  ],
  [
    71,
    1420
  ],
  [
    72,
    1355
  ],
  [
    73,
    1279
  ],
  [
    74,
    1071
  ],
  [
    75,
    976
  ],
  [
    76,
    896
  ],
  [
    77,
    800
  ],
  [
    78,
    695
  ],
  [
    79,
    550
  ],
  [
    80,
    430
  ],
  [
    81,
    379
  ],
  [
    82,
    318
  ],
  [
    83,
    200
  ],
  [
    84,
    199
  ],
  [
    85,
    138
  ],
  [
    86,
    115
  ],
  [
    87,
    90
  ],
  [
    88,
    54
  ],
  [
    89,
    42
  ],
  [
    90,
    57
  ],
  [
    91,
    35
  ],
  [
    92,
    37
  ],
  [
    93,
    28
  ],
  [
    94,
    16
  ],
  [
    95,
    17
  ],
  [
    96,
    10
  ],
  [
    97,
    21
  ],
  [
    98,
    13
  ],
  [
    99,
    15
  ],
  [
    100,
    5
  ],
  [
    101,
    9
  ],
  [
    102,
    6
  ],
  [
    103,
    5
  ],
  [
    104,
    5
  ],
  [
    105,
    7
  ],
  [
    106,
    4
  ],
  [
    107,
    6
  ],
  [
    108,
    5
  ],
  [
    109,
    2
  ],
  [
    110,
    7
  ],
  [
    111,
    4
  ],
  [
    112,
    5
  ],
  [
    113,
    3
  ],
  [
    114,
    1
  ],
  [
    115,
    1
  ],
  [
    116,
    4
  ],
  [
    117,
    2
  ],
  [
    118,
    3
  ],
  [
    119,
    7
  ],
  [
    120,
    2
  ],
  [
    121,
    2
  ],
  [
    122,
    0
  ],
  [
    123,
    2
  ],
  [
    124,
    3
  ],
  [
    125,
    5
  ],
  [
    126,
    3
  ],
  [
    127,
    3
  ],
  [
    128,
    5
  ],
  [
    129,
    3
  ],
  [
    130,
    3
  ],
  [
    131,
    2
  ],
  [
    132,
    3
  ],
  [
    133,
    3
  ],
  [
    134,
    5
  ],
  [
    135,
    2
  ],
  [
    136,
    8
  ],
  [
    137,
    6
  ],
  [
    138,
    6
  ],
  [
    139,
    5
  ],
  [
    140,
    5
  ],
  [
    141,
    4
  ],
  [
    142,
    5
  ],
  [
    143,
    8
  ],
  [
    144,
    7
  ],
  [
    145,
    10
  ],
  [
    146,
    14
  ],
  [
    147,
    13
  ],
  [
    148,
    18
  ],
  [
    149,
    9
  ],
  [
    150,
    16
  ],
  [
    151,
    17
  ],
  [
    152,
    22
  ],
  [
    153,
    25
  ],
  [
    154,
    27
  ],
  [
    155,
    40
  ],
  [
    156,
    35
  ],
  [
    157,
    60
  ],
  [
    158,
    65
  ],
  [
    159,
    84
  ],
  [
    160,
    91
  ],
  [
    161,
    110
  ],
  [
    162,
    133
  ],
  [
    163,
    156
  ],
  [
    164,
    231
  ],
  [
    165,
    241
  ],
  [
    166,
    318
  ],
  [
    167,
    391
  ],
  [
    168,
    402
  ],
  [
    169,
    541
  ],
  [
    170,
    581
  ],
  [
    171,
    695
  ],
  [
    172,
    759
  ],
  [
    173,
    810
  ],
  [
    174,
    804
  ],
  [
    175,
    988
  ],
  [
    176,
    1009
  ],
  [
    177,
    1053
  ],
  [
    178,
    1053
  ],
  [
    179,
    1044
  ],
  [
    180,
    1037
  ],
  [
    181,
    929
  ],
  [
    182,
    885
  ],
  [
    183,
    817
  ],
  [
    184,
    645
  ],
  [
    185,
    656
  ],
  [
    186,
    575
  ],
  [
    187,
    503
  ],
  [
    188,
    460
  ],
  [
    189,
    376
  ],
  [
    190,
    363
  ],
  [
    191,
    301
  ],
  [
    192,
    265
  ],
  [
    193,
    188
  ],
  [
    194,
    201
  ],
  [
    195,
    148
  ],
  [
    196,
    147
  ],
  [
    197,
    126
  ],
  [
    198,
    122
  ],
  [
    199,
    74
  ],
  [
    200,
    66
  ],
  [
    201,
    67
  ],
  [
    202,
    51
  ],
  [
    203,
    44
  ],
  [
    204,
    32
  ],
  [
    205,
    31
  ],
  [
    206,
    23
  ],
  [
    207,
    18
  ],
  [
    208,
    20
  ],
  [
    209,
    13
  ],
  [
    210,
    21
  ],
  [
    211,
    15
  ],
  [
    212,
    12
  ],
  [
    213,
    13
  ],
  [
    214,
    12
  ],
  [
    215,
    6
  ],
  [
    216,
    4
  ],
  [
    217,
    9
  ],
  [
    218,
    11
  ],
  [
    219,
    5
  ],
  [
    220,
    0
  ],
  [
    221,
    3
  ],
  [
    222,
    6
  ],
  [
    223,
    2
  ],
  [
    224,
    0
  ],
  [
    225,
    2
  ],
  [
    226,
    6
  ],
  [
    227,
    0
  ],
  [
    228,
    3
  ],
  [
    229,
    3
  ],
  [
    230,
    3
  ],
  [
    231,
    2
  ],
  [
    232,
    3
  ],
  [
    233,
    2
  ],
  [
    234,
    3
  ],
  [
    235,
    0
  ],
  [
    236,
    1
  ],
  [
    237,
    2
  ],
  [
    238,
    0
  ],
  [
    239,
    0
  ],
  [
    240,
    1
  ],
  [
    241,
    0
  ],
  [
    242,
    1
  ],
  [
    243,
    0
  ],
  [
    244,
    1
  ],
  [
    245,
    1
  ],
  [
    246,
    1
  ],
  [
    247,
    1
  ],
  [
    248,
    4
  ],
  [
    249,
    4
  ],
  [
    250,
    2
  ],
  [
    251,
    2
  ],
  [
    252,
    4
  ],
  [
    253,
    3
  ],
  [
    254,
    8
  ],
  [
    255,
    1
  ],
  [
    256,
    2
  ],
  [
    257,
    3
  ],
  [
    258,
    4
  ],
  [
    259,
    3
  ],
  [
    260,
    7
  ],
  [
    261,
    8
  ],
  [
    262,
    8
  ],
  [
    263,
    6
  ],
  [
    264,
    11
  ],
  [
    265,
    13
  ],
  [
    266,
    9
  ],
  [
    267,
    13
  ],
  [
    268,
    9
  ],
  [
    269,
    23
  ],
  [
    270,
    20
  ],
  [
    271,
    29
  ],
  [
    272,
    30
  ],
  [
    273,
    29
  ],
  [
    274,
    37
  ],
  [
    275,
    42
  ],
  [
    276,
    69
  ],
  [
    277,
    76
  ],
  [
    278,
    95
  ],
  [
    279,
    98
  ],
  [
    280,
    125
  ],
  [
    281,
    172
  ],
  [
    282,
    201
  ],
  [
    283,
    257
  ],
  [
    284,
    345
  ],
  [
    285,
    404
  ],
  [
    286,
    469
  ],
  [
    287,
    569
  ],
  [
    288,
    716
  ],
  [
    289,
    885
  ],
  [
    290,
    1058
  ],
  [
    291,
    1193
  ],
  [
    292,
    1384
  ],
  [
    293,
    1354
  ],
  [
    294,
    1525
  ],
  [
    295,
    1601
  ],
  [
    296,
    1614
  ],
  [
    297,
    1501
  ],
  [
    298,
    1449
  ],
  [
    299,
    1302
  ],
  [
    300,
    1204
  ],
  [
    301,
    985
  ],
  [
    302,
    902
  ],
  [
    303,
    714
  ],
  [
    304,
    609
  ],
  [
    305,
    500
  ],
  [
    306,
    381
  ],
  [
    307,
    335
  ],
  [
    308,
    275
  ],
  [
    309,
    236
  ],
  [
    310,
    196
  ],
  [
    311,
    143
  ],
  [
    312,
    99
  ],
  [
    313,
    83
  ],
  [
    314,
    65
  ],
  [
    315,
    62
  ],
  [
    316,
    54
  ],
  [
    317,
    43
  ],
  [
    318,
    31
  ],
  [
    319,
    32
  ],
  [
    320,
    30
  ],
  [
    321,
    27
  ],
  [
    322,
    9
  ],
  [
    323,
    20
  ],
  [
    324,
    20
  ],
  [
    325,
    13
  ],
  [
    326,
    12
  ],
  [
    327,
    13
  ],
  [
    328,
    6
  ],
  [
    329,
    6
  ],
  [
    330,
    5
  ],
  [
    331,
    5
  ],
  [
    332,
    4
  ],
  [
    333,
    6
  ],
  [
    334,
    2
  ],
  [
    335,
    8
  ],
  [
    336,
    1
  ],
  [
    337,
    3
  ],
  [
    338,
    2
  ],
  [
    339,
    3
  ],
  [
    340,
    3
  ],
  [
    341,
    5
  ],
  [
    342,
    2
  ],
  [
    343,
    4
  ],
  [
    344,
    1
  ],
  [
    345,
    3
  ],
  [
    346,
    2
  ],
  [
    347,
    1
  ],
  [
    348,
    0
  ],
  [
    349,
    3
  ],
  [
    350,
    2
  ],
  [
    351,
    2
  ],
  [
    352,
    2
  ],
  [
    353,
    0
  ],
  [
    354,
    2
  ],
  [
    355,
    1
  ],
  [
    356,
    1
  ],
  [
    357,
    1
  ],
  [
    358,
    3
  ],
  [
    359,
    2
  ]
]