[
  [
    0,
    36
  ],
  [
    1,
    40
  ],
  [
    2,
    58
  ],
  [
    3,
    60
  ],
  [
    4,
    54
  ],
  [
    5,
    60
  ],
  [
    6,
    41
  ],
  [
    7,
    49
  ],
  [
    8,
    47
  ],
  [
    9,
    61
  ],
  [
    10,
    41
  ],
  [
    11,
    53
  ],
  [
    12,
    46
  ],
  [
    13,
    45
  ],
  [
    14,
    30
  ],
  [
    15,
    47
  ],
  [
    16,
    41
  ],
  [
    17,
    40
  ],
  [
    18,
    44
  ],
  [
    19,
    40
  ],
  [
    20,
    50
  ],
  [
    21,
    30
  ],
  [
    22,
    47
  ],
  [
    23,
    25
  ],
  [
    24,
    30
  ],
  [
    25,
    40
  ],
  [
    26,
    32
  ],
  [
    27,
    27
  ],
  [
    28,
    40
  ],
  [
    29,
    26
  ],
  [
    30,
    34
  ],
  [
    31,
    34
  ],
  [
    32,
    41
  ],
  [
    33,
    23
  ],
  [
    34,
    39
  ],
  [
    35,
    26
  ],
  [
    36,
    19
  ],
  [
    37,
    24
  ],
  [
    38,
    24
  ],
  [
    39,
    26
  ],
  [
    40,
    36
  ],
  [
    41,
    31
  ],
  [
    42,
    30
  ],
  [
    43,
    34
  ],
  [
    44,
    27
  ],
  [
    45,
    26
  ],
  [
    46,
    34
  ],
  [
    47,
    30
  ],
  [
    48,
    24
  ],
  [
    49,
    20
  ],
  [
    50,
    29
  ],
  [
    51,
    17
  ],
  [
    52,
    27
  ],
  [
    53,
    30
  ],
  [
    54,
    35
  ],
  [
    55,
    35
  ],
  [
    56,
    34
  ],
  [
    57,
    44
  ],
  [
    58,
    39
  ],
  [
    59,
    32
  ],
  [
    60,
    51
  ],
  [
    61,
    44
  ],
  [
    62,
    42
  ],
  [
    63,
    38
  ],
  [
    64,
    70
  ],
  [
    65,
    44
  ],
  [
    66,
    59
  ],
  [
    67,
    58
  ],
  [
    68,
    61
  ],
  [
    69,
    85
  ],
  [
    70,
    73
  ],
  [
    71,
    96
  ],
  [
    72,
    95
  ],
  [
    73,
    106
  ],
  [
    74,
    106
  ],
  [
    75,
    117
  ],
  [
    76,
    126
  ],
  [
    77,
    147
  ],
  [
    78,
    165
  ],
  [
    79,
    211
  ],
  [
    80,
    196
  ],
  [
    81,
    208
  ],
  [
    82,
    247
  ],
  [
    83,
    259
  ],
  [
    84,
    289
  ],
  [
    85,
    302
  ],
  [
    86,
    311
  ],
  [
    87,
    338
  ],
  [
    88,
    329
  ],
  [
    89,
    347
  ],
  [
    90,
    341
  ],
  [
    91,
    315
  ],
  [
    92,
    327
  ],
  [
    93,
    350
  ],
  [
    94,
    287
  ],
  [
    95,
    278
  ],
  [
    96,
    293
  ],
  [
    97,
    309
  ],
  [
    98,
    283
  ],
  [
    99,
    263
  ],
  [
    100,
    222
  ],
  [
    101,
    242
  ],
  [
    102,
    226
  ],
  [
    103,
    236
  ],
  [
    104,
    181
  ],
  [
    105,
    222
  ],
  [
    106,
    221
  ],
  [
    107,
    203
  ],
  [
    108,
    181
  ],
  [
    109,
    176
  ],
  [
    110,
    151
  ],
  [
    111,
    170
  ],
  [
    112,
    154
  ],
  [
    113,
    148
  ],
  [
    114,
    123
  ],
  [
    115,
    119
  ],
  [
    116,
    96
  ],
  [
    117,
    101
  ],
  [
    118,
    90
  ],
  [
    119,
    79
  ],
  [
    120,
    83
  ],
  [
    121,
    50
  ],
  [
    122,
    51
  ],
  [
    123,
    54
  ],
  [
    124,
    27
  ],
  [
    125,
    32
  ],
  [
    126,
    28
  ],
  [
    127,
    23
  ],
  [
    128,
    24
  ],
  [
    129,
    24
  ],
  [
    130,
    14
  ],
  [
    131,
    12
  ],
  [
    132,
    10
  ],
  [
    133,
    11
  ],
  [
    134,
    8
  ],
  [
    135,
    5
  ],
  [
    136,
    5
  ],
  [
    137,
    9
  ],
  [
    138,
    11
  ],
  [
    139,
    7
  ],
  [
    140,
    4
  ],
  [
    141,
    3
  ],
  [
    142,
    7
  ],
  [
    143,
    3
  ],
  [
    144,
    3
  ],
  [
    145,
    1
  ],
  [
    146,
    4
  ],
  [
    147,
    3
  ],
  [
    148,
    4
  ],
  [
    149,
    1
  ],
  [
    150,
    4
  ],
  [
    151,
    0
  ],
  [
    152,
    2
  ],
  [
    153,
    2
  ],
  [
    154,
    0
  ],
  [
    155,
    2
  ],
  [
    156,
    0
  ],
  [
    157,
    1
  ],
  [
    158,
    2
  ],
  [
    159,
    0
  ],
  [
    160,
    1
  ],
  [
    161,
    0
  ],
  [
    162,
    1
  ],
  [
    163,
    0
  ],
  [
    164,
    0
  ],
  [
    165,
    0
  ],
  [
    166,
    1
  ],
  [
    167,
    1
  ],
  [
    168,
    0
  ],
  [
    169,
    0
  ],
  [
    170,
    0
  ],
  [
    171,
    2
  ],
  [
    172,
    0
  ],
  [
    173,
    1
  ],
  [
    174,
    0
  ],
  [
    175,
    0
  ],
  [
    176,
    0
  ],
  [
    177,
    1
  ],
  [
    178,
    1
  ],
  [
    179,
    0
  ],
  [
    180,
    0
  ],
  [
    181,
    0
  ],
  [
    182,
    0
  ],
  [
    183,
    0
  ],
  [
    184,
    0
  ],
  [
    185,
    1
  ],
  [
    186,
    0
  ],
  [
    187,
    0
  ],
  [
    188,
    0
  ],
  [
    189,
    0
  ],
  [
    190,
    1
  ],
  [
    191,
    0
  ],
  [
    192,
    0
  ],
  [
    193,
    0
  ],
  [
    194,
    0
  ],
  [
    195,
    0
  ],
  [
    196,
    0
  ],
  [
    197,
    0
  ],
  [
    198,
    1
  ],
  [
    199,
    0
  ],
  [
    200,
    0
  ],
  [
    201,
    0
  ],
  [
    202,
    1
  ],
  [
    203,
    0
  ],
  [
    204,
    1
  ],
  [
    205,
    0
  ],
  [
    206,
    2
  ],
  [
    207,
    0
  ],
  [
    208,
    2
  ],
  [
    209,
    0
  ],
  [
    210,
    2
  ],
  [
    211,
    2
  ],
  [
    212,
    1
  ],
  [
    213,
    2
  ],
  [
    214,
    1
  ],
  [
    215,
    0
  ],
  [
    216,
    0
  ],
  [
    217,
    2
  ],
  [
    218,
    1
  ],
  [
    219,
    3
  ],
  [
    220,
    2
  ],
  [
    221,
    4
  ],
  [
    222,
    3
  ],
  [
    223,
    5
  ],
  [
    224,
    5
  ],
  [
    225,
    7
  ],
  [
    226,
    10
  ],
  [
    227,
    13
  ],
  [
    228,
    11
  ],
  [
    229,
    11
  ],
  [
    230,
    14
  ],
  [
    231,
    19
  ],
  [
    232,
    23
  ],
  [
    233,
    26
  ],
  [
    234,
    27
  ],
  [
    235,
    37
  ],
  [
    236,
    37
  ],
  [
    237,
    46
  ],
  [
    238,
    43
  ],
  [
    239,
    51
  ],
  [
    240,
    66
  ],
  [
    241,
    67
  ],
  [
    242,
    72
  ],
  [
    243,
    80
  ],
  [
    244,
    97
  ],
  [
    245,
    83
  ],
  [
    246,
    93
  ],
  [
    247,
    96
  ],
  [
    248,
    95
  ],
  [
    249,
    109
  ],
  [
    250,
    119
  ],
  [
    251,
    111
  ],
  [
    252,
    138
  ],
  [
    253,
    161
  ],
  [
    254,
    148
  ],
  [
    255,
    169
  ],
  [
    256,
    154
  ],
  [
    257,
    179
  ],
  [
    258,
    162
  ],
  [
    259,
    192
  ],
  [
    260,
    219
  ],
  [
    261,
    218
  ],
  [
    262,
    229
  ],
  [
    263,
    234
  ],
  [
    264,
    220
  ],
  [
    265,
    200
  ],
  [
    266,
    223
  ],
  [
    267,
    238
  ],
  [
    268,
    197
  ],
  [
    269,
    167
  ],
  [
    270,
    169
  ],
  [
    271,
    142
  ],
  [
    272,
    157
  ],
  [
    273,
    149
  ],
  [
    274,
    152
  ],
  [
    275,
    122
  ],
  [
    276,
    116
  ],
  [
    277,
    87
  ],
  [
    278,
    80
  ],
  [
    279,
    91
  ],
  [
    280,
    93
  ],
  [
    281,
    74
  ],
  [
    282,
    85
  ],
  [
    283,
    55
  ],
  [
    284,
    50
  ],
  [
    285,
    43
  ],
  [
    286,
    46
  ],
  [
    287,
    39
  ],
  [
    288,
    34
  ],
  [
    289,
    45
  ],
  [
    290,
    33
  ],
  [
    291,
    27
  ],
  [
    292,
    19
  ],
  [
    293,
    25
  ],
  [
    294,
    20
  ],
  [
    295,
    23
  ],
  [
    296,
    18
  ],
  [
    297,
    16
  ],
  [
    298,
    23
  ],
  [
    299,
    13
  ],
  [
    300,
    11
  ],
  [
    301,
    14
  ],
  [
    302,
    13
  ],
  [
    303,
    13
  ],
  [
    304,
    15
  ],
  [
    305,
    13
  ],
  [
    306,
    16
  ],
  [
    307,
    13
  ],
  [
    308,
    17
  ],
  [
    309,
    6
  ],
  [
    310,
    17
  ],
  [
    311,
    18
  ],
  [
    312,
    11
  ],
  [
    313,
    16
  ],
  [
    314,
    16
  ],
  [
    315,
    10
  ],
  [
    316,
    20
  ],
  [
    317,
    19
  ],
  [
    318,
    19
  ],
  [
    319,
    15
  ],
  [
    320,
    19
  ],
  [
    321,
    26
  ],
  [
    322,
    23
  ],
  [
    323,
    24
  ],
  [
    324,
    30
  ],
  [
    325,
    31
  ],
  [
    326,
    42
  ],
  [
    327,
    39
  ],
  [
    328,
    34
  ],
  [
    329,
    40
  ],
  [
    330,
    46
  ],
  [
    331,
    39
  ],
  [
    332,
    43
  ],
  [
    333,
    61
  ],
  [
    334,
    48
  ],
  [
    335,
    55
  ],
  [
    336,
    54
  ],
  [
    337,
    49
  ],
  [
    338,
    44
  ],
  [
    339,
    42
  ],
  [
    340,
    57
  ],
  [
    341,
    58
  ],
  [
    342,
    73
  ],
  [
    343,
    66
  ],
  [
    344,
    54
  ],
  [
    345,
    51
  ],
  [
    346,
    63
  ],
  [
    347,
    70
  ],
  [
    348,
    62
  ],
  [
    349,
    75
  ],
  [
    350,
    72
  ],
  [
    351,
    63
  ],
  [
    352,
    57
  ],
  [
    353,
    56
  ],
  [
    354,
    54
  ],
  [
    355,
    63
  ],
  [
    356,
    77
  ],
  [
    357,
    54
  ],
  [
    358,
    40
  ],
  [
    359,
    41
  ]
]