[
  [
    0,
    0
  ],
  [
    1,
    1
  ],
  [
    2,
    0
  ],
  [
    3,
    0
  ],
  [
    4,
    0
  ],
  [
    5,
    1
  ],
  [
    6,
    0
  ],
  [
    7,
    0
  ],
  [
    8,
    1
  ],
  [
    9,
    1
  ],
  [
    10,
    0
  ],
  [
    11,
    0
  ],
  [
    12,
    1
  ],
  [
    13,
    0
  ],
  [
    14,
    0
  ],
  [
    15,
    0
  ],
  [
    16,
    0
  ],
  [
    17,
    1
  ],
  [
    18,
    0
  ],
  [
    19,
    0
  ],
  [
    20,
    0
  ],
  [
    21,
    1
  ],
  [
    22,
    1
  ],
  [
    23,
    1
  ],
  [
    24,
    1
  ],
  [
    25,
    3
  ],
  [
    26,
    0
  ],
  [
    27,
    0
  ],
  [
    28,
    0
  ],
  [
    29,
    0
  ],
  [
    30,
    1
  ],
  [
    31,
    2
  ],
  [
    32,
    1
  ],
  [
    33,
    5
  ],
  [
    34,
    2
  ],
  [
    35,
    6
  ],
  [
    36,
    9
  ],
  [
    37,
    6
  ],
  [
    38,
    18
  ],
  [
    39,
    14
  ],
  [
    40,
    15
  ],
  [
    41,
    22
  ],
  [
    42,
    30
  ],
  [
    43,
    28
  ],
  [
    44,
    29
  ],
  [
    45,
    41
  ],
  [
    46,
    42
  ],
  [
    47,
    50
  ],
  [
    48,
    60
  ],
  [
    49,
    72
  ],
  [
    50,
    64
  ],
  [
    51,
    103
  ],
  [
    52,
    110
  ],
  [
    53,
    94
  ],
  [
    54,
    100
  ],
  [
    55,
    106
  ],
  [
    56,
    108
  ],
  [
    57,
    134
  ],
  [
    58,
    115
  ],
  [
    59,
    136
  ],
  [
    60,
    146
  ],
  [
    61,
    137
  ],
  [
    62,
    146
  ],
  [
    63,
    133
  ],
  [
    64,
    165
  ],
  [
    65,
    117
  ],
  [
    66,
    131
  ],
  [
    67,
    132
  ],
  [
    68,
    107
  ],
  [
    69,
    113
  ],
  [
    70,
    109
  ],
  [
    71,
    91
  ],
  [
    72,
    54
  ],
  [
    73,
    77
  ],
  [
    74,
    52
  ],
  [
    75,
    58
  ],
  [
    76,
    43
  ],
  [
    77,
    44
  ],
  [
    78,
    30
  ],
  [
    79,
    26
  ],
  [
    80,
    18
  ],
  [
    81,
    17
  ],
  [
    82,
    21
  ],
  [
    83,
    14
  ],
  [
    84,
    13
  ],
  [
    85,
    8
  ],
  [
    86,
    7
  ],
  [
    87,
    4
  ],
  [
    88,
    2
  ],
  [
    89,
    5
  ],
  [
    90,
    3
  ],
  [
    91,
    2
  ],
  [
    92,
    1
  ],
  [
    93,
    2
  ],
  [
    94,
    2
  ],
  [
    95,
    1
  ],
  [
    96,
    0
  ],
  [
    97,
    0
  ],
  [
    98,
    0
  ],
  [
    99,
    1
  ],
  [
    100,
    0
  ],
  [
    101,
    0
  ],
  [
    102,
    0
  ],
  [
    103,
    1
  ],
  [
    104,
    0
  ],
  [
    105,
    0
  ],
  [
    106,
    0
  ],
  [
    107,
    1
  ],
  [
    108,
    0
  ],
  [
    109,
    0
  ],
  [
    110,
    0
  ],
  [
    111,
    0
  ],
  [
    112,
    1
  ],
  [
    113,
    0
  ],
  [
    114,
    0
  ],
  [
    115,
    0
  ],
  [
    116,
    1
  ],
  [
    117,
    0
  ],
  [
    118,
    0
  ],
  [
    119,
    0
  ],
  [
    120,
    0
  ],
  [
    121,
    0
  ],
  [
    122,
    0
  ],
  [
    123,
    0
  ],
  [
    124,
    0
  ],
  [
    125,
    0
  ],
  [
    126,
    0
  ],
  [
    127,
    0
  ],
  [
    128,
    0
  ],
  [
    129,
    0
  ],
  [
    130,
    0
  ],
  [
    131,
    1
  ],
  [
    132,
    0
  ],
  [
    133,
    0
  ],
  [
    134,
    0
  ],
  [
    135,
    0
  ],
  [
    136,
    1
  ],
  [
    137,
    0
  ],
  [
    138,
    1
  ],
  [
    139,
    1
  ],
  [
    140,
    1
  ],
  [
    141,
    0
  ],
  [
    142,
    2
  ],
  [
    143,
    0
  ],
  [
    144,
    1
  ],
  [
    145,
    0
  ],
  [
    146,
    2
  ],
  [
    147,
    2
  ],
  [
    148,
    0
  ],
  [
    149,
    1
  ],
  [
    150,
    1
  ],
  [
    151,
    2
  ],
  [
    152,
    3
  ],
  [
    153,
    4
  ],
  [
    154,
    8
  ],
  [
    155,
    6
  ],
  [
    156,
    9
  ],
  [
    157,
    14
  ],
  [
    158,
    22
  ],
  [
    159,
    18
  ],
  [
    160,
    28
  ],
  [
    161,
    30
  ],
  [
    162,
    54
  ],
  [
    163,
    54
  ],
  [
    164,
    68
  ],
  [
    165,
    76
  ],
  [
    166,
    77
  ],
  [
    167,
    119
  ],
  [
    168,
    137
  ],
  [
    169,
    143
  ],
  [
    170,
    145
  ],
  [
    171,
    211
  ],
  [
    172,
    196
  ],
  [
    173,
    241
  ],
  [
    174,
    261
  ],
  [
    175,
    247
  ],
  [
    176,
    260
  ],
  [
    177,
    284
  ],
  [
    178,
    337
  ],
  [
    179,
    324
  ],
  [
    180,
    350
  ],
  [
    181,
    354
  ],
  [
    182,
    330
  ],
  [
    183,
    308
  ],
  [
    184,
    293
  ],
  [
    185,
    288
  ],
  [
    186,
    273
  ],
  [
    187,
    246
  ],
  [
    188,
    253
  ],
  [
    189,
    195
  ],
  [
    190,
    192
  ],
  [
    191,
    156
  ],
  [
    192,
    145
  ],
  [
    193,
    116
  ],
  [
    194,
    114
  ],
  [
    195,
    94
  ],
  [
    196,
    86
  ],
  [
    197,
    76
  ],
  [
    198,
    47
  ],
  [
    199,
    48
  ],
  [
    200,
    60
  ],
  [
    201,
    45
  ],
  [
    202,
    44
  ],
  [
    203,
    37
  ],
  [
    204,
    40
  ],
  [
    205,
    33
  ],
  [
    206,
    34
  ],
  [
    207,
    27
  ],
  [
    208,
    17
  ],
  [
    209,
    10
  ],
  [
    210,
    15
  ],
  [
    211,
    10
  ],
  [
    212,
    9
  ],
  [
    213,
    8
  ],
  [
    214,
    11
  ],
  [
    215,
    5
  ],
  [
    216,
    6
  ],
  [
    217,
    6
  ],
  [
    218,
    3
  ],
  [
    219,
    2
  ],
  [
    220,
    2
  ],
  [
    221,
    3
  ],
  [
    222,
    1
  ],
  [
    223,
    3
  ],
  [
    224,
    2
  ],
  [
    225,
    1
  ],
  [
    226,
    2
  ],
  [
    227,
    2
  ],
  [
    228,
    1
  ],
  [
    229,
    3
  ],
  [
    230,
    1
  ],
  [
    231,
    1
  ],
  [
    232,
    1
  ],
  [
    233,
    3
  ],
  [
    234,
    1
  ],
  [
    235,
    0
  ],
  [
    236,
    1
  ],
  [
    237,
    2
  ],
  [
    238,
    1
  ],
  [
    239,
    0
  ],
  [
    240,
    0
  ],
  [
    241,
    0
  ],
  [
    242,
    2
  ],
  [
    243,
    1
  ],
  [
    244,
    2
  ],
  [
    245,
    1
  ],
  [
    246,
    2
  ],
  [
    247,
    2
  ],
  [
    248,
    4
  ],
  [
    249,
    3
  ],
  [
    250,
    0
  ],
  [
    251,
    5
  ],
  [
    252,
    3
  ],
  [
    253,
    5
  ],
  [
    254,
    5
  ],
  [
    255,
    9
  ],
  [
    256,
    11
  ],
  [
    257,
    6
  ],
  [
    258,
    10
  ],
  [
    259,
    7
  ],
  [
    260,
    12
  ],
  [
    261,
    11
  ],
  [
    262,
    8
  ],
  [
    263,
    15
  ],
  [
    264,
    11
  ],
  [
    265,
    20
  ],
  [
    266,
    17
  ],
  [
    267,
    26
  ],
  [
    268,
    29
  ],
  [
    269,
    22
  ],
  [
    270,
    32
  ],
  [
    271,
    47
  ],
  [
    272,
    67
  ],
  [
    273,
    65
  ],
  [
    274,
    79
  ],
  [
    275,
    88
  ],
  [
    276,
    103
  ],
  [
    277,
    117
  ],
  [
    278,
    143
  ],
  [
    279,
    160
  ],
  [
    280,
    187
  ],
  [
    281,
    246
  ],
  [
    282,
    247
  ],
  [
    283,
    249
  ],
  [
    284,
    326
  ],
  [
    285,
    360
  ],
  [
    286,
    379
  ],
  [
    287,
    468
  ],
  [
    288,
    433
  ],
  [
    289,
    498
  ],
  [
    290,
    484
  ],
  [
    291,
    530
  ],
  [
    292,
    556
  ],
  [
    293,
    524
  ],
  [
    294,
    508
  ],
  [
    295,
    454
  ],
  [
    296,
    431
  ],
  [
    297,
    393
  ],
  [
    298,
    388
  ],
  [
    299,
    342
  ],
  [
    300,
    334
  ],
  [
    301,
    269
  ],
  [
    302,
    264
  ],
  [
    303,
    233
  ],
  [
    304,
    196
  ],
  [
    305,
    181
  ],
  [
    306,
    163
  ],
  [
    307,
    142
  ],
  [
    308,
    123
  ],
  [
    309,
    97
  ],
  [
    310,
    84
  ],
  [
    311,
    67
  ],
  [
    312,
    65
  ],
  [
    313,
    50
  ],
  [
    314,
    51
  ],
  [
    315,
    27
  ],
  [
    316,
    26
  ],
  [
    317,
    24
  ],
  [
    318,
    16
  ],
  [
    319,
    14
  ],
  [
    320,
    14
  ],
  [
    321,
    9
  ],
  [
    322,
    4
  ],
  [
    323,
    5
  ],
  [
    324,
    7
  ],
  [
    325,
    4
  ],
  [
    326,
    6
  ],
  [
    327,
    3
  ],
  [
    328,
    2
  ],
  [
    329,
    1
  ],
  [
    330,
    0
  ],
  [
    331,
    1
  ],
  [
    332,
    0
  ],
  [
    333,
    0
  ],
  [
    334,
    1
  ],
  [
    335,
    0
  ],
  [
    336,
    0
  ],
  [
    337,
    0
  ],
  [
    338,
    0
  ],
  [
    339,
    0
  ],
  [
    340,
    0
  ],
  [
    341,
    0
  ],
  [
    342,
    0
  ],
  [
    343,
    0
  ],
  [
    344,
    0
  ],
  [
    345,
    1
  ],
  [
    346,
    0
  ],
  [
    347,
    0
  ],
  [
    348,
    0
  ],
  [
    349,
    0
  ],
  [
    350,
    0
  ],
  [
    351,
    0
  ],
  [
    352,
    1
  ],
  [
    353,
    1
  ],
  [
    354,
    0
  ],
  [
    355,
    0
  ],
  [
    356,
    0
  ],
  [
    357,
    0
  ],
  [
    358,
    0
  ],
  [
    359,
    0
  ]
]