[
  [
    0,
    25
  ],
  [
    1,
    29
  ],
  [
    2,
    26
  ],
  [
    3,
    31
  ],
  [
    4,
    26
  ],
  [
    5,
    28
  ],
  [
    6,
    26
  ],
  [
    7,
    30
  ],
  [
    8,
    36
  ],
  [
    9,
    23
  ],
  [
    10,
    29
  ],
  [
    11,
    30
  ],
  [
    12,
    26
  ],
  [
    13,
    23
  ],
  [
    14,
    26
  ],
  [
    15,
    25
  ],
  [
    16,
    34
  ],
  [
    17,
    25
  ],
  [
    18,
    25
  ],
  [
    19,
    27
  ],
  [
    20,
    15
  ],
  [
    21,
    24
  ],
  [
    22,
    18
  ],
  [
    23,
    29
  ],
  [
    24,
    30
  ],
  [
    25,
    23
  ],
  [
    26,
    26
  ],
  [
    27,
    22
  ],
  [
    28,
    32
  ],
  [
    29,
    26
  ],
  [
    30,
    31
  ],
  [
    31,
    26
  ],
  [
    32,
    35
  ],
  [
    33,
    38
  ],
  [
    34,
    35
  ],
  [
    35,
    31
  ],
  [
    36,
    43
  ],
  [
    37,
    48
  ],
  [
    38,
    45
  ],
  [
    39,
    43
  ],
  [
    40,
    41
  ],
  [
    41,
    49
  ],
  [
    42,
    54
  ],
  [
    43,
    58
  ],
  [
    44,
    55
  ],
  [
    45,
    66
  ],
  [
    46,
    76
  ],
  [
    47,
    77
  ],
  [
    48,
    85
  ],
  [
    49,
    89
  ],
  [
    50,
    108
  ],
  [
    51,
    106
  ],
  [
    52,
    128
  ],
  [
    53,
    113
  ],
  [
    54,
    159
  ],
  [
    55,
    150
  ],
  [
    56,
    163
  ],
  [
    57,
    181
  ],
  [
    58,
    190
  ],
  [
    59,
    222
  ],
  [
    60,
    214
  ],
  [
    61,
    254
  ],
  [
    62,
    319
  ],
  [
    63,
    306
  ],
  [
    64,
    292
  ],
  [
    65,
    364
  ],
  [
    66,
    391
  ],
  [
    67,
    420
  ],
  [
    68,
    410
  ],
  [
    69,
    473
  ],
  [
    70,
    534
  ],
  [
    71,
    588
  ],
  [
    72,
    621
  ],
  [
    73,
    668
  ],
  [
    74,
    708
  ],
  [
    75,
    719
  ],
  [
    76,
    775
  ],
  [
    77,
    829
  ],
  [
    78,
    889
  ],
  [
    79,
    979
  ],
  [
    80,
    996
  ],
  [
    81,
    927
  ],
  [
    82,
    1010
  ],
  [
    83,
    1077
  ],
  [
    84,
    1016
  ],
  [
    85,
    1037
  ],
  [
    86,
    987
  ],
  [
    87,
    1000
  ],
  [
    88,
    900
  ],
  [
    89,
    723
  ],
  [
    90,
    497
  ],
  [
    91,
    376
  ],
  [
    92,
    341
  ],
  [
    93,
    296
  ],
  [
    94,
    283
  ],
  [
    95,
    224
  ],
  [
    96,
    233
  ],
  [
    97,
    211
  ],
  [
    98,
    181
  ],
  [
    99,
    154
  ],
  [
    100,
    125
  ],
  [
    101,
    141
  ],
  [
    102,
    123
  ],
  [
    103,
    109
  ],
  [
    104,
    113
  ],
  [
    105,
    93
  ],
  [
    106,
    107
  ],
  [
    107,
    84
  ],
  [
    108,
    79
  ],
  [
    109,
    65
  ],
  [
    110,
    64
  ],
  [
    111,
    51
  ],
  [
    112,
    46
  ],
  [
    113,
    59
  ],
  [
    114,
    50
  ],
  [
    115,
    39
  ],
  [
    116,
    37
  ],
  [
    117,
    64
  ],
  [
    118,
    34
  ],
  [
    119,
    37
  ],
  [
    120,
    25
  ],
  [
    121,
    21
  ],
  [
    122,
    27
  ],
  [
    123,
    30
  ],
  [
    124,
    24
  ],
  [
    125,
    27
  ],
  [
    126,
    21
  ],
  [
    127,
    31
  ],
  [
    128,
    10
  ],
  [
    129,
    15
  ],
  [
    130,
    16
  ],
  [
    131,
    13
  ],
  [
    132,
    14
  ],
  [
    133,
    13
  ],
  [
    134,
    12
  ],
  [
    135,
    17
  ],
  [
    136,
    12
  ],
  [
    137,
    12
  ],
  [
    138,
    10
  ],
  [
    139,
    11
  ],
  [
    140,
    9
  ],
  [
    141,
    12
  ],
  [
    142,
    12
  ],
  [
    143,
    14
  ],
  [
    144,
    9
  ],
  [
    145,
    8
  ],
  [
    146,
    6
  ],
  [
    147,
    6
  ],
  [
    148,
    8
  ],
  [
    149,
    9
  ],
  [
    150,
    10
  ],
  [
    151,
    8
  ],
  [
    152,
    9
  ],
  [
    153,
    6
  ],
  [
    154,
    3
  ],
  [
    155,
    11
  ],
  [
    156,
    2
  ],
  [
    157,
    5
  ],
  [
    158,
    5
  ],
  [
    159,
    4
  ],
  [
    160,
    6
  ],
  [
    161,
    4
  ],
  [
    162,
    10
  ],
  [
    163,
    8
  ],
  [
    164,
    6
  ],
  [
    165,
    4
  ],
  [
    166,
    4
  ],
  [
    167,
    9
  ],
  [
    168,
    4
  ],
  [
    169,
    4
  ],
  [
    170,
    2
  ],
  [
    171,
    2
  ],
  [
    172,
    8
  ],
  [
    173,
    4
  ],
  [
    174,
    7
  ],
  [
    175,
    2
  ],
  [
    176,
    1
  ],
  [
    177,
    2
  ],
  [
    178,
    1
  ],
  [
    179,
    2
  ],
  [
    180,
    3
  ],
  [
    181,
    1
  ],
  [
    182,
    1
  ],
  [
    183,
    3
  ],
  [
    184,
    3
  ],
  [
    185,
    2
  ],
  [
    186,
    1
  ],
  [
    187,
    4
  ],
  [
    188,
    3
  ],
  [
    189,
    2
  ],
  [
    190,
    2
  ],
  [
    191,
    2
  ],
  [
    192,
    0
  ],
  [
    193,
    0
  ],
  [
    194,
    3
  ],
  [
    195,
    4
  ],
  [
    196,
    1
  ],
  [
    197,
    3
  ],
  [
    198,
    1
  ],
  [
    199,
    1
  ],
  [
    200,
    1
  ],
  [
    201,
    4
  ],
  [
    202,
    7
  ],
  [
    203,
    1
  ],
  [
    204,
    4
  ],
  [
    205,
    2
  ],
  [
    206,
    4
  ],
  [
    207,
    1
  ],
  [
    208,
    3
  ],
  [
    209,
    1
  ],
  [
    210,
    3
  ],
  [
    211,
    2
  ],
  [
    212,
    1
  ],
  [
    213,
    2
  ],
  [
    214,
    2
  ],
  [
    215,
    4
  ],
  [
    216,
    6
  ],
  [
    217,
    2
  ],
  [
    218,
    3
  ],
  [
    219,
    2
  ],
  [
    220,
    3
  ],
  [
    221,
    4
  ],
  [
    222,
    4
  ],
  [
    223,
    3
  ],
  [
    224,
    5
  ],
  [
    225,
    5
  ],
  [
    226,
    4
  ],
  [
    227,
    5
  ],
  [
    228,
    4
  ],
  [
    229,
    10
  ],
  [
    230,
    2
  ],
  [
    231,
    10
  ],
  [
    232,
    5
  ],
  [
    233,
    8
  ],
  [
    234,
    10
  ],
  [
    235,
    7
  ],
  [
    236,
    8
  ],
  [
    237,
    13
  ],
  [
    238,
    9
  ],
  [
    239,
    8
  ],
  [
    240,
    7
  ],
  [
    241,
    13
  ],
  [
    242,
    12
  ],
  [
    243,
    18
  ],
  [
    244,
    24
  ],
  [
    245,
    17
  ],
  [
    246,
    23
  ],
  [
    247,
    26
  ],
  [
    248,
    35
  ],
  [
    249,
    40
  ],
  [
    250,
    40
  ],
  [
    251,
    42
  ],
  [
    252,
    30
  ],
  [
    253,
    46
  ],
  [
    254,
    69
  ],
  [
    255,
    62
  ],
  [
    256,
    76
  ],
  [
    257,
    97
  ],
  [
    258,
    76
  ],
  [
    259,
    135
  ],
  [
    260,
    105
  ],
  [
    261,
    140
  ],
  [
    262,
    148
  ],
  [
    263,
    174
  ],
  [
    264,
    201
  ],
  [
    265,
    178
  ],
  [
    266,
    219
  ],
  [
    267,
    261
  ],
  [
    268,
    322
  ],
  [
    269,
    420
  ],
  [
    270,
    597
  ],
  [
    271,
    742
  ],
  [
    272,
    956
  ],
  [
    273,
    828
  ],
  [
    274,
    853
  ],
  [
    275,
    872
  ],
  [
    276,
    852
  ],
  [
    277,
    787
  ],
  [
    278,
    784
  ],
  [
    279,
    719
  ],
  [
    280,
    717
  ],
  [
    281,
    689
  ],
  [
    282,
    660
  ],
  [
    283,
    609
  ],
  [
    284,
    562
  ],
  [
    285,
    549
  ],
  [
    286,
    519
  ],
  [
    287,
    479
  ],
  [
    288,
    422
  ],
  [
    289,
    472
  ],
  [
    290,
    458
  ],
  [
    291,
    398
  ],
  [
    292,
    401
  ],
  [
    293,
    353
  ],
  [
    294,
    362
  ],
  [
    295,
    324
  ],
  [
    296,
    327
  ],
  [
    297,
    309
  ],
  [
    298,
    304
  ],
  [
    299,
    270
  ],
  [
    300,
    250
  ],
  [
    301,
    224
  ],
  [
    302,
    227
  ],
  [
    303,
    192
  ],
  [
    304,
    143
  ],
  [
    305,
    151
  ],
  [
    306,
    155
  ],
  [
    307,
    150
  ],
  [
    308,
    137
  ],
  [
    309,
    121
  ],
  [
    310,
    118
  ],
  [
    311,
    123
  ],
  [
    312,
    104
  ],
  [
    313,
    104
  ],
  [
    314,
    88
  ],
  [
    315,
    83
  ],
  [
    316,
    83
  ],
  [
    317,
    79
  ],
  [
    318,
    79
  ],
  [
    319,
    74
  ],
  [
    320,
    93
  ],
  [
    321,
    78
  ],
  [
    322,
    91
  ],
  [
    323,
    67
  ],
  [
    324,
    66
  ],
  [
    325,
    68
  ],
  [
    326,
    76
  ],
  [
    327,
    75
  ],
  [
    328,
    62
  ],
  [
    329,
    62
  ],
  [
    330,
    80
  ],
  [
    331,
    60
  ],
  [
    332,
    71
  ],
  [
    333,
    77
  ],
  [
    334,
    74
  ],
  [
    335,
    72
  ],
  [
    336,
    62
  ],
  [
    337,
    65
  ],
  [
    338,
    63
  ],
  [
    339,
    61
  ],
  [
    340,
    53
  ],
  [
    341,
    70
  ],
  [
    342,
    65
  ],
  [
    343,
    60
  ],
  [
    344,
    59
  ],
  [
    345,
    57
  ],
  [
    346,
    47
  ],
  [
    347,
    36
  ],
  [
    348,
    44
  ],
  [
    349,
    45
  ],
  [
    350,
    46
  ],
  [
    351,
    44
  ],
  [
    352,
    32
  ],
  [
    353,
    37
  ],
  [
    354,
    38
  ],
  [
    355,
    30
  ],
  [
    356,
    32
  ],
  [
    357,
    29
  ],
  [
    358,
    28
  ],
  [
    359,
    17
  ]
]